6.157856939624558379e+00 -1.146254396390837016e+01
-1.792455348025996287e+01 -3.189087462523248817e+00
6.003127860377276193e+00 1.370584326825586530e+01
-1.077240645632322646e+01 -1.929629094911203424e+01
-1.741584498218048793e+01 1.679750533247014488e+01
6.105513348925028616e+00 -1.227849920456392319e+01
2.793529133114548646e+00 -2.706693006835410031e+01
9.540629494639114583e+00 1.711251092091032788e+01
1.972530333710402317e+00 -2.621793646691311963e+01
2.433678695075256115e+01 -3.874739751347638705e+00
6.058190763320241423e+00 -1.199415273020331441e+01
-1.126131280158258896e+01 -1.943867361440238284e+01
-6.524797917999825891e+00 -2.408233053354815745e-01
9.384399775510940955e+00 2.694318761958361730e+00
3.904352139286186851e-01 9.045996312355136126e+00
-1.585432648380334086e+01 -4.851848797794340307e+00
2.436688050863775601e+01 -4.707607423066519026e+00
7.009261197253028541e+00 -1.137657403398374711e+01
4.773353164298165474e+00 1.016930035762017503e+01
2.547140797406039781e+01 -3.449078789566734748e+00
-1.939882718287663010e+01 -2.419713086365344878e+00
-1.774190844833865299e-01 2.216174524435942317e+01
-1.906975518962425176e-01 2.234045865219758298e+01
1.154470188278108900e+01 1.694269912373000508e+01
9.649270077920066413e+00 1.502064790440287823e+01
1.228407447363019500e+01 1.127705018349650956e+01
-1.077934684582377578e+01 -1.981382000535164067e+01
-1.306690781989957451e+01 -8.490494120138441403e+00
7.777413099176528899e-01 2.165516955998590376e+01
-1.087109883878184746e+01 -1.988832532160280309e+01
1.057651993511320399e+01 1.718828099796971998e+01
-2.220186219138292927e+01 1.306510223395036085e+01
-1.840745223101119166e+01 -1.925013501509620140e+00
1.185857866256233528e+01 1.622010689276041973e+01
2.179838496717597884e+00 -2.658147156934833788e+01
6.106957904174882934e+00 -1.201202204621314173e+01
2.496067916484247817e+01 -3.050189164522837171e+00
5.465099012681933210e+00 -1.160458854209521995e+01
2.234280306096224411e+00 -2.634977156984556856e+01
-1.682702907184536301e+01 -2.484136399722352451e+00
-2.988958680480394703e-01 2.214267187911797663e+01
-1.191991543270015441e+00 5.338662455793620865e+00
2.483906265297923355e+01 -3.360759389661835961e+00
6.899174544835494416e+00 -1.216677176961025175e+01
2.513454991962760232e+00 -2.734854585867269705e+01
5.956005136903772090e+00 -1.177118940481596532e+01
2.469912467530888378e+01 -3.837975083746195004e+00
6.172635075242023817e+00 -1.186250172801737079e+01
1.091399484597962477e+01 1.570256727700838439e+01
-1.790479642442425856e+01 -6.493593295967295731e+00
1.140804914656344948e+01 1.628121071527811381e+01
1.047155422912297951e+01 5.275978036152287665e+00
1.142851904111945771e+01 1.636737301421048585e+01
-1.696687011704854342e+01 -3.131292778783550723e+00
-2.013263699969696674e+01 -2.388856485606584812e+00
2.501600833046864381e+01 -2.478752406343297743e+00
2.542311430665835204e+01 -3.225041674141989834e+00
9.252630659395244095e+00 2.314545065735105212e+00
2.308414100634113009e+00 -2.706890671265416870e+01
-5.069295355684868554e+00 1.270973304831079886e+01
5.767803918057382795e+00 1.124685652849091966e+01
7.347333837811958368e+00 -1.198976223592303469e+01
-2.235933449392820194e+01 1.311169750406150314e+01
2.447803285506735094e+01 -4.784937652184166446e+00
2.681076114938212385e+01 -1.029988940026664856e+00
-1.946729188994499538e+01 -5.596113665801454751e+00
-1.118910194123861324e+01 -1.967012449146574227e+01
2.549906143403849512e+01 -4.153114731857925790e+00
5.507361200315378014e+00 -1.080400592998216958e+01
-1.752992275229666319e+01 -5.889654282275142982e+00
1.711310135450213821e+00 7.544395359037863180e+00
-2.027955751907079218e+01 -3.360228851565930430e+00
1.127455608676681287e+01 1.657119655948018888e+01
3.034404680641888952e+00 -1.733593685926969741e+01
-5.188419258921524779e+00 -1.710722739528270608e+01
9.354016860188352211e+00 7.814489841273483783e+00
5.884345609238548214e+00 -1.090451167244951947e+01
5.903073907376385598e+00 -1.175873755813720223e+01
1.153169542271235137e+01 1.663437729163363699e+01
1.120857895371777424e+01 1.662115439591580213e+01
1.160688515294147827e+01 1.693485311537691729e+01
-6.668149139523907643e+00 1.911503611494623556e+00
9.649786389375682560e+00 3.914226172826169581e+00
-5.917887058660366684e+00 2.668399337393924764e+00
-1.100905632090659836e+01 -2.006507467287520896e+01
-2.259921953243480530e+01 1.300848489567865407e+01
9.560159364251669345e+00 3.541318494439854803e+00
-2.263369259314870519e+01 1.285052705825846253e+01
1.155449687327578623e+01 1.510121014565305941e+01
4.924249056333078300e+00 2.185544138337652242e+01
4.105810398666781547e-01 7.377434175198425592e+00
-1.987605860983347128e+01 -4.765952956867188561e+00
9.416936012208791951e+00 2.217942107571366783e+00
6.155293431736917675e+00 -1.097187318835456260e+01
-1.902443595651226005e+01 -3.985028224394336682e+00
1.022407522738236452e+01 1.704541241698257181e+01
2.474414034179322641e+01 -2.349101512559892413e+00
-1.979437350427681253e+01 -5.475067337823348090e+00
9.765260480703769730e+00 1.569094443239587200e+01
2.463292372227020355e+00 -2.567605267086347709e+01
-1.110819405304719965e+01 -1.943571479830976045e+01
1.119620986977631816e+01 1.737523323045253676e+01
1.046617715337458066e+01 1.493628524902364596e+01
-9.484805255226987697e+00 -1.945863796942045809e+01
-2.015355834389660217e+01 -2.499365565045550852e+00
5.409765344707230028e+00 -1.222209354537873516e+01
-1.645319680910744253e+01 -3.109943200583683343e+00
2.250096856716389926e+00 -2.650339020848698013e+01
1.038812568098789946e+01 1.560632346407868098e+01
-6.704859126532217495e+00 1.770214206067758145e+00
2.426688907009661023e+01 -4.892796086913027587e+00
-2.013448058355955084e+01 -5.595626343005359438e+00
1.199852394277768575e+01 1.612268168799665347e+01
6.221446360310698864e+00 1.008052641823143070e+01
1.818258073236958428e+00 -5.784722957908920549e+00
6.675354839172824128e+00 -1.160906075031637030e+01
-1.254844902099118187e+01 -6.529045490702033661e+00
9.432012640707709394e+00 3.054342992305528526e+00
9.339632575278526971e+00 3.072251454869703302e+00
1.457736449179290972e+01 1.031751711197260057e+01
2.493834652227112514e+01 -3.156158471661183462e+00
1.124297410361867655e+01 1.506311502199010910e+01
6.405778099983550078e+00 -1.125916232378844839e+01
-1.886981081425720674e+01 -6.336792537105242040e+00
-1.306731636803071162e+01 1.859834158974394924e+01
5.666908036058440068e+00 -1.176719112513127108e+01
-2.111810977762638686e+01 -3.534995953788399703e+00
-2.261808682700633000e+01 1.292849397238597220e+01
1.044775854904409229e+01 1.702905441103693107e+01
-6.649278676590509640e+00 3.148086605905279001e+00
5.702986162582916130e+00 -1.062768654474836083e+01
2.608609912567068090e+00 -2.623875890631478214e+01
6.016895705631158719e+00 -1.073937787403455779e+01
5.689670197465097168e+00 1.123739754302650518e+01
-6.770195227784631342e+00 2.584322514299478790e+00
1.058380485586464381e+01 1.724524080289316075e+01
-6.665991329935164522e+00 1.463064248656437361e+00
6.705405982980009227e+00 -1.176059756020156044e+01
2.675472134961776405e+01 -2.130308540748480972e+00
-2.047900801251382319e+01 -2.526128177439745492e+00
9.442251161439790152e+00 4.505553692630452467e+00
1.194285630386239561e+01 1.655727589986469539e+01
-1.075741462006474691e+01 -1.933011489841296182e+01
-1.783581677836373558e+01 -3.892116966130680034e+00
-1.728748109391572640e+01 -2.692828141277915588e+00
2.161741709576458170e+00 -2.689850307117104933e+01
2.314163674517339397e-01 2.105467659858148721e+01
-6.392652481798361208e+00 1.815639378923719294e+00
-2.051295829088483202e+01 -4.070113469829470532e+00
1.113879832138862724e+01 1.462322068386700380e+01
-2.432228948488504849e-01 2.221248228969102101e+01
-6.657135171914482008e+00 1.989172623659879457e+00
-1.304233783168586136e+01 1.869373150141960238e+01
-1.924747332002297995e+01 -4.484420142853895008e+00
-1.967670650219161033e+01 -3.579906736234192088e+00
2.214545880697555091e+00 -8.192949695066243265e+00
9.340399039722022678e+00 1.927201481301031860e+00
-1.313348696805300264e+01 1.882280513539801703e+01
1.198199782729284202e+01 1.632435760939350189e+01
2.487983790152026486e+01 -3.270337133546155961e+00
1.086350535849070198e+01 1.762661603165371105e+01
9.737904840512985771e+00 1.593765369726092196e+01
-2.514531365983448952e-01 2.230305901906050181e+01
-1.072589828411253166e+01 -1.969646253665955626e+01
-1.858865692277885273e+01 -2.459425878512305541e+00
1.150554214258041341e+01 1.670778367107205042e+01
9.369583183405715943e+00 4.270455707443827187e+00
1.000300522958377414e+01 1.683623180799646235e+01
2.514689544068971472e+01 -3.984952114495381892e+00
1.226319710799407758e+01 1.580309160510946498e+01
-6.627538738745831104e+00 1.877505937459170493e+00
9.500380191547568742e+00 1.294313684516074314e+00
2.576025306333948706e+01 -3.683624889390180623e+00
1.216552628545370141e+01 1.666759252434549765e+01
1.134271700812334238e+01 1.686712535769347454e+01
-1.677834168690017691e+01 -3.494357610876487552e+00
1.192747014314584142e+01 1.656112787617685100e+01
-1.093322227251640744e-01 2.219704848321076440e+01
-6.566307949527436350e+00 1.669541710141281499e+00
6.951030294798069775e+00 -1.172278866150103660e+01
-1.783214716946925904e+01 -6.347258767186057860e+00
-1.114865752989109993e+01 -2.015658590940735806e+01
6.099822173459815033e+00 -1.150303978219232448e+01
1.163486657662957313e+01 1.525354420345821538e+01
-6.468952588048564323e+00 3.789316643247067518e+00
-2.347859994286837781e-01 2.225080162279179063e+01
-1.312121067168515864e+01 1.898030802945240580e+01
-2.269147666930904350e+01 1.322981115279179676e+01
5.637980965371378161e+00 -1.179843477708269361e+01
-1.033766093261207608e+01 -1.995074853036218343e+01
-1.681616204651287916e+00 2.225455519017764061e+01
6.451777615334519211e+00 -1.198515287191221113e+01
-1.595418011246648149e+01 -3.456512029846009693e+00
-1.107491117483591481e+01 -1.990906988058939575e+01
-2.197153949093699055e+01 1.269943234353527473e+01
6.037358294675798653e+00 -1.155518742231106621e+01
-1.844045706486278036e+01 -2.415296503941548600e+00
-1.636957442050230682e+01 -5.242707617115601515e+00
-3.371415566644647144e-01 2.261469208754347093e+01
1.951102204775165827e-01 9.163928375249525971e+00
2.667789640312635324e+00 -1.954933684147880157e+01
-5.833733803241855753e+00 2.359271507737327855e+00
9.421481672923610162e+00 2.171687906616166508e+00
1.164615643606115825e+01 1.696879953678104869e+01
9.416937121562693136e+00 3.957288304311257221e+00
1.222973811771828778e+01 1.645745171991403666e+01
2.464307059896182484e+00 -2.685710641031680979e+01
-1.808943058442104146e+01 1.479767138637550161e+01
1.172938401752280946e+01 1.706696643713442541e+01
2.590039159043214312e+01 -3.883659933097081574e+00
-1.763089999635796268e-01 2.228998525903403305e+01
-1.770692828462391688e+01 -5.658848365872144903e+00
-1.992644669788140988e+01 -4.698011151785520312e+00
1.180984183725082026e+01 1.594252487098935234e+01
-6.570432186666177898e+00 1.061565080442263831e+00
6.444698893535877326e-01 8.253924480185757417e+00
2.948035926799756012e+01 -5.743587005403257173e+00
-1.651333938271610080e+01 -5.491677201264067776e+00
-1.303168762499696420e+01 1.865413566724403793e+01
1.245493682735782492e+01 1.638388366770044158e+01
-1.791292939480037560e+01 -3.345362191787876860e+00
1.171409935092293075e+01 1.675050834752219941e+01
6.118247558252635443e+00 -1.146744776904713170e+01
-1.140223722741763268e+01 -1.970091814885088155e+01
1.950383579731135297e+00 -6.600307726156887433e+00
1.179753984560995939e+01 1.816681229107342332e+01
1.195375788563234920e+01 1.641451156684190238e+01
-1.821900861834246754e+01 -5.554494043431316364e+00
5.264785092738335059e+00 -1.119310277802940057e+01
-6.728086617182735374e+00 1.728474504899521147e+00
2.626292138384267005e+01 -3.681587202243614243e+00
-6.709603290408034937e+00 1.764197059854369698e+00
6.065694682480899935e+00 -1.191065178164558169e+01
1.450770021665163112e+00 -2.639936686067429505e+01
-2.263952948178801705e+01 1.310135656172196761e+01
2.582343569769935954e+01 -1.616874249519343776e+00
5.995086211133568987e+00 -1.044781117160823314e+01
1.066009515651953521e+01 1.540192576788347267e+01
-1.174337031655922625e-01 2.236512459831795141e+01
-2.792856390762833430e-01 2.382722079566723394e+01
6.494746353560669760e+00 -1.180966665166073426e+01
1.072078731784167971e+01 1.587124413743303641e+01
2.876011752954444223e+00 -2.550464931878619623e+01
2.451074253405219139e+01 -5.736858559094873300e+00
-2.172659448795378978e+01 1.289169771998114733e+01
-2.050474397729534104e+01 -4.858842436869760029e+00
-1.941137295131987983e+01 -4.381917358745205604e+00
2.339387382816440653e+00 -2.625596542202900707e+01
3.353226955785774122e-01 2.241957504633320752e+01
5.345192127265611326e+00 -1.191080720734673726e+01
6.369656456719361870e+00 -1.860089656916883172e+01
-1.116802669532975045e+01 -1.917233647489513615e+01
-1.829677362899297677e+01 1.463972967266209935e+01
2.575014888109905797e+01 -3.525203744201806266e+00
4.224295872058993595e+00 -1.749216598792932231e+01
3.919833909528443350e+00 2.878805271080824824e+01
9.432288111802959563e+00 -7.948725716943796371e-01
-1.937002079303090341e+01 -6.387373109843954566e+00
2.050875329327291219e+00 -2.619776571330882575e+01
-1.861456060573879512e+01 -6.377149152697264789e+00
2.623974546754734405e+00 -2.668156735953448688e+01
1.028834342613714448e+01 1.741138893083070371e+01
-2.045676614765068990e+01 -5.208612427548257706e+00
2.586492673041608015e+00 -2.600624056064719625e+01
-1.734485973110715662e+01 -3.908888088982259923e+00
-1.638389264967232606e+01 -3.124934342439784629e+00
2.584711827371369619e+00 -7.050340304905375000e+00
-1.738789825509885745e+01 -6.341361485686211275e+00
9.426837775719706158e+00 4.102787410414078906e+00
-2.233716891181883213e+01 1.285748737141087261e+01
6.777578846211446795e+00 7.968919800007322252e+00
6.256180749188827939e+00 -1.186149672425502466e+01
-2.251730654840529056e+01 1.233046325148561451e+01
1.205641902232974694e+01 1.580896021615820501e+01
2.477837999581018380e+01 -3.500012597227394551e+00
-6.770283746646654777e+00 -5.790643945008677740e-01
6.531519068102218384e+00 -1.155610819909646914e+01
2.652542599964444037e+01 -3.264297993160970357e+00
-1.649147108360056180e+01 -4.670754467314206515e+00
-1.833630903383996014e+01 -6.057685591776898804e+00
9.524513888326772815e+00 3.135554843819801540e+00
1.081062966736242714e+01 1.701328465022833925e+01
3.219636752713013639e+00 -2.639511701207957728e+01
-1.306941129923811751e+01 -1.534665596238462904e+01
-1.880101038293176430e+01 -2.137621702213545749e+00
2.559430117033979002e+01 -3.355641613723755690e+00
-2.249556770752803558e+01 1.139247237715782113e+01
-1.061096336836169485e+01 -1.951722192158485214e+01
1.257276431239584369e+01 1.639997795864431396e+01
6.338576672248862565e+00 1.204698624111285810e+01
9.351521987711311823e+00 3.338328131633775619e+00
2.453773780397681037e+01 -3.461604058716905463e+00
-2.000324731766406927e+01 -5.460583661714340842e+00
1.175707902963901219e+01 1.694709099340006730e+01
-1.284574574420002779e+00 7.458508716682914041e+00
2.271837631231684540e+01 1.006019361604416495e+01
-1.788814980861702253e+01 -4.101865366293020898e+00
-5.183238438869469888e+00 4.396640329547990333e+00
-1.070909446989091762e+01 -1.973089665797884251e+01
-1.331602318561783704e+01 1.888955631510937394e+01
-1.309790239912336851e+01 1.873321427430937902e+01
2.591671320962912617e+01 -4.404633962423940119e+00
-1.311617693018693309e+01 1.877303881746235348e+01
-6.631457188953303827e+00 6.081553605781834904e+00
-1.696807172210313297e+01 -4.080821015202732660e+00
2.430634375764523458e+00 -2.671033432223712012e+01
-6.423487547017197485e+00 4.558546734232370667e+00
-2.253835768740114531e+01 1.261965218700370883e+01
5.618235530611234374e+00 -1.156280747358495731e+01
5.616768670798380825e+00 -1.147269837800992320e+01
2.611863478576967168e+01 -3.344594310787809999e+00
-1.822155538426311949e+01 -6.387189043791025256e+00
-1.098046637584868357e+01 -2.015906267578150590e+01
1.175408514591832976e+01 1.617123875907093478e+01
-2.269843039010225283e+01 1.316119247745601406e+01
2.531563911064836603e+01 -3.000394749259972738e+00
-1.739290040461702702e+01 1.680853004955353569e+01
-2.248515632976484824e+01 1.312517987967141408e+01
2.517119344523042557e+01 -3.644856459776103286e+00
-1.567714552891694524e+01 -3.562709128121773983e+00
-2.234582833400983759e+01 1.313250802719471011e+01
-2.284798571067177875e+01 1.210873435570266565e+01
-1.062088750983085106e+01 -1.952764155116869205e+01
5.386109588455006758e+00 -1.138904245350759226e+01
-1.304256809824786423e+01 1.871124074099465062e+01
-1.300099299524963214e+01 1.880866883733201789e+01
2.419842368977901614e+00 -2.615428264793384017e+01
5.920768779125935133e+00 -1.220855386123478326e+01
-5.304625549427838038e+00 1.876323507335629026e+00
-1.842330248236573453e+01 -2.008121193074309030e+00
-1.065303679041696228e+01 -1.945007988659762432e+01
1.117616423697716854e+01 1.692369260502735173e+01
7.020164843693313728e+00 -1.107666007916639472e+01
2.471171123779212309e+01 -3.289100936603360115e+00
6.479982092679479777e+00 -1.237654934286882558e+01
-2.229978611537993416e+01 1.387224866898909426e+01
-1.809927738211983339e+01 1.577467121172446873e+01
2.731228428534087982e+00 -2.699568758763906473e+01
-1.133045865703532940e+01 -1.979302387870094293e+01
1.166740497293877432e+01 1.663522898003321515e+01
-2.105526875302034995e+01 -4.616037182650503112e+00
-6.837128698711547603e-02 2.464073689951491986e+01
2.496654995295658708e+01 -2.870473799353560729e+00
2.802421950389774041e-01 6.635907775467924097e+00
7.225210051072366468e+00 -1.130056817600894270e+01
2.921791032295053014e+01 -4.814613744908342596e+00
-1.066772448669096995e+01 -2.019468579645259965e+01
-6.706267966093475863e+00 2.094925448464762585e+00
-2.186495487337112920e+01 1.310867195655679929e+01
-2.267507563886200117e+01 1.287676801632853163e+01
-1.313621951981598457e+01 1.869184639393198921e+01
-1.304015957132533643e+01 1.865268854577182367e+01
1.188128146394195106e+01 1.596699149227727332e+01
1.058322206223062700e+01 1.483979553029887555e+01
1.151367866786874039e+01 3.258249848688285155e+00
-3.674880195083825019e-01 2.260811373995626994e+01
2.956560106947155653e+00 -1.932883979843376210e+01
4.419321102098003884e+00 -1.920038264842365550e+01
-1.302828250939048438e+01 1.879176495892499688e+01
2.658906816705363330e+00 -2.639719642441012581e+01
2.563000420302796556e+01 -2.836534307923958220e+00
2.451035930969726095e+01 -3.765262383708182892e+00
-2.219613665175473471e+01 1.308954515576734678e+01
5.920961715524105884e+00 2.199893166774121411e+01
3.635998113221130978e+00 -1.775357886121897977e+01
-1.999786359351452347e+01 -2.652575385192562418e+00
2.870959895763351089e+00 -2.549973131244871638e+01
-1.330154121983174065e+01 -8.385494591101458894e+00
6.861185430345056346e+00 -1.079205814264211227e+01
-1.100068997585284158e+01 -1.978802783661074471e+01
-1.310937611299674899e+01 1.877983810393563147e+01
-6.723655650184771737e+00 1.804886374162216089e+00
4.253611876919892509e+00 -7.306097173713452797e+00
-2.010143933862258692e+01 -4.403137522271922677e+00
-6.574014086271178670e+00 1.889918435104539940e+00
6.729795314663378214e+00 -1.112216386094492826e+01
9.418824300577215425e+00 2.673879136734688799e+00
-5.366710896654289797e-01 1.386853280185848902e+01
-1.070754579472120227e+01 -1.942882641673949706e+01
-1.677971927985555567e+01 -5.931038480123325130e+00
-6.590548010223491460e+00 2.097991967738204178e+00
5.404882290051606475e+00 -1.163037322074237068e+01
4.149572869785589369e-02 2.359864672524993168e+01
2.429534543410177960e+01 -4.483366548845855171e+00
-1.317654720137770319e+01 1.866748303072902360e+01
2.729363445762797724e+01 -4.771474552416670178e+00
1.148614006246012842e+01 1.727600812435513689e+01
-1.611031505949488363e+01 -2.318494948427300528e+00
6.187395091366644451e+00 -1.122205661408474242e+01
-1.312796170136312313e+01 1.869751321566444702e+01
6.671856568434797019e+00 -1.209170209270918228e+01
2.375629045639852777e+01 -1.921989564457170951e+00
-1.650623276136664686e+01 -3.201489964209728090e+00
5.098148469639829372e-01 8.136693657791099099e+00
6.883129899674868213e+00 -1.193711974902888606e+01
7.499982975149503961e-01 6.924295922711023010e+00
9.676477282347958564e+00 3.813217456570303643e+00
-1.865620361080552669e+01 -2.364671717009194651e+00
2.632910554771497758e+01 -2.840893997857442344e+00
5.420927438267611365e+00 1.144425231316310132e+01
2.456906807027922213e+01 -3.996168809242197195e+00
3.796743250222358590e-01 -6.103666272788725422e+00
2.518453453211857251e+01 -3.116132844309201122e+00
2.510702336836147186e+00 -2.686799886630777578e+01
-1.464450196864181208e+01 1.834567317248545049e+00
-1.631398262761673479e+01 -5.361035335154086923e+00
2.511213934243755830e+01 -3.683775767163335324e+00
-1.074151096232913360e+01 -1.979577711013321561e+01
-1.310270999381976686e+01 1.906058753846950893e+01
2.741737801171057143e+00 -2.666856632340067534e+01
6.581023619255072177e+00 -1.102544337291133836e+01
-1.254283616144733493e+01 -6.595800560378805244e+00
2.534215045780264219e+01 -3.352152892166472054e+00
-2.091544137548144633e+01 -4.621754324935166913e+00
-3.188103008335747113e+00 5.074827989769382874e+00
2.484093037691519967e+01 -3.134281861412676840e+00
2.464627139285039803e+01 -3.301021915852708766e+00
2.487741808154201095e+01 -3.434723182162378485e+00
1.157307062224167460e+01 1.623329329498731255e+01
2.683811259969620000e+00 -2.642204425223852127e+01
6.685154502566261314e+00 -1.129224991451542159e+01
2.469199144672488444e+01 -3.371728076433546217e+00
5.574187379207734772e+00 9.973880498349910084e+00
-1.117735992395181910e+01 -2.005010496806010423e+01
5.974199781453726210e+00 -1.185624641229077980e+01
2.422696255518324904e+00 -2.594781638632077758e+01
-1.321183103195776454e+01 1.875941400795615621e+01
-2.277800201169500838e+01 1.323826132287047841e+01
-1.080726681195118211e+01 -1.962756010601875545e+01
6.089374769410630606e+00 1.385881524988762159e+01
1.178933614108196437e+01 1.631417495773036208e+01
-2.079196836790284664e+01 -4.973427932602660917e+00
9.429990615588717873e+00 3.268481031293870576e+00
9.609145734631860947e+00 3.747840957019208830e+00
-1.311584067528899666e+01 1.874348419513997754e+01
-1.310891800750120950e+01 1.871092840733394169e+01
2.538713912853691923e+01 -3.495841426265740459e+00
-1.979892435987978416e+01 -4.940123552300989651e+00
-2.004433285749834326e+01 -6.301429833201059871e+00
1.639634937480522803e+00 2.239261730804825845e+01
6.817518134721659351e+00 -1.180043715411181182e+01
1.276843539893580726e+01 1.694240448747762429e+01
2.509109357478878621e+01 -4.594202445508045685e+00
-1.304103071663864810e+01 1.872682151302586462e+01
-1.102008141410019526e+01 -1.932899979554638037e+01
-1.313160356099080417e+01 1.866158992580648501e+01
-1.324445779191237982e+01 -8.397597934741533265e+00
3.015621893283685129e+00 -2.613214479838715576e+01
-1.328069540537028637e+01 1.875083667471598048e+01
6.070382138668414029e+00 -1.205058474488151177e+01
-1.296827955948574207e+01 1.889432236192423886e+01
-1.073762477529494141e+01 -2.001790580597760538e+01
-1.315383224793519901e+01 1.873942210666561436e+01
2.493729967804243053e+00 -2.654616686171995354e+01
-2.050090381548700336e+01 -4.278912843122483878e+00
6.429905904287758212e+00 -1.239820049842551342e+01
-1.054065472861907260e+01 -1.949892414345495339e+01
5.431573283695633414e+00 -1.193318083309840283e+01
2.557099193438370222e+01 -3.373465059893867135e+00
-1.889741216186601847e+01 -6.607393700982132856e+00
2.520785411564751044e+01 -2.828435377816657770e+00
5.096815607695491579e+00 -1.964827043651618155e+01
6.152433675656877377e+00 -1.254451392890004513e+01
1.052178673672694131e+01 1.610772991564894951e+01
1.183860726976944377e+01 1.552353291771361476e+01
-1.303250567359570411e+01 1.868707764016809136e+01
4.954880817789033998e+00 2.191194394362517528e+01
1.946541559945522026e+00 -2.620908011980145247e+01
-1.088139566643177680e+01 -1.965833712263063404e+01
-2.256810670584552980e+01 1.251217767139583614e+01
-1.308462084381855206e+01 1.880468318748964052e+01
-2.227850883268444093e+01 1.323570438456694198e+01
9.406756386608227771e+00 1.677928684344794696e+00
1.175168311479356653e+01 1.610896130393025771e+01
1.201020283455574855e+01 1.535777007446129261e+01
6.295973584603733464e+00 -1.132944912809907301e+01
2.816515838799118487e-01 6.590683374662132721e+00
-1.693003128646405031e+01 -3.550871645027964263e+00
2.576843678458858378e+01 -2.783088939774698289e+00
-1.897410612681938957e+01 -3.378119832800419164e+00
-5.223569687307973552e+00 3.889030508723577029e+00
2.522455441830420497e+01 -4.162586705548497079e+00
6.800900541018163992e+00 -1.089330283543571021e+01
-1.820733567036605294e+01 -2.767037273536937736e+00
5.660898536570160289e+00 -1.231194324543104024e+01
-1.303380815080623201e+01 1.876543414854053538e+01
2.134395200143520466e+00 -2.637615904635040565e+01
1.134936797149784127e+01 1.512548563428268267e+01
-1.717847921899250352e+01 -3.460967479014303461e+00
8.056134800421698827e+00 1.140973699826929533e+01
1.740936552326827425e+00 2.268979549416182806e+01
-1.315379718856088509e+01 1.878296410066537447e+01
6.463071607359553994e+00 -1.180148106378966055e+01
-1.319695915873371739e+01 1.896084188372061163e+01
1.208274397657263322e+01 1.637563709808796730e+01
1.047374354773390159e+01 1.603965744334753651e+01
6.857635619420284989e+00 -1.184520129893459384e+01
2.567640583552413958e+01 -2.154239009376091474e+00
5.852273041313962310e+00 -1.135576916712195406e+01
-1.099087475639216649e+01 -2.028727072827432210e+01
6.020294070916562212e+00 -1.804309727496069726e+01
4.277476334646573841e-01 7.864194305024969189e+00
2.368727854308365188e+00 -2.663059441241458103e+01
1.175770386622507679e+01 1.637137363944815149e+01
-1.111699805749218939e+01 -2.000594767290854037e+01
-1.087213043451236061e+01 -2.042343272418334976e+01
-1.009201888731009333e+01 -1.980927533070678592e+01
9.467198052280307863e+00 3.647897957028350291e+00
-1.887234469060778252e+01 -3.679010830402177135e+00
2.497783088311087241e+01 -3.100375772125469442e+00
2.539595660019037737e+01 -4.138209427011738661e+00
1.163528336604133884e+01 1.571069925958179603e+01
6.810009917469498575e+00 -1.168302789420954291e+01
1.167818392112068615e+01 1.690284950395091101e+01
6.628736487250273868e+00 -1.188514245819691340e+01
-1.814560699072345429e+01 -1.832585859112568771e+00
-1.879574573635783352e+01 -2.745511182053809840e+00
-1.032103203623778853e+01 -1.968683819255277001e+01
-1.852667093305247192e+01 -2.361656691061576385e+00
1.221893721513257702e+01 1.629658537459421908e+01
-1.139682616099346824e+01 -1.961156501363716131e+01
-1.307315524341591306e+01 1.883615205183463459e+01
-2.226632136409578422e+01 1.408252933195080914e+01
-1.793436254053311529e+01 -6.114822519110309607e+00
-1.302237401859503940e+01 1.877657880830131987e+01
5.660615291541407856e+00 -1.108714954344890735e+01
1.282029800522673746e+01 1.072142801553523483e+01
-1.017576661310257968e+01 -1.970246045360471143e+01
1.149385430751574333e+01 1.580070721251242460e+01
2.958347196658356104e+00 -2.626897992994722841e+01
5.920473074418512560e+00 -1.178498160746602252e+01
-1.298556571887199595e+01 1.869129854835168203e+01
5.959922834451321094e+00 -1.156969734379838854e+01
-1.309173810877460475e+01 1.861038763327422174e+01
-1.746180790220778434e+01 -1.701441991071885651e+00
-1.092900890251016932e+01 -1.944317155074989500e+01
-6.417480361876353179e+00 1.363628414270257938e+00
-2.266338205227561531e+01 1.309536951236701441e+01
1.091745231003117489e+01 1.669668435897371950e+01
-6.626535792495804600e+00 2.093363211260296008e+00
-1.306921695902536484e+01 1.876477381357713980e+01
6.825210046596878577e+00 -1.111545600236447839e+01
-2.444170553340056884e+01 1.303747981431321890e+01
6.241847347811193103e+00 -1.174682801519109532e+01
-1.701335449157323154e+01 2.111402060467049147e+00
-1.436200712269805635e+01 -8.160452023777081010e+00
6.881829752391731558e-01 7.901487591116620912e+00
-1.686935771347407020e-01 2.234542285032019038e+01
-1.250666485533955274e+01 -6.677749207887715421e+00
6.211635089772918228e+00 -1.127285871392837002e+01
3.278930954844387458e+00 -2.618071063342637927e+01
1.203540317869519605e+01 1.784336483554584873e+01
6.453823035152693954e+00 -1.170457932666267276e+01
-2.163909306565630963e+00 2.229099950060880886e+01
2.492931427554568558e+01 -2.769081956885960150e+00
7.082222412401577571e+00 9.828969540052526099e+00
5.904370680835261176e+00 1.232892333333329304e+01
2.230735030799938734e+00 -2.627706510221200276e+01
9.541250225927592865e+00 2.143203545351425543e+00
7.010932292057862725e+00 -1.156004920719011864e+01
2.826412790995093349e+00 -1.832907309317342737e+01
-1.312114579251883129e+01 1.861988796247807798e+01
-1.123133776662986705e+01 -2.002774816200135177e+01
-1.310473428194011802e+01 1.865637230411806868e+01
2.434837785457805026e+01 -3.343323586444157058e+00
7.707402663756569794e+00 7.625102496053820289e+00
-2.008123993547070896e+01 -1.929730629031654265e+00
2.516693840690595607e+01 -3.414303388832533592e+00
-2.259447839616853315e+01 1.310529626561499938e+01
2.543293048788673261e+01 -3.631228766036560529e+00
2.476590507657025597e+01 -4.978601156092446800e+00
-1.919552999420634620e+01 -2.115925895258338407e+00
-2.206104178587107256e+01 1.303350128550317955e+01
2.096609056320913211e+00 -2.635924373581435276e+01
-1.058900986423846646e+01 -2.027588851049991447e+01
-2.176604510368581202e+01 1.318066818997893286e+01
3.267691929173840215e+00 1.185874350390009546e+01
6.270458583325605240e+00 -1.978719352494939798e+01
2.539912513849994369e+01 -4.052685000174398589e+00
2.158533776739113730e+00 -2.645496863882041083e+01
-1.070906219328421827e+01 -1.920472748627659243e+01
-1.697764612716285626e+01 -1.622677633533036179e+00
-1.650988420187534444e+01 1.889465650778398231e+00
1.635070963155910606e+00 -2.623426588588968400e+01
6.141449288777893756e+00 -1.167303988033735962e+01
2.554930581511223409e+01 -3.083500299480758322e+00
6.495296716509133539e+00 -1.153506983950872922e+01
-1.973390617656453472e+01 -4.437153808376067765e+00
2.478242581539549150e+01 -3.609266029477740112e+00
-1.826913937684346223e+01 3.010276189492063548e+00
2.581115076962933230e+01 -3.665427386817395217e+00
6.268074653672424112e+00 -1.154491689641662511e+01
-3.449959880953984426e-01 2.197922417724682731e+01
