-1.208447514302799064e+01 -5.077048629630349197e+00 1.502790301314535348e+01 6.860150856496050942e+00
-6.409797982045261300e+00 1.241691395992911318e+01 2.089620685489978591e+00 -4.548725440343541759e-01
1.077826410232525944e+02 2.023486191362494253e+02 -3.936577158285265909e+01 -4.826290723809648853e+01
8.947375854699147979e+00 7.595812703277676547e+00 -1.035563341745171329e+01 -3.501332420728881512e-01
1.084074983280462234e+01 -5.287696575661736453e+00 -9.337493485873819665e+00 5.503972279763591047e+00
-2.448205004543926222e+01 1.439180005517239813e+01 2.076791137714310764e+01 3.526927740376790243e+00
-3.984495810598423393e+00 1.060171566480683003e+00 -1.268402021612346964e+01 1.033257258077234653e+01
-1.850651520421203733e+00 3.364917904353181277e-01 1.496986057541524140e+01 -7.576664549416163297e-01
-4.355547069783583858e+00 -1.857453651118202043e+00 6.269176323481601365e+00 -1.897432648259988497e+01
1.045976491937100583e+01 -1.274774907071150665e+01 3.192316318085881122e+00 1.966040822694973755e+01
-2.229851325741028134e+01 2.094678145718912887e+01 9.287349398197680017e+00 -1.921841637603283459e+01
-1.824199889693241428e+00 -3.964280735574166048e+00 -1.351348046645978462e-01 -3.436130448560681394e+00
-1.088751687535410895e+01 2.479081313933936936e+00 1.312612574389278564e+01 -9.200410610231674724e+00
5.448062837596175711e+00 8.050333885137693102e+00 -6.127675951354665251e+00 9.775718233378606570e+00
3.005300364371933153e+00 -5.158743842093861609e+00 1.785388634022312182e+00 1.185928356063499756e+01
-1.210039064837474854e+01 3.254979090971740430e+00 2.847135931963613587e+00 9.034193781341480545e+00
2.775144951301686369e+00 8.971928597126058724e-01 -1.790319494827572244e+00 -5.125966789864159878e+00
-3.775657505809649539e+00 -8.315354143723945768e+00 -2.291143929402289281e+00 -6.977649800839810013e+00
5.625975479180591599e+00 -1.079883378636640678e+01 9.878736177953427955e+00 -3.659461007908178409e+00
1.561887041097802742e+00 1.283715387003647512e+00 2.917295586421916886e-02 1.470499224225945589e+01
3.600109495732072284e-01 3.281346330597951333e+00 -3.905198228865046861e+00 -9.495374166282582351e+00
-2.613966898578181652e+00 5.864650832140371861e+00 -5.623537774944133538e+00 2.188031056987818523e+00
2.689417172623869146e+00 -4.561703610687510846e+00 6.154951406681004045e+00 -1.410027407353664763e+01
-1.032994866121445732e+01 -3.277228407447389191e+00 -8.886887384666824374e+00 5.161857916341429098e-01
1.387130309611620049e+01 8.254531436190340798e+00 7.479849814575511679e+00 7.144779350236060367e+00
1.653751899292386796e+01 -5.686286193416349555e+00 4.843561633540756084e+00 -2.101603170955038014e+00
1.119725791187218178e+01 2.338218756702653334e+00 -8.016264620951444542e+00 1.169068586480969074e+01
-9.819891717543335341e-01 8.368474220285330389e+00 5.313599219530933482e+01 3.812580881967620172e+01
-1.003350670948003787e+00 -8.082271124010818042e+00 4.497775848117491648e+00 -1.172318575994824563e+01
-1.379919469926917719e+00 -2.265067625983052668e+00 -2.476228461317374840e+00 1.744240921538655087e+01
-5.623361854158350326e+00 -1.291595579573762720e+01 -9.860132891220803941e+00 2.665776512317765246e+00
-2.093074022605677875e+00 -9.370539408072835030e+00 -1.493997027271766598e+01 2.438252795691538966e-01
9.844249815343413701e+00 4.132030028023160106e+00 2.689710535053929874e+00 -1.150331397365990993e+00
-2.125205768442728793e+00 1.469229200553565207e+01 8.032114865596829745e+00 5.178462510855746936e-01
-8.933159990141128048e+00 -2.174509527737856107e+00 9.000752468791661798e+00 -2.281916586909544620e+01
-2.440096483877769451e+00 -2.323729890761102368e+00 6.408885215040923455e+00 -6.256099473443504699e+00
9.436022405006954106e-01 -4.739195591738652347e+00 9.219926377436367559e+00 1.244221270906862564e+01
-1.701019193927705508e+00 -2.892188809299184094e+00 -5.104593607583852055e+00 -6.975321453167423691e+00
-6.461294286370570461e+00 -1.462211980654111088e+01 -3.684386704192848860e+00 -1.367793678686475944e+00
8.154518316078590345e+00 -2.117599278887159819e+00 -6.382810945958684812e+00 -3.953639498225754861e-02
6.634362448435350279e-01 -2.127289121952999351e-01 4.455167519574457557e+00 -1.461808461325167618e+00
4.828765582707799098e+00 4.849442221110757067e+00 -4.793315780093585943e+00 -1.505782928430036094e+01
-3.055107862453275036e+00 1.766949967689262602e+00 1.082888296906042314e+01 -1.609571498258175026e+01
1.393769733317152948e+01 -4.381750028591060442e+00 1.298301659638940819e+01 2.254693996029740966e+00
-7.406771221483936962e+00 -6.508789319733953249e+00 1.178430741753199129e+01 1.219350660521404706e+01
1.176484162519399312e+01 1.278502458908646311e+01 -3.355088461771937314e-01 1.727149371249375065e+00
-1.098048671924706987e+01 -3.439208640215449808e+00 2.063633130061914844e+00 -2.522868974483527094e+00
-4.974912187627449356e+00 -5.425010167323451427e+00 -8.518275021110282452e+00 -1.065969792877866773e+01
1.936365221542100201e+01 8.247777023097464522e+00 -1.111567942539371501e+01 7.227244114156990307e+00
-2.453096623169155777e+00 -6.390296214665908137e-01 3.732902016155987823e+00 1.072500277151045722e+01
-8.520728825876755508e+00 3.181618740301314641e-01 9.459234607211151058e+00 1.925517109789311121e+01
5.086175436431432217e+00 -8.860197490297084144e+00 7.901837156893713576e+00 3.884327293663545788e+00
5.980063335312730821e+00 8.766981846119072941e+00 1.391926634948135799e+01 -7.749398097393105367e-01
5.964272000603954460e+00 1.087147270483470720e+02 9.236683277337692743e+01 -1.893331548224116645e+01
-2.972651048090237946e+00 4.550159064357375271e+00 -2.920181649404445245e+00 -4.983900743055399651e+00
1.384863095833716606e+01 2.889034253144387776e+00 -9.277142949037459063e-01 9.623232061946719540e+00
-8.214165910103615076e+00 -8.185638569520495622e+00 1.781043656028909128e+00 -9.458352170995556918e+00
1.102839629486742856e+00 9.689760656968731567e+00 -1.008023166257339476e+01 1.416570798119899943e-01
-3.972948733405587518e+00 -8.998279392598741433e-01 3.334481216126448988e+00 4.606487410029561858e+00
5.569596008219378724e+00 1.190811752438319715e+01 1.013538869814611054e+01 -7.921781001016983126e+00
-2.066419618817116000e+00 -1.241169376541881775e+01 -2.112082517816563865e+00 1.343492841194155041e+01
-3.209970960494520131e+00 -9.289283835763555430e+00 2.263334953940180083e-01 -8.634737302651636082e-01
-5.354559105518512219e+00 1.683466102004418730e+01 -5.399605498548592841e+00 -1.679069035678900335e+01
4.245993711930043268e+00 -1.056115689707418603e+01 -3.496194096435986776e+00 3.704984655134112348e+00
5.990462901585324573e+00 -1.399019316949851799e+01 2.153759721911610470e+01 -1.933603619109640448e+01
-7.529748325790469821e+00 6.064527980771778903e-01 5.898571882614905171e+00 8.963649021802067907e+00
3.853145868231876658e+00 -9.342036784351581247e+00 -3.508621971286456809e+00 1.055416349498044148e+01
3.997286607826060045e+00 3.402703535447800798e-01 7.482777737959930953e+00 -7.053827987805066257e+00
1.556704645593348069e+01 -2.168418899520380361e+00 4.083484047804120110e+00 5.406972297201551925e+00
1.095822183386168014e+01 -2.176320011368828578e+00 1.485424929650346615e-01 6.456933344403906538e+00
1.529991773946894185e+01 6.311038420779761793e-02 -1.840390288743592562e+00 9.185819501860059688e-01
-5.726643743475636761e+00 9.006169676673387414e+00 -2.570995146670429499e+00 -2.754057733070963909e+00
1.713269002818437192e+00 -1.085620685904179261e+01 7.505605844980801855e+00 9.704130760658491894e+00
1.408105741706813951e+01 7.832983942227774499e+00 -6.848015330076903773e+00 1.818954022159444239e+00
-1.727990007401279393e-01 2.080015041751774596e-02 1.220309540564275963e+01 -1.071728531836029141e+01
1.179974440420830284e+01 -1.463180310874670909e+01 -3.745072528023154934e+00 -2.561800115309927683e+00
-7.137393108413305320e+00 8.346309073691379865e+00 -5.184524523666228291e+00 1.113077265239994595e+01
7.435238131488327795e+00 1.222978513432556369e+01 -6.148033898943339182e+00 -1.984214794411447214e+00
-1.265660581170996757e+01 5.760207573113004242e-01 1.541216527670355596e+01 3.834284406641240928e+00
9.195539702258827219e+00 1.129267902278620284e+01 -9.811001079576563200e+00 -8.987751402568303405e+00
-1.713740425331174322e+00 -1.184348501741941817e+01 4.029648822322250190e+00 6.272548678424072044e+00
1.042692133886200700e+01 7.747599642922560648e+00 3.154384491007797831e+00 -1.219929543463870303e+01
-1.559047572191207642e+01 8.480021497160629806e+00 -2.274833675474922101e-01 -6.388928317523760114e+00
-7.214797898001402920e+00 1.008371284711271088e+01 -8.155061131091086324e+00 -6.847616070184910697e+00
9.734445520303872001e+00 3.172476115329219137e+00 -8.511439705240380960e+00 3.313248772321311097e+00
-1.337576608268780998e+00 3.099812560315222676e+00 3.468870171979481221e+00 -1.546809676952148571e+01
-1.120710941259621229e+01 -1.010653800502345412e+01 -3.674266215317054218e+00 -1.233475183318119051e+01
-1.078934565597528739e+01 -4.050729863195361879e+00 -5.043758422072428971e+00 1.129876791661367541e+01
-5.538016579350617086e+00 4.141001342353132664e+00 -1.509888496837703897e+01 -2.795414381997893383e+00
1.626696640584842157e+01 -4.746355818283741534e+00 -8.213497830694482360e+00 7.440757551366845579e-01
3.395472539639159404e+00 -6.230116921421827714e-01 4.959307247515049255e+00 1.107508749986745400e+01
6.645638063600209477e+00 3.978849468165793102e+00 -3.753467362481663017e+00 5.924501287493835200e+00
-1.715959177035523098e+01 -1.142958969888846354e+01 -6.147179230877077849e+00 -2.465148521604972132e+01
9.799178026857658708e+00 -8.785329506105034270e+00 -8.297369327257959171e+00 -6.746548487808997630e-01
2.080959466667470004e+00 -1.258433065987647925e+00 -1.057967610584042983e+00 -1.208933579170024508e+01
-8.767504099853397292e+00 -3.851457162365767850e+00 2.201786068330278123e+00 3.256645709800829014e+00
1.555570609237777902e+00 3.625335372101222475e+00 2.269266039297345383e+00 -8.199032903187600141e+00
-6.347010491599904825e+00 8.647718267060563235e+00 9.279080878997506554e-01 -2.287208122074159888e+01
-6.862119517037012173e+00 -2.246590581149601196e-01 -1.423778794996194286e+01 1.033360021199858148e+00
4.401759809887630936e-01 6.665172665733040347e+00 -7.075207244595034695e+00 -4.325567002082002510e+00
1.253399297093772802e+01 -2.670122876143724344e+00 7.771894794545681329e+00 7.319709775457549084e-01
2.936460964160397324e+01 -1.982577018799008783e+01 -3.991968874298994052e+01 1.708338697050679045e+01
3.819030930601314822e+00 1.285522470906882120e+01 9.462896447085485718e+00 6.362365649381498955e-02
9.432333461716526646e-01 8.212019790621699400e+00 9.006776187368746633e+00 -5.757624502470010341e+00
4.254293339432756227e+00 -1.257022163807022608e+01 -7.641445161583480861e+00 -8.442835669424537948e-02
-1.866999733036641684e+00 -1.227939274847788020e+01 -7.140709192634521862e+00 8.464242446853457835e+00
1.043885510773067082e+01 2.419556743703870971e+00 -2.489657722228517667e+00 -3.780590752573422364e+00
-6.069522530973140206e+00 -1.863611777417321758e+00 -9.178460028363570444e+00 6.852320991826009511e+00
-3.771752871749463054e+00 -1.027947582794337578e+01 9.583882066127706878e+00 7.286596587010254034e+00
-2.463154388483937307e+00 1.720757411230782807e+01 -4.019241658824778796e+00 1.958098374700186994e+00
3.490242006557795929e+00 1.280561521394552038e+01 -1.417900060607569834e+01 1.339057340132238094e+00
1.479237322375915298e+01 -2.531647124785880276e+00 -4.479689551910997380e+00 8.617741318737071055e+00
-1.985087703318978214e+00 -3.067041155480878079e+00 9.772694220427112555e+00 -1.350537838493119924e+00
1.610339729490651628e+00 -1.306424129097256426e+01 9.338241953311465338e+00 -4.295097706902744616e-01
-8.011155095030829898e+00 5.606483053168368258e+00 1.949571966154014735e+00 -1.424474334697345057e+01
-1.150990330070249712e+01 -2.312564285376604190e+00 8.750879684370993061e+00 5.498752908458442334e+00
-4.526914881592803752e+00 -1.953560833331829727e+01 -9.819218109503566327e-02 -1.158253925846481280e+01
1.208938136885563175e+00 5.510840108084752664e+00 8.171854417429349482e+00 -1.177108643543092725e+01
1.628972085204879183e-01 -3.287806755692697092e-01 1.315222581246340816e+01 7.093360566084117913e+00
-1.025052898385796851e+01 1.220813072813721689e+01 -5.074537156147878036e+00 6.672765615870479117e+00
6.649453323846362451e+00 -5.097225697236110520e+00 -2.497750756285968876e+00 7.731414016066216810e+00
-1.267494996247187444e+01 6.427335177511202424e+00 -9.691118037633790649e+00 3.849210127929733272e+00
-4.378156806498391340e+00 -3.213784152975564634e+00 3.994487905598955724e+00 -6.533919260918086280e-01
7.564619787146683372e+00 6.949131547710540424e+00 8.905625012255641293e-01 7.739343119932083681e+00
-1.839372455691065156e+01 -2.232200888340790712e+01 -2.007494971234245362e+00 -2.314965314824214193e+00
-1.105874104742402686e+01 2.232988408446804485e+01 -4.527035559566969347e+00 4.393687725598256932e+00
2.804536467084734142e+00 -8.637827982069323340e+00 -8.360313117415870465e+00 -3.610076314402752562e+00
3.017210999784480929e-02 -1.045307572715789490e+01 -1.302719306995166804e+01 5.661556574393442176e+00
7.667799352461069695e+00 -5.732131271645354964e+00 6.205451187311502359e+00 1.091249592048315264e+01
2.768280972594093114e+00 1.070872680758032836e+01 5.420826082569241144e+00 1.224561629770873239e+01
-8.589768286321337598e+00 -1.030335966857439267e+01 1.029707786600956254e+01 1.464353196027522008e+00
1.669428817621138350e+01 -4.235306817642717547e+00 2.495660379474251123e+00 -8.184243764165239909e+00
3.938085866141146418e+00 4.332401194803144229e+00 -1.565625934029403687e+01 4.883135139063971564e-01
-2.555990507984612581e+00 1.374322485545037154e+01 -9.505502908281826535e+00 4.121373899033876853e+00
-8.677379776792303545e+00 -1.431664740618491471e+01 4.852790711427481085e+00 7.828908446858384274e+00
1.474708248891753470e+01 2.656471411079728284e+00 5.486438472008127398e+00 9.018183382592881436e-02
-1.818174625669087607e+00 5.455972768182410171e+00 4.874758954398311417e+00 1.548363288333169407e+01
-7.857326829237525345e+00 -1.076993570707747772e+01 -6.004805794533615071e+00 8.247506975602275858e+00
2.098306383667582597e+00 -3.107111378628302223e+00 -3.517387384763550617e+00 -1.482792730996523867e+00
-2.340265520657048182e+00 1.478595541070741959e+01 4.497215876829557257e-01 -6.338522725699242244e+00
4.425851420980900564e+00 5.098012090448317046e+00 -1.085654100078398443e+01 1.174410774553847503e+01
-9.600549663430921199e-02 8.595512939422711440e+00 -1.626338140103539232e+01 -3.012273705299874926e+00
-9.778600168978835327e+00 -5.600367611739270224e+00 9.220069298912362044e+00 -4.022288091208834793e+00
-2.592951374461900826e+00 -4.454811343794172096e+00 5.163850831068576008e-01 7.962679917906126725e+00
3.144714594075669556e+00 1.346967117185818275e+01 -1.948078654556353317e+00 -4.208181011971368513e+00
-7.805747932978316150e+00 2.112870729659633628e+00 -8.422788068765729719e+00 1.118402428412324845e+01
9.457448259453618888e+00 -1.250432276129353326e+01 6.653484042139980126e+00 6.331348728958984928e+00
-1.319094777274541219e-01 1.028363038273115926e+01 2.258349096141659018e+00 1.627740007493728669e+01
-1.321030596563184112e+01 8.102204408467823527e+00 -2.109285033183834912e+01 1.561820809803089993e+01
-4.645360224670307403e+00 -2.133553772123953252e+00 -6.743049692224912128e+00 1.400532396699936832e+01
-2.235426015691556145e+01 9.681713183215455487e+00 3.385073690346607123e+01 -1.634866357544989057e+01
-8.337088846044695245e+00 -6.221770055497907848e+00 -1.451680011275903226e+01 -1.351912302701074653e+00
-3.647146931643227563e-01 -5.829386627196270432e+00 -1.088348395953767067e+01 2.610488952549415487e+00
3.022821320986019966e+00 1.295930865076876337e+01 -4.701432931498407686e-01 -1.025262359581445715e+01
1.919782333341569780e+00 1.024676604246631051e+01 -1.902920568291151415e+00 -1.591619376143900766e+01
3.069089983407497613e+00 9.819676694175790033e+00 7.025963823191441193e+00 5.827958103768445142e+00
3.912592918299548028e+00 -1.020969916461567450e+01 8.327682235554488832e-01 -1.301864815260848651e+01
9.289157356196747983e+00 -5.382019436423444603e+00 1.030006976483692860e+01 5.778345296722821267e+00
-4.883749419542770198e+00 1.148272496588389302e+01 5.930059339044002620e+00 4.607764510837754734e+00
-1.308862195037095111e+00 7.796878002551066444e+00 -2.795282906641728182e+00 9.493811023247129555e+00
-4.410632331539245499e+00 9.990775551826963863e+00 -1.234006034927230466e+01 -3.632519320776213867e+00
7.385695094566442354e-01 -3.118550356262943968e+00 9.162842577981724190e+00 3.476984377188773401e+00
-7.848723085201983807e+00 4.510222247241391536e+00 -7.790336754794980223e+00 5.449736927420654631e+00
-5.625291708370032673e+00 8.676095526456975904e+00 -1.130936074303228089e+01 8.787317741918537095e+00
7.296730386785411859e+00 4.884708420755975666e+00 -2.173476501721846077e+01 2.108761548823142462e+01
7.627823648210903862e+00 -1.398644501387886985e+00 -1.385307179045452486e+01 9.763020170166813116e+00
-2.582257060275033322e-01 9.036193966294478130e+00 -1.827040865683674964e+00 -6.879161048307778081e+00
-1.488892585547097358e+00 -8.088419049010189710e+00 6.568713399216150606e+00 1.938766747991174544e+00
4.995725590455708520e+00 -5.820726491215199694e+00 -8.569854354439554456e-01 2.330126046903244319e+00
-1.207007615379678267e+00 1.317585524973603128e+01 1.079587181593383427e+01 5.846507851928239852e+00
-8.300001990977650124e+00 -1.405376705215794075e+01 -9.648985990664925794e+00 -5.120128101393045306e+00
3.471003249456150908e+00 -1.161023306262586807e+01 6.418734690531805676e+00 -9.524641526307338069e+00
2.829228542335773811e-01 -4.181380328870662133e+00 -4.561364070566050088e+00 4.148848656142790858e+00
-1.369390569377353728e+01 1.360433323954762797e+00 -7.235228664538980503e+00 4.952241384422520487e-01
7.900645204161713231e+00 -1.484798374273024635e+01 5.888630098269777013e-01 1.774126068949921420e+00
-9.534609736717751360e+00 -1.058642296549949435e+01 1.017881402375388156e+00 -2.455125356763789402e+00
4.364979063229403322e-01 6.912610398517413657e+00 1.252157674870474757e+01 -2.030066344387239721e-02
2.844644847099203275e-02 1.502300581028172743e+01 -1.769130203249846289e+01 3.872357969200367123e+00
7.096001667119089085e+00 -7.290513230954364765e+00 1.319357024676249779e+01 -9.130726759313946062e+00
-6.383447501172008209e+00 1.750486683571340407e+00 1.349519905593484559e+00 -3.127693324472539671e-01
6.479802461409566172e-01 -5.060667318016626837e+00 1.473489378918218229e+01 -1.290015321411184068e+01
-6.358071446007577343e+00 -3.690842144948752068e+00 1.388219734541870842e+01 6.748952195567137657e+00
8.587571465830089679e+00 -1.063347386261796679e+01 -1.598956345341933805e+01 -4.558243847206876254e+00
-1.125273661377599232e+01 -3.037780865869156854e-01 -1.195083560298807690e+01 4.810556253828455198e+00
-3.893454777175420212e+00 1.050124630611029453e+01 4.779371345788004710e+00 1.272096356761710467e+01
-3.142506899965623823e+00 -4.932715151151374933e+00 8.227425588051980654e+00 -1.242662037646182860e+01
4.800359712708523574e+00 1.586001688876936910e+01 5.110442793460057587e+00 6.444429927438656058e+00
-1.096525378512697912e+01 4.062529054837692222e+00 1.030494953304327943e+01 8.166392099552350459e+00
-5.597491133768199845e-01 2.504000408448466164e+00 -2.724504847834773091e+00 -1.610408715421929671e+01
-6.445922270197201875e+00 6.770989581012421432e+00 1.316931996463343424e+01 -4.739527783519911885e+00
-9.675429916324029378e+00 9.118397016277234313e-01 -3.913238707390705340e+00 4.289459884333128414e+00
2.664413540387320811e+00 -1.145663641059502957e+01 -3.821937663747263070e+00 -8.161177007895890512e+00
-1.158550554422815360e+01 2.996804999899504995e+00 -2.677894016202385874e+00 1.361293667471835178e+01
-3.687028211797424682e+00 3.076756614264542389e+00 9.906637619733958289e+00 -1.367962115950053237e+00
-1.392730373163684199e+01 -5.284631181159380020e+00 7.884340018906176972e+00 2.842822530950860904e-01
-1.338432297337863064e+00 1.170809282086937664e+01 -1.892884445627883272e+00 -7.317787165936547045e-02
-9.338791172337529645e+00 -2.828421081335436682e+01 -2.662252041692501070e+00 -6.678271509562081043e+00
1.885497039824020860e+01 2.153438116785424405e+00 -4.213028458438596857e+00 -2.825354736863768590e+00
1.589111314292272814e+00 9.340579391555465030e-03 1.566598578587627300e+00 2.496249435378277148e+00
-4.954156214051048224e+00 4.213867837017181373e+00 2.556515569335974791e-01 1.312014331279919332e+01
5.425676285512365915e+00 1.686199177161154594e+01 -3.338822944286179428e+00 6.004597842572381161e-01
1.437986902653149812e+01 -5.565748120815919187e+00 -2.473841477582190418e+00 2.288153222006313214e+00
7.240988535965189321e+00 1.667721895854681691e+01 -3.705580574739604671e+00 7.483886000649641268e+00
-8.984334156700171548e+00 -8.253473235672835528e+00 -6.272159073327839174e+00 -7.670681803921186592e+00
3.347481981500067594e+00 5.904244762525777013e+00 1.208280880808825053e+01 7.909443666596371436e+00
3.081277240355904823e+01 -3.291367679962320825e+00 -6.847871715081976340e+00 9.358132246654637498e+00
3.875005512648312389e-01 5.369405489177867530e+00 -1.099167411492222257e+01 -7.914025458223580500e+00
8.747762933754353654e+00 -7.862349921590293889e+00 -4.059806217154990904e+00 -1.339068148331606700e+01
8.625562968609786552e+00 -1.099459163909694936e+01 -7.315378453370017020e+00 -6.304669931642607139e+00
8.412480892599765170e+00 1.060954812700819483e+00 7.527216759910857480e-01 1.078154944244347035e+01
9.313414801335790472e+00 8.910840907141234224e-01 1.107557836385147265e+00 -1.511848628912182413e+01
8.697506487530675123e-01 -4.997237410848943462e+00 4.879916734059759342e+00 6.781152396664914761e+00
2.831291109016603524e+00 7.761702367116612322e+00 -1.347564246946936217e+00 4.739035772320304041e+00
8.350646941518144573e+00 -6.371569988082808056e-01 -5.245838298983671599e+00 -1.460103609320445806e+01
1.277706396325640448e+01 -8.447536493438233762e+00 -2.696146738437532164e+00 9.071503711209508936e+00
8.031246039958615413e+00 -7.710769811722580691e+00 1.714278757785791640e+00 -3.293369491333816068e+00
1.212694509026390755e+01 6.497629914491428238e+00 9.929230867443351372e+00 -7.250706230685795006e+00
3.097062828833590409e+00 -5.661876509569141902e+00 3.560369199178228694e+00 -8.530871178506432839e-01
-1.473378569762936241e+00 4.438922464779173072e-01 -1.121040041483482597e+01 -4.572676831729831193e+00
-1.897120492102304823e+00 -6.938829260240944485e+00 9.792117482839683973e+00 -5.905182343342863405e+00
-5.771946936947787599e+00 2.046269465234483942e+00 -6.406456042784304472e+00 -7.239962706012029514e+00
-6.554865701343510764e+00 -7.429030659316460117e+00 4.931083718039031005e+00 5.976766316662057932e+00
3.079376294391295232e+00 8.826870788259935097e+00 -4.468534020247221683e+00 -5.786076946451125524e-02
-1.263606800262969010e+01 -1.293706879807850818e+00 -1.300261571016626050e+01 -3.686620589338813314e+00
1.478000652200385012e+01 8.395752866077174303e+00 -2.659345727844783625e+00 -4.549294831021086338e+00
1.139329602427992860e+01 3.352164014419865889e+00 -3.125525481235865399e+01 -1.795955174015237432e+01
5.655420194012707569e+00 4.664805727171448702e+00 -5.904401280826267140e+00 -9.069580409616726513e+00
2.515369594695653355e+00 5.545035568240643364e+00 3.385484213982713708e+00 3.051940916772117873e+00
6.539495860238655034e+00 1.248101887367555562e+01 3.853473241417604833e-01 5.337756497456989102e+00
-4.253217850571512137e+00 1.411172016130175777e+01 -5.541021675112811629e+00 -5.126357787065050076e+00
-1.478799493260861198e+01 3.320872351166280545e+00 -3.369370457238459737e-01 -3.216493190366100485e+00
-6.624062605899458944e+00 -1.204361746975010661e+01 2.778288137284721238e-01 9.151972139644712456e+00
2.492105045866993329e+00 -1.566026814322124672e+01 -2.536820020263459874e+00 -2.871691098600238412e+00
-1.867677984612860831e+00 -1.603631568563102050e+01 -4.412618688954483837e+00 -7.880733645206489335e+00
8.521579393720358553e+00 -9.095477709341566186e-01 -5.260204631787662954e+00 -8.162577288695471722e+00
-3.511328706253641352e-01 1.109215112920150403e+01 1.962758231014950949e+00 7.310683602081497590e+00
5.756766738933147387e+00 1.389001096935784441e+00 1.285164765596156577e+01 -9.459280428513876515e+00
-6.097755544646483727e+00 8.232643214813299082e+00 -1.164695569243434825e+01 1.847989920264645702e+00
-7.874114950887491915e+00 5.304942653354618010e+00 -3.979531334249725383e+00 1.375630325886620486e+00
-5.631178196575098660e+00 1.002686857442277812e+01 -5.085855064630474764e+00 3.721949665181315314e+00
-9.241663792813570311e+00 5.409242282006735403e-01 6.015427269403576638e+00 1.406549576069905383e+00
-1.257169668146842501e+00 1.616425014998126852e-01 -1.791641447457136138e+01 -3.736019343285482019e+00
1.289952460175014082e+01 -3.021848626222032319e+00 -1.471037528741217182e+00 -4.338540103300172035e+00
1.432970933243009348e+01 1.242565747925915609e+01 9.055590829518495255e+00 -3.340544690609587586e-01
7.887466992252263331e+00 -6.103903300393151987e+00 -2.727506501893766533e+00 -7.694305954788005053e+00
-1.877304888440105790e+00 -9.230838925818346752e+00 -1.495121644608958578e+00 5.588093008062080536e+00
2.849705259063048501e+01 -1.059544508488843917e+01 -8.409879552076082732e+00 -1.754063034805932020e+01
-4.458338730566060448e+00 -4.809530552048622565e-01 7.205548547470332466e+00 1.501453250948039830e+01
-4.206641891745233508e+00 1.011074727279652974e+00 -4.719545669924825937e+00 4.525808611711153340e+00
-2.860895409077031548e+00 -1.316435098756411115e+01 5.924755032671739086e-01 -5.754573681815911002e+00
6.632042290650447036e+00 -7.110239212847156764e+00 -1.449091328569492276e+01 2.065124073199010812e+00
-9.747036140024111006e+00 -2.082146045102145493e+01 4.769276630097248337e-01 -1.345749766279826565e+00
7.521044049782705798e+00 -3.494261491393170882e+00 -1.424311326877501171e+00 1.435590427800033630e+01
-1.268547832759897709e+01 -7.769921407933395585e-01 -5.097705126335608128e+00 -6.604426936716711438e+00
-1.306622398253605333e+01 1.500790148930713386e+01 -1.626256993495715841e+00 3.232808870158076608e+00
-1.852578551413327279e+00 1.633243071941604230e+00 1.193071098845154587e+01 1.230983919826462269e+01
-1.529890673210229757e+01 -8.983244139134546558e+00 1.441659351925204557e+00 -4.859971796823534085e+00
3.083104253082219248e+00 -8.608724092911559822e+00 -2.286991684873104891e+00 -2.577520707132810340e+00
-1.451577782940647232e+01 7.496936868719614733e-01 6.991290812397158660e+00 -2.369053137709183687e+00
-7.716425028029233246e+00 -7.535138972454904049e+00 -3.303966323162622842e+00 -2.218628660268145758e+00
-1.535195435547721088e+00 -1.119892468391894269e+01 -5.661546154833052569e+00 1.888750467078978978e+00
-1.068765308924092938e+00 4.559661058837211733e+00 -1.199444881073680769e+01 -2.703166024926705324e-01
-8.409655287450151562e+00 6.193967087728279530e+00 -2.816270046448474229e+00 -7.224430249066385201e+00
9.705013630978923445e+00 8.338816683167873833e+00 -1.805967097704098467e+00 -1.797398547167732064e+00
-1.895330528217913013e+01 2.288538956725961970e+00 -6.065290568397760929e+00 3.107228763289232365e+00
3.310573594021617438e+00 8.205516664881714606e-01 -6.531298352208633418e+00 1.468286434370023841e+01
2.358250827999694543e+00 1.422795267140400988e+01 -2.013277231684161617e+00 -2.966731625551653551e+01
4.504750304287310492e+00 4.040624626000862918e+00 3.072122986173853487e+00 -3.001590717565772337e+00
-5.258660046740017080e+00 3.556404730037237272e+01 -6.492634793421142803e+00 -1.891807408081479958e+00
1.707523185110016684e+01 -1.757295171289070979e+01 -4.758249233424369784e+00 1.798641752507725400e+01
7.318953918836747619e+00 -3.571242117691383888e-02 -5.084313556878694129e+00 9.824402509167940778e+00
-1.228189296479445147e+01 3.877050755305651908e+00 2.165185620232482844e+00 1.911525503565342232e+00
9.344916647403151089e+00 7.950892376030189723e+00 -7.587064661847888303e+00 1.406450111201927022e+01
7.157032819991235861e+00 -1.545486588283296925e+01 -3.481777915541699908e+00 -7.927063776526583005e+00
-1.303689654811621601e+01 -2.891350762595874979e+00 -2.634564016274000942e+00 3.031719519825672171e-02
-3.926165413910835866e+01 1.286054242426405025e+01 1.646844675285725756e+01 -1.153352966497840981e+01
-6.936891909268600998e+00 1.435697104715093175e+01 6.373515908626592008e+00 -4.589135104094046902e+00
-5.491800568241814062e+00 -5.277996502879054752e+00 1.515779802740467730e+01 -1.478413056088397237e+00
2.670297482527105304e-01 5.267541363936664389e+00 -2.048559407094271978e-01 -1.021279120156586506e+00
5.895937494532795142e+00 -3.550488266781045343e+00 3.589011876236404497e+00 5.366933980610912869e+00
-4.148845711747266990e-02 8.656738089353392951e+00 -8.791699631292507533e+00 1.199292477250113187e+01
-1.044387678554264198e+01 -3.576206726376377265e+00 2.505691389172252759e+00 8.954865055635240267e+00
-1.303060991408212033e+01 -7.279023006496724513e+00 -1.562596178192437346e+00 7.098466779897308676e+00
1.337255500015064058e+01 8.308151037329390975e-01 -1.187548991285054178e+01 9.773711745104139981e-01
1.201788488702947716e-01 -1.295289446948048884e+01 -1.160135079737957042e+01 -3.799282727041849217e+00
4.918059649701728375e+00 -1.127447869571063244e+00 -3.840102905997660354e+00 3.799023370254159371e+00
-1.934885314808307299e+01 1.983189507391379447e+00 -4.317248918229975807e+00 -1.771295951409112490e+01
-4.264458233419129995e-01 8.156755801408699824e+00 6.183834889488537989e+00 -2.560062326156813395e-01
9.033715847083305661e+00 9.779667442743511074e+00 5.630693307090908206e+00 4.509190288794690638e+00
-6.294561722999624465e+00 1.427993797697495815e+01 -8.755583446938398851e+00 2.505303590918331325e-01
-6.291553307204474699e+00 -9.918642278308523430e+01 -7.185281650222715655e+01 1.988380789495577261e+01
1.850778337901870074e+01 8.368104633359488176e+00 -1.084159817598567166e+01 -1.946173152091401848e+00
5.864923113110362962e+00 -3.112283485813580164e+00 7.218098362370695575e+00 7.189787807288282595e-01
-2.915059883295588516e+00 -6.943810039299088466e+00 1.229601022243424957e+01 3.132070564597897011e+00
-7.456522922841750223e+00 1.278702332300767353e+00 -1.538050526072309854e+00 9.754367274948222644e+00
7.087504454320591840e+00 -7.411014433993114103e+00 1.531767195546013482e+01 2.705067701559104032e-01
5.277345202980581718e+01 -2.422660599148106719e+00 -3.073260142832444686e+01 -7.959970207440186130e+00
1.166779512202503533e+01 -3.895040864357167010e+00 -7.861758170672729307e+00 -3.765705301072145517e+00
1.135567706221075168e+00 1.052318629330204658e+01 3.957067695013138042e+00 -4.615215545483467352e+00
5.588138370519620146e+00 -1.294413552275410062e+01 2.274002218032882716e+00 -4.796624866707281498e+00
2.359737248954897115e+00 -1.168549596232088206e+01 1.824081628151232648e+00 4.940535113784756960e-01
-4.011167395482396536e+00 -1.167983122703275178e+01 -6.604958770626734754e+00 -1.148553499970219605e+01
-4.514100544782170488e+00 -4.977437926752509512e+00 2.028096576325393308e+00 -1.585456600405537309e+01
-3.541683053728292663e+01 2.214848273676188750e+00 -2.048568384159311506e+01 1.793654037393080358e+01
2.523819706095857374e+00 -9.360449708605116381e-01 -1.595151675280196690e-01 7.895458098063536490e+00
-5.192429833472083089e+00 -5.516693246316116905e+00 -1.137184536260671486e+01 1.089293064213648243e+01
-5.950503358566704648e+00 -5.126567478974882519e+00 -1.499314351040616700e+01 5.261565950741088571e+00
1.207755149970141773e+01 9.033470669369934924e+00 -2.846025549791198372e+00 8.772647766010123860e+00
8.373763772673923356e+00 9.760732805817243118e+00 -4.489418797681651974e+00 3.642477180701843675e+00
-1.271393794294869828e+01 5.584188771917914629e+00 -2.830772502903710741e+00 6.929572750661024294e+00
-8.497492979550802517e+00 -2.291008015420068045e+00 3.299344945538416507e+00 -1.180303915022542860e+01
-8.277280652692249774e+00 -4.388426590120648729e-01 -7.836915932923906425e+00 -1.188259562137797687e+01
1.086371964796091305e+01 -9.345086599670091587e+00 -2.383311759934232832e+00 -8.054067853060942195e-01
-1.565330409199893413e+00 3.093402731303398934e+00 7.622605860211155715e+00 2.203357417423758946e+01
2.572562343184183753e+00 -6.753347927173194876e+00 1.273371756253977516e+01 7.544409323798114464e+00
-1.262851307673778045e+01 -4.124888342319818157e+00 3.508694953473530109e+00 -7.875298579871752302e+00
9.645182402374731012e+00 2.058620840953824249e+00 7.789336533511804106e+00 3.742552796120320657e+00
-8.216041134149982383e+00 -9.611022316042614477e+00 -1.750437593941090997e+00 3.544551908999205025e+00
1.447321976407187982e+01 -1.281468665850417299e+00 1.243224220763279320e+01 8.385331654411949387e+00
7.070949061114442102e+00 -1.799699932194969376e+00 -1.310600799830127006e+00 -2.013743006753354603e+00
5.285120470085190370e+00 6.976506837229264235e+00 8.053079607714462185e+00 4.437607110386799225e-01
6.062623377710628425e+00 -1.870142995752398507e+00 -1.054754887929830254e+01 -1.046009004927549846e+01
-5.271206316261189073e+00 5.583969451392475136e+00 5.664058283789979775e+00 1.767190472781023647e-01
-2.853036988799964924e+00 -6.559583134119093550e+00 2.383923787924650650e+00 1.372651470769213233e+01
3.214396485706985107e-01 -7.422969965064529774e-01 -9.751180011162762895e+00 4.793770532342022328e+00
5.530099039289368079e+01 -2.074206752071535220e+01 -1.193354639233985637e+01 -5.207384256738269990e+00
-2.284031877658317278e+00 -1.214786092849128174e+01 -5.757216726828831455e+00 -3.727392470280232128e+00
-3.580989862180443239e+00 7.833826844664404376e+00 9.512386127412487680e-01 2.538326152373903355e+00
-5.091706211870124399e+00 -9.015876963340376804e+00 -3.299710380354366812e+00 -1.674803046886056634e+01
1.738462253343397634e+01 4.529241221284953767e+00 -5.098630757764194499e+00 -8.779643469416493318e+00
-4.102026451734777091e+00 8.026498077824888000e+00 1.095686039850406601e+01 -1.052007343753688318e+01
4.663588495484896512e+00 3.392680838415974787e+00 1.834449437150502504e+01 -1.516514619042573564e+00
-1.697420052268057367e+00 7.086140905067862761e+00 1.028995542379052175e+01 5.097620906339606961e+00
7.289645386998083509e+00 -2.867807873597539636e+00 -1.300804064642517943e+01 -2.104040310026874394e+01
-2.757255979783219235e+00 -6.702722818120383508e+00 -7.320402912363799253e+00 7.212892190172773610e+00
2.456477816350848276e+00 1.337253360622436205e+01 3.013831238144161428e+00 1.077104894040237459e+00
8.825663249920912889e+00 2.050598126265399390e+00 8.223065783069660739e+00 -8.594820699707602651e-01
-5.224480941126007361e-01 -3.031453734730272576e+00 -7.117744416373423810e+00 -1.478679941381350993e+01
9.383074155221091672e+00 -9.504349100486063406e+00 -1.101800850650718200e+00 4.741990790968860559e+00
-1.222289713835428770e+01 -1.618156009554610719e+01 -2.083163921424834530e+00 6.856291356714518948e+00
7.240704683976415534e-01 2.820765251571179633e+00 -2.666269880733522335e+00 4.819263143669572536e+00
7.739525204165403904e-01 4.708206386409544031e+00 -1.391208720824314327e+01 6.499258044748604135e+00
-6.247496291627971488e+00 1.001008627879729573e+01 8.289711364320828668e-01 8.006920949769089191e+00
-2.511674636280890383e+00 6.648717777185059186e-01 -2.461786041713634354e+00 1.065810991829263799e+01
5.866131757308588490e+00 1.227574572512467732e+01 -8.985668643483545992e+00 3.805950996946101839e+00
7.815269077807206699e+00 -1.038045265019422292e+00 1.326739170409230795e+01 1.631209153011735191e+00
-3.757710188335107837e+00 7.525130791246299466e+00 1.239391553267248369e+00 -1.004127474590045033e+01
-1.357253433527257691e+00 1.274340085964068692e+01 1.443631966175930614e+01 -1.045842885898387475e+00
-1.587060086188086849e+01 -1.569736380842807044e+01 2.504471327360256794e+00 1.025467228409621079e+01
4.340340480624193198e+00 -4.302432052251343286e+00 -5.704213015964701761e+00 -1.103891615613666488e+01
-8.829224453163120323e-02 1.091149192552083669e+01 5.029280314251712625e+00 -1.338804175137169850e+01
-2.583984014796712803e+00 -4.573443738018572624e+00 -1.162239610228551889e+01 -2.555751575408967913e+00
1.044187555554103319e+01 5.471469672943605644e+00 -7.014481614577229074e+00 -1.291321678768338721e+01
-7.869416175708464856e+00 -1.587267299662270315e+00 8.648477650337468292e-01 1.431422918897592922e+01
-4.379361468710500915e+00 5.536648327068756537e+00 -5.430989315942357898e+00 -1.275216718869915944e+01
-5.367726370880788522e+00 9.851939686544515240e+00 1.111780007735207931e+01 1.009845498723624146e+01
-1.223759049387309261e+01 -1.127974108748051130e+01 -5.173357999525785900e+00 -3.807448316354078988e-01
-4.835493478606073481e+00 -1.161490277526665338e+01 8.452066451648921230e+00 -3.215314905819091518e+00
5.927245473228787809e+00 2.467445763122559033e+00 4.013841219005934491e+00 6.442031708913501298e+00
-1.127785663763370216e+01 1.054960242798686387e+01 -6.822258886822882396e+00 1.258730441280185297e-01
3.874577111352552450e+00 6.544382511531644298e+00 1.948816769918347847e+00 -1.260404513362012757e+01
9.712919703291918339e+00 1.484425761589532478e+01 5.398863237365898016e+00 -2.241746848233321820e+00
-8.053673810020983481e+00 -5.003666480505453151e-01 1.189212987676435951e+01 -3.524626519300645189e+00
1.331470366245131665e+01 1.531601259690768835e+01 -3.700494095107737635e+00 -3.629644029090871804e+00
-3.432633987694682975e+00 -1.640270205253440494e+01 9.054492994506427195e+00 -4.900341770400651775e+00
1.289266207391412777e+01 1.123723851523847461e+00 -1.830373975881467885e+00 -1.003194727406372166e+01
4.508117886541101349e+00 9.068004289803532458e+00 -9.136322028258806682e+00 -6.120113112422709278e+00
-9.727687338066434819e+00 7.312599846117390889e+00 2.161507514323972590e+00 -4.216435560087925971e+00
-1.184430146496577230e+01 2.151267380916969341e+00 6.607578479187362852e+00 -8.346498212562927677e+00
4.214475793198236175e+00 4.377291242987759290e+00 -9.160237842294812083e+00 2.937898978154437568e+00
3.258176485765089225e+00 2.573038289510893861e+00 1.544008684629501360e+01 3.619564175769122816e+00
1.032089733588043429e-01 7.941758665124360128e+00 9.305383268381142159e+00 1.396233119599603256e+01
-1.806879139030222703e+01 3.135016003262181883e+00 3.797649095407978237e+00 1.825683538701442510e+00
1.409967956556729796e+01 2.822322979757223127e+00 -8.528517744217287699e+00 -3.956340388567016308e+00
1.065436102170843391e+01 5.849808025535471856e+00 2.897511076825997733e+00 -6.915195672095583390e+00
1.901701778451392544e+00 1.312464484248706498e+01 -3.729936162811381628e+00 4.322727101662250604e+00
1.425810890660315522e+00 3.483603739810958722e+00 -7.150818794704574266e+00 9.216933606997320894e+00
-5.666832306684026932e+00 -1.159945289250091705e+01 -1.330932274556622907e+01 -1.050809903658087485e+01
1.469405591925599497e+00 -3.163657219198668713e+00 -5.388962529219287312e+00 1.016685542715691426e+01
5.688531785852694256e+00 4.320497032799618609e+00 -1.202189115695342103e+01 -1.089860734996775093e+01
-3.995803168518592408e+00 1.160075622747369373e+01 -5.855381063186140267e+00 -1.041668231031783698e+01
1.032573907292020721e+01 8.730670502850554016e+00 7.080682878571552763e+00 -2.217543996697461939e+00
-5.674810128588698710e+00 5.524535695901127141e+00 -3.104254665225588905e+00 6.335647653013864122e+00
2.891469868342895566e+01 6.078749264052106582e+00 -1.604544340817584214e+01 1.405546894730153973e+01
-7.739129818623284862e+00 4.666758097507316627e+00 -1.593840768585089052e+01 4.317062231405044415e+00
-1.635346995809476311e+01 -1.487461126179657311e+00 -1.699501194688666228e-01 -6.116870481110428415e+00
-7.129029307773104840e+00 -2.370166974445192754e+00 -7.269392373184563994e+00 -3.768246689889465539e+00
3.637171221490484552e+00 1.371887717407158114e+01 -7.856003412422081666e+00 9.693139982881604055e+00
-5.694518329763372577e+00 2.501964751724992109e+00 4.267624773798418758e+00 -9.846122696969882071e+00
-3.765470166783721595e+00 -3.729091054779644310e+00 8.431381722051657590e+00 8.363078191868545730e+00
2.910570124427760419e+00 -1.497796087731600068e+01 -4.481906745960340110e+00 7.462531002565486737e+00
2.232589384614973582e+00 -2.555307779893411624e+00 2.413186037731036571e+00 -6.496476535150272014e+00
-3.678797796512942142e+01 -4.849980916720351587e+00 4.440941602970210056e+01 2.534371923479197619e+01
9.565573197175773146e+00 -9.145040870311301973e+00 6.035010216457920684e+00 -1.204967991330140764e+00
-5.811035682478176589e+00 -6.931671881499829269e+00 4.075100058331423192e+00 -4.513440828023394857e+00
1.124957549186695260e+01 -5.080989610720466843e+00 2.598667148249035108e+00 -3.699681562702760718e-01
-2.031593751145350790e+00 1.376514438858188427e+01 -4.103176814552807805e+00 9.305139698601136544e+00
5.699432035343923175e+00 3.642335158942740403e+00 -9.261414609491853689e-01 1.021490849835329007e+00
7.105838665405704191e+00 3.348778843278251038e+00 -1.597733156984120773e-01 -9.325010678557307031e+00
-3.807087787749892094e+00 -9.085067298053642659e+00 -4.777626522318882962e+00 1.653857131213672105e+01
1.756112768971579419e+00 2.058144507314926486e+00 -5.425632341827403948e+00 -3.394974379897482963e-01
7.962354000799173548e+01 1.972658521388465829e+02 -1.660241238099358725e+02 5.481528564460445807e+01
8.565602236866109109e+00 -3.678932139404264223e+00 1.040421396932279663e+01 -4.469517623088139047e+00
-3.765047542345734577e+00 4.387108619351755223e+00 1.555900075213787837e+01 7.602435972737628944e+00
-1.100812562460426847e+01 1.116170403335834571e+01 -3.217546202539207645e+00 -9.421745458827592401e+00
-1.032998090651092404e+01 1.280668293885540088e+01 -1.606457156845918721e+00 -2.911061686302125029e+00
-9.877718005619545494e+00 1.514866893947487858e+00 -2.862126912727653405e+00 -2.443561223899999746e+00
-4.639764936250986516e+00 9.646090126753531280e+00 8.973785534732002134e+00 -2.361922086772372698e+00
2.898187386397986565e+00 -5.174393064936174014e+00 -1.387028994960438943e+01 -2.758181984589143543e+00
6.551095674152378479e+00 9.826814576779431931e+00 2.333183754106432417e+00 -8.207146129537929991e-01
1.050588570905996200e+01 -2.630693440705538233e+00 -1.280275540750481511e+01 -6.544544877392126203e+00
3.888459535583253412e+00 -1.496719745839843263e+01 5.522410810920511892e+00 3.767482957886734596e+00
3.585184358060958143e+00 1.094454807148227538e+01 -1.148393803224587062e+00 1.210929166111004385e+01
1.639133095386379324e+01 -2.168469998445747837e+00 -6.623920095148031706e+00 -6.571690499430614452e+00
-2.370681230004413464e+01 4.246921209297939726e+01 1.196977425483034629e+01 -4.197757267548114868e+01
1.958232572679895611e+01 -2.335562149328958981e+01 8.857887337910771208e+00 -4.206870206770052079e+00
1.409578533995260763e+01 -2.495621878484320177e+01 -1.598837807336712658e+00 2.168077959161477963e+01
-1.298559019980108964e+01 -5.927677746084202504e+00 -3.334144748511952638e+00 -5.169109534062375388e+00
8.745405578355278209e+00 7.185725176142809367e+00 5.991346680926097790e+00 1.114335047040859727e+01
-1.689260735592877438e+01 6.094144154441714534e+00 1.133164344897977571e+01 -2.079042226271170968e+00
-1.614526581570949748e+00 -6.801162544792539677e+00 -2.490368764121754896e+00 -1.236649553845966309e+01
1.267582176386790849e+01 4.474002146572876093e+00 3.162562321964150325e+00 5.670808733068802177e+00
1.590263523654384059e+01 2.046426064248953125e+00 1.564848219717589473e+00 -5.272463984926902825e+00
-3.573157831661673001e+00 7.132577675812679985e+00 3.060713469032855905e+00 -4.234094056898825009e+00
-1.998417238008730168e+00 8.516638181969094390e+00 -1.458669496419286205e+01 -1.025026604385653251e+01
-1.063929184139910511e+01 -1.347833040835204699e+01 5.681136912628743652e+00 -3.935504753472993666e+00
-1.109060335393914265e+01 9.084498431018957376e+00 1.185801580156821267e+01 -4.737426534810057488e-01
5.761372541506307954e+00 -4.474568976256490416e+00 -7.037302039089014194e+00 -5.541327764506655207e+00
6.528506051586452585e+00 3.847385201241384944e+00 2.444174630295039119e+00 1.564344478519838333e+01
-4.019230408896476092e+01 -1.101745212504725302e+01 -8.856590339006217283e-01 4.747325090517536816e-01
-6.878407131155355181e+00 -4.766706109495897792e+00 8.377917782363024202e+00 1.769140536294534716e+00
-1.254666607574152692e+01 -1.003531284229718779e+01 6.958167046775920461e+00 5.287232921530031327e+00
-2.243436898644637623e+01 2.648921532680199031e-01 1.371826410381901162e+01 9.074158829475766908e+00
7.383792953752465138e+00 -8.612652975173077152e+00 3.907842153213024528e+00 -1.002652743296899374e+01
-4.306288123672045742e+01 -1.204695153144364461e+01 1.418986398913729730e+01 1.106703054484276905e+01
-3.495718229063168980e+00 -8.985834815842893564e-01 -8.907535105045219836e+00 6.041481030988880008e-01
-7.401339713997554526e+00 -2.789079987810871408e+00 -1.500590595023303608e+00 -5.891918465791130544e+00
5.189023940937033785e+00 1.063369744627816527e+00 -1.475133287812304594e+01 -5.803261233041490996e+00
4.335152644829086910e+00 -1.737713044640112869e+01 -1.021641473968172242e+01 7.184747321480802196e-01
6.789355439794714897e+00 1.145719443990470410e+01 3.612003051449815150e+00 -7.306275165226868928e+00
-6.260269827289586253e+00 5.097041427341482134e+00 -1.123568319360750500e+01 -1.044052665184037387e+01
-5.943221060882379447e+00 3.609925895651960315e-01 1.008002097286475340e+01 -9.816691690826276684e+00
-2.350181863735004484e+01 -7.543412986760601735e-02 2.935355201986447615e-01 -2.252782019340426878e+00
-3.420719474577432750e-01 -1.558145578621792815e+01 -1.256557781441424160e+00 3.077076347690507419e+00
-4.738384800889242854e+00 5.614110387287182036e+00 7.814583815292412972e+00 -6.873068755993195111e+00
-7.658096410014347821e-01 6.281782559639965235e+00 -2.137332478771147848e+00 2.141971068142030177e+01
9.423203934118864922e+00 2.800072676903166968e+00 1.347261660205396439e+01 -4.132749602280923362e+00
-1.779492382908148151e+00 2.358877510410458900e+00 6.928340255335830200e+00 4.188506131798597210e+00
1.473666717018200067e+01 9.864270473372794612e+00 -1.425802658372822718e+00 -3.541426184096270902e+01
1.928901570868629678e+00 -6.956042610195916076e+00 -5.034612388875254751e-01 -8.048992060341200627e+00
-1.605853520068117390e+01 -6.280619401613964925e+00 -6.107964478618855608e+00 1.854058290746746218e+00
7.597280144751054287e+00 1.724800636402547438e+00 -1.090232750166024722e+01 -1.784302368464238953e+00
4.719993554298352656e+00 -1.446839172738115131e+00 -1.429447151358390400e+01 2.375569507642284695e+00
-1.321412955126479538e+01 -8.129045957141483925e+00 1.892192178776959555e+00 2.095410606366931994e+00
-7.021147664401306443e+00 -4.097342002942617967e+00 -2.775712971494410208e+00 6.687702820102954249e+00
9.600840676104279936e+00 -2.062431101657666943e+01 3.042893345208736444e-01 1.701903172483687854e+01
-7.879337265689113856e+00 -7.891181491024021000e+00 4.888971585289435318e+00 1.199552786222412593e+01
-7.556029186420392563e+00 -6.058446489857388650e-01 5.697394397402315569e+00 -4.456955276803007848e+00
1.557498230551840379e+01 8.613546240396047438e+00 4.529826192026860099e+00 -6.695688469953492650e+00
-7.009722364423120133e+00 -1.336102344153615729e+00 -1.241445940921495072e+01 -7.338746253675052955e+00
-9.940877154990028330e+00 -3.874148555839630692e+00 -2.454978069989738998e+00 -1.101479774692318792e+01
-9.900116628302255251e+00 9.170583230164304211e+00 5.914921047570741663e+00 -9.306585212479513203e+00
-2.721371447254067988e+00 3.713361060630022248e+00 1.760868807781190171e+01 -1.790078134587545478e+01
7.548396249419619952e-02 -9.431656162387129783e+00 4.777462340799897511e+00 -4.175905058662399583e+00
-5.116798800786114043e+00 5.975013733043478936e+00 6.668058673263349334e+00 8.628947870561960443e+00
-1.228600335065052462e+01 9.925434445982931564e+00 5.781146520425423319e+00 -5.302840077260679852e-01
-1.271107748409597065e+02 -2.648879846865025911e+02 3.802320434047178566e+01 4.244354054638083795e+01
6.033588457574958319e+00 7.729095589911787911e+00 -1.425595361768306901e+01 -4.793705884684881902e+00
1.080686308425017650e+01 -7.086326333217773943e+00 4.153920526805064739e+00 5.580494380921731334e+00
1.052215683216584274e+01 -1.151670288448891633e+01 -1.143997073455989799e+01 3.802164898653490610e+00
4.790594624124515644e-01 -3.040907846217482113e+00 -1.385997941435677561e+01 -7.932053141451525846e+00
1.024258173206430556e+01 -2.746861490419464591e+00 5.882726279258013058e+00 -1.645981854504126929e+01
-4.532791975729832501e+00 1.135343790795908747e+00 -1.779346535719872335e+00 -1.104218388940508788e+01
9.929820968087170741e+00 6.839159372517170654e-01 7.030900258380946788e+00 1.089492926365209868e+01
1.068785323851140312e+01 1.726831819301629878e+01 5.369672414741361699e+00 -1.055356493247636074e+01
-7.632592439980712129e+00 -1.088112376707988282e+01 1.366094880107610265e+01 -4.323934678110598284e+00
1.568324235246761678e+00 4.132274850001959265e+00 5.917286422776074417e+00 1.006396932946415568e+01
-9.304090805000855280e-01 7.281224012663940925e+00 1.826201281530418541e+01 1.437896612089969661e+00
-1.194308245955462588e+01 3.510614795896553009e+00 -8.532502723940462275e+00 -7.166992035138395778e+00
-2.483212656556831277e+01 -6.053491725242340915e-02 -4.688837581409461386e+00 2.698686493021458688e+00
8.657900486460777145e+00 1.048149011597947755e+01 -3.156141925282892835e+00 -9.560634729157929002e+00
-3.416393246754064972e+00 -3.614009818566984222e+00 1.382192317884723964e+00 -9.278637489565330299e+00
9.351198196951866493e+00 5.339871330718795939e+00 1.183261159695383213e+01 7.344393927315656434e+00
1.719323147371757088e+01 5.776957220430099404e+00 3.757842692006024832e-01 1.503922786948457491e+00
5.930103379827951215e+00 -1.412812583690845614e+00 -9.518015278464089235e+00 6.075814740266856973e+00
5.243817764243621227e+00 -1.004189647405642027e+01 -9.387167852956483927e+00 5.651097317661530894e+00
1.403976657348522039e+01 -7.049586814159312986e+00 -2.862242559881125636e+00 -8.287795575449461438e+00
1.055386829116017466e+01 6.045757425731868473e+00 -6.923720555671864396e+00 -6.823326390416736054e+00
-1.708824470244450389e+00 3.931118544663775971e+00 1.878750682001055550e+00 7.182523210332266927e+00
-5.165193000812051238e+00 -3.423054378532393027e-01 1.698606740568627771e+01 -5.886890949276642360e+00
1.408020012655246456e+00 -3.905082140663165724e+00 1.635357339270956700e+01 2.033109528042895686e+00
-6.142725818725851106e+00 -1.185200186326695615e+01 4.303527209035809875e+00 1.660353448984182911e+00
-8.433031202971769114e-01 -1.044883208880172809e+01 1.443579865230383064e+01 -3.600765760018449502e+00
-5.864150447649219444e+00 -1.541361572858289453e+00 -2.789312595790950589e+00 -1.642298502854662345e+01
3.887049104489692652e+00 -9.947739822774197549e+00 2.221808503866612661e+00 7.143720421811242005e+00
-5.054884040891904462e+00 5.205308092269580911e+00 -8.274473776301245920e+00 -2.739870100750683601e+00
-1.126391788027942553e+01 2.742106949758095880e+00 -2.453642663863135454e+00 -1.205832641238550629e+01
-3.265276872860412904e+00 -7.721877036012860351e+00 -1.348286148316338817e+01 -6.938686289966534027e+00
1.132549768036161630e+01 6.476346536011014621e+00 1.157162674255483914e+01 1.528601681104819310e+00
-9.011527375446396704e+00 5.174260830986434634e+00 7.829780836736679461e+00 -3.509942505309783467e+00
1.799986715187659403e+00 1.455541858501751129e+01 -8.503023508972026079e+00 -4.198304962925749173e+00
3.732820588968733588e+00 7.172949661144524924e+00 1.517300597772676518e+01 -7.080918249402999187e+00
-2.637619258561679558e+00 -1.628419661348858938e+01 3.130310707818307669e+00 -7.959522114234266477e-01
6.370174742962089631e+00 5.852273822799388903e+00 7.516906051715751325e+00 -7.052871968252134138e+00
1.434007299839756122e+01 -1.009407998753625080e+01 2.040658189491739716e+00 2.633531107080215872e+00
2.530316050593214072e+01 -3.592221220307088458e+01 9.676723141912761506e+00 2.789496721083180120e+01
-2.314799649478394450e+00 4.469761138872586415e+00 -5.598491913423344180e+00 1.490070373882774923e+01
-4.096459282820686942e-01 -1.465555039300623541e+01 4.173029115491040386e+00 -1.107797785359773357e+01
-7.949096901035792584e-01 -5.072034364786459193e+00 8.655525028904814677e-01 2.584837785012477518e+00
-1.997490633711057129e+01 -1.265618030241384773e+01 -5.620355647087205142e+00 7.934894944274387463e+00
3.055489313685177954e+00 5.028897657362065843e+00 -6.196886932032348305e-01 1.087333452163734293e+01
-1.299144104442351733e+01 -7.803434745212395285e+01 5.958123650964905949e+01 1.562979843600667218e+00
-7.526431955187084633e+00 4.257694978048439438e+00 2.416566176109957720e+00 4.713831552023592053e+00
1.022459575270740295e+01 7.799473001217457124e+00 -5.524386675791340906e+00 -2.072348566902716627e+01
6.823607300982952317e+00 -1.900018259177933544e+01 2.377049902355959077e+01 -8.524488303206144479e+00
-1.141154044009961410e+01 9.290651274477472299e+00 4.831710156178574245e+00 7.373009111308489238e+00
1.141838026759809033e+01 -8.215365180833816838e-01 -5.025061278701658196e+00 4.125713675946977688e+00
-3.417211134780790527e+00 1.060888114105229185e+01 5.579537602785873851e+00 -8.207821213338007738e+00
4.677883149503685445e+00 -6.237242967167045293e+00 -7.438769800594648984e+00 1.495256378903535799e+00
-1.098675326951095599e+01 -2.935822796890596997e+00 5.717041098744132910e+00 1.488142512890621383e+01
6.651135894470903587e+00 4.462307077997978766e+00 -6.168154778376881531e+00 -1.910379904549204477e+00
-1.098237732360294316e+01 3.037801877316506527e+00 1.131520399912920638e+01 8.818269225117728594e-01
3.470550823612100988e+00 2.534872841862322312e-01 -7.744559607674517565e+00 -6.349610252760504281e+00
-1.895170252435020686e+01 -3.950897872069628392e+00 3.735329787476118213e+00 1.665940848088496296e+00
-9.506087250963952684e-01 -1.490977670692280377e+00 -1.486924238956776279e+01 1.633770060362502941e+00
-6.534486277415996192e+00 -8.714618220670143245e+00 -9.135620451968025080e+00 -3.070623426941235579e+00
-1.524970249576048609e+01 -1.018051698394618754e+01 7.989720468169513090e+00 -8.818687037712438226e+00
-4.163059380923710973e-01 3.819060645928890274e+00 6.652064113468340700e+00 -4.377988485415896136e+00
2.123194105939593346e+00 -3.126843110963205330e+00 1.338668694379481572e+01 -4.677323231483232036e+00
-9.333199004081285111e-01 6.890345511866308170e-01 -9.544485613592630813e+00 -1.099542142878782514e+01
8.925194813641626479e-02 -7.733402509233973987e+00 -7.721026144252872925e+00 -8.771840462008126948e+00
1.555081131899354485e+00 -1.647961756840436465e+01 5.428651036422014187e+00 2.889431480332941149e+01
8.337537842018400980e-01 -3.186828520157287237e+00 -1.353704524262598419e+01 8.819702103845092012e+00
-1.443823498040377906e+01 -1.353620933345701882e+00 1.211465645520602097e+00 4.589644649746744243e+00
-5.723373706281784656e+00 1.050752986497029751e+00 1.071649944161420898e+01 5.109267060113827696e+00
8.502336196502376708e+00 6.766510962129339113e+00 -1.119262549321455147e+01 6.293261601511312975e+00
-6.733494883913373030e+00 -1.579346845314152148e+01 -3.400953392053316926e-01 4.615739991258948294e+00
3.462891492832921969e+00 2.295040030774285533e+00 8.482062355060829617e+00 2.731719077013005759e+00
1.798617765698836379e+01 6.916180465837110880e+00 8.842276774017250318e+00 2.512694699114569374e+01
9.605996911520696457e+00 -5.415173595537551954e+00 -7.014825548381143250e+00 1.194173514325940388e+01
-9.353854614219057950e+00 7.449633940941927435e+00 8.370399381881282963e+00 3.476356910720951099e+00
-5.844768469269919109e+00 -3.523787317068644231e+00 -2.467391911140483618e+00 1.087761525797176665e+00
1.211897577182430830e+01 1.250182748661003629e+01 -1.791294644184517892e+01 -9.517550874893897728e+00
3.517285141487875411e+00 -5.630488389265564386e+00 7.442791518146261609e+00 -6.193588556971184822e+00
1.232137951264176579e+01 1.372807947574038179e-01 6.843263518315501059e+00 -6.398473955862705509e+00
-1.709099783774272296e+01 5.287125807162637692e+00 -8.989705419342026715e+00 -2.284763393886480642e+00
-1.385264339332679029e+01 1.540492694577051624e+00 -7.924968234087040209e+00 8.776631062205126455e+00
1.967578272464915301e+01 4.841423779250106030e+00 6.285656067196306651e+00 -2.258317993000159341e+00
-2.341284731446303446e+00 1.726032478623109157e+01 2.249960397224000541e+00 7.986767580356701757e-01
5.542108633232966319e+00 -7.875542945078009893e+00 -1.173074904387585704e+01 -8.383177617419283578e+00
-5.964033932581527253e+00 5.075666433663223565e+00 1.455801233267788852e+01 2.147125334055688839e+00
-9.204160815532519635e+00 2.944875405405554147e+00 -1.035623277972810286e+01 -8.845380130903351956e-01
-6.590719896215971652e+00 -7.135444422761300309e+00 -7.448875903181697566e+00 2.707830517014438776e+00
7.441449687214606534e+00 -3.515188896952290420e+00 8.167724808108340895e+00 -1.141858059001342873e+01
6.573816919122908331e+00 2.677483847874214007e+00 6.219303730006762621e+00 -1.269761679571291069e+01
-1.446241659601569918e+00 -7.817934486622850621e+00 2.295928391286589942e+01 1.713699672175923183e+01
2.534453104612628405e+00 -8.185680453329615247e+00 1.115935153809734537e+01 -4.097144159644117156e-01
1.155630769905402211e+01 4.747869764455757924e+00 -2.084664870263520875e+00 2.626075683780302317e+00
1.545601477269047175e+00 -1.082131304924935300e+01 3.080534215239486340e+00 1.524158178790432494e+01
-1.119291520001729623e+01 2.173587684861591640e+01 -7.740619016010048092e+00 1.460562207716924199e+01
-5.244001616604712090e+00 -1.271377525253132745e+01 6.079288359129720654e+00 -7.765854751483415974e+00
6.152046464280172700e+01 9.074116493401032102e+00 -1.407396337318051671e+01 -6.270237568288649754e+00
-1.402993621958007919e+00 4.085544189705805351e+00 1.255559715976275292e+01 -6.179069610936936741e+00
2.248739687965358947e+00 -1.669959900689827581e+00 -1.000362728495027298e+01 -8.545528508377384647e-01
-4.457634613131475909e+00 -5.651789022662232043e+00 1.424043546368353574e+01 -8.482402633530814029e+00
7.789117855136838964e-01 8.710202820678071944e+00 -8.295509739254866233e+00 5.983410074105234955e+00
1.704717927423747170e+00 9.142934623630230462e+00 -5.817165109420790792e+00 -1.123887286676727015e+01
-1.167405828490834629e+01 8.010664010717965411e+00 -1.088930659756670138e+01 -3.878226039495444422e+00
-1.145263365916523313e+01 -6.173002272198207407e+00 -8.285257155315273181e+00 6.739867491136777744e+00
-1.137589868099117929e+01 1.013664768027057939e+01 -2.821220283600150425e-01 1.104800348759197526e+01
-1.030333363700638039e+01 1.467683093128675287e+00 9.405118636791862663e-01 -6.944597543915651983e+00
7.251579748112147783e+00 -1.237526853530579674e+00 3.866315923234296736e+00 -3.772479930031465756e+00
-1.004981194265239935e-01 -6.025118295700018778e-02 5.314388225674980148e+00 -1.146602780806111177e+01
1.563271326379158888e+00 -2.468971915130402817e+00 4.859244251032242445e+00 1.700483031097008180e+01
3.747426811860151918e+00 -6.626773462372828938e+00 -9.293116071998330341e+00 1.004718069504896505e+01
3.345638102238401856e+00 1.971650196332594085e+00 1.122282210285959181e+01 -2.088655622972392933e+00
-9.237303914992185838e+00 -5.569200377194117202e+00 8.901442143851335587e+00 -1.012867242304509929e+01
-4.801948959928012961e+00 5.785925398832790556e+00 -1.916902921971916030e+01 -6.766926214720117905e+00
2.269462163975940072e+01 5.674975104522718361e+00 1.243907622891077658e+01 -5.441872208563468954e-03
-2.052225920017334282e+00 -6.546441485716165687e+00 -5.788715854632022761e+00 -1.474091300145756733e+00
-2.854357958496223091e+00 5.647450469740450396e-01 -2.823370503701377654e+00 -1.115450491945932709e+00
8.709536917673048606e+00 -1.880735396468438680e-01 1.900918987124960324e+00 2.134414182212124977e+00
4.973240113142479046e+00 9.904530175030001882e-01 1.098071835493245629e+01 1.381591540909217031e+01
1.126291387264441646e+01 -4.668224379615624642e+00 2.778683657221860948e+00 -7.797173432224354883e+00
-1.586234100082802634e+00 1.332628338309215010e+01 1.082585215865128170e+01 -6.654595527474522321e+00
6.553537833830945125e+00 -1.620086720444989359e+00 2.333732767549892895e+00 -9.971791743136371622e+00
-3.909297600370604364e+00 -6.736852565387875913e+00 -3.313704636671214399e+00 1.132371895141444540e+01
-1.336770352801899442e+01 8.706967939321529570e+00 -1.012184095411441165e+00 1.098355410731564730e+00
5.590240289762736126e+00 -7.459829133455613270e-01 1.009709619435981232e+01 7.435920138792664780e+00
2.458348332126244262e+00 -5.907449978571885474e+00 -6.868781970288733163e+00 1.583694383179291876e+01
5.158174499225211207e+00 7.210204264860372803e+00 -1.317381558440307021e+00 -5.580632198684090994e+00
-3.539731306151318702e+00 1.169045390438270937e+00 1.646271429533622044e+00 -5.302313727493269901e+00
-3.096378246591940719e+00 4.080983312590977796e+00 -9.816726258747982214e+00 5.296412969805754045e+00
