-1.963431790457372017e+01 -3.853313100167005345e+00
-1.648945868835972206e+01 -6.668462024616556683e+00
8.909838006672318400e+00 8.519304980706367658e+00
1.004267581032343593e+01 8.578119423069662020e+00
1.037650853021451880e+01 8.087646386389119257e+00
1.893220268280240814e+00 1.911634241253309696e+01
-3.033281502589926681e+00 -9.217202858055932424e+00
-7.516411144040329617e+00 -7.196186355566613901e-01
-9.601712543895978058e+00 1.375788316413603773e+00
-6.533781134930232604e+00 7.805012486204061517e+00
1.343005077735022290e+01 -1.160384328133980603e+01
-1.177669468734770319e+01 7.914333655970860804e+00
-1.395909697935331195e+01 -1.799567581657131488e+00
8.674995481993255098e+00 8.008825115637307590e+00
7.793562897670292422e+00 7.514059773139499576e+00
8.871030872701476611e+00 1.333423731916155042e+01
6.835834596068817604e+00 7.973430081002492287e+00
9.593683091343903513e+00 6.987313471502286433e+00
8.212622593155108675e+00 8.783960695110534900e+00
7.263741523898109342e+00 7.954828216367100246e+00
9.840824951147201460e+00 6.815385506353512035e+00
1.010598021120221901e+01 9.566919460853013035e+00
8.639415743865662023e+00 1.077848089992837899e+01
9.185265602131046592e+00 1.071078398356890560e+01
7.496459387575320932e+00 8.773867375210535613e+00
9.209462718573922402e+00 6.551699169600635031e+00
9.551653511992876489e+00 7.591838539854431467e+00
7.881036033756062764e+00 8.353444152386511945e+00
7.750406232264225537e+00 8.904154717551897136e+00
8.355721541892386028e+00 7.233688550688720298e+00
7.456627114353908681e+00 1.018371759185291303e+01
3.816252158969064112e+00 5.338043011616824707e+00
9.375571984279039484e+00 6.815765384285570327e+00
9.034881042367853610e+00 9.889770685376097603e+00
9.740799614359168856e+00 1.000116107950611344e+01
9.324250493508710491e+00 1.035915703206979011e+01
1.045515778923003225e+01 7.667355289138122920e+00
8.822357535785689819e+00 7.307115519726430364e+00
8.243841737651010249e+00 7.943274841640504569e+00
7.086621041489953754e+00 7.367460486906547423e+00
8.603817363848092370e+00 8.493549949027880075e+00
9.629835667598840132e+00 1.060112176981285437e+01
7.638312555524886527e+00 9.599643934713181892e+00
-1.493078459015871573e+01 5.392574316491567377e-01
8.839989853148106036e+00 8.334390508979877765e+00
1.025562323584756363e+01 8.621431641904189647e+00
7.179590802658817772e+00 8.650085046490483265e+00
9.407321317416249329e+00 9.059437956903950706e+00
7.765631339658608745e+00 8.047297326377520932e+00
9.899027282456541954e+00 9.546899094302302657e+00
8.870486045413473519e+00 1.333551988113350717e+01
9.913386158826572370e+00 9.049185757177566458e+00
1.044961813189760491e+01 9.776282075878427236e+00
9.321403515400051631e+00 8.522111862059336573e+00
8.269193865502890262e+00 6.488308772907271482e+00
9.069069493650578906e+00 1.077464423507177216e+01
1.108342328649479214e+01 1.338469440718969850e+01
8.964621537781409799e+00 1.079169509892098233e+01
9.623759932266317207e+00 9.787750644355432073e+00
1.488495081510285623e+01 8.017713228361602162e+00
8.842608154215600536e+00 6.728868715371675968e+00
7.400544667793504949e+00 7.685062340294871674e+00
6.522949064051447365e+00 9.238121028575120519e+00
7.496589688715121547e+00 9.592182844913526907e+00
9.933447101096019694e+00 8.093215607292085778e+00
7.067260180287351368e+00 7.522017309332546198e+00
8.308946717161424189e+00 7.494088601452088660e+00
7.693787675225300937e+00 1.073463816601425869e+01
8.648075793051454241e+00 7.696602102587098315e+00
1.037035788073477960e+01 9.810967672483117852e+00
8.602068157878685284e+00 1.004592089802448029e+01
9.090838871018396716e+00 7.931796105166930566e+00
9.181584166046379281e+00 7.483578929978799366e+00
7.099679640645847556e+00 1.019455729990055559e+01
8.523680005845475804e+00 1.065435269406279239e+01
8.291622488382152767e+00 7.270444955628011741e+00
8.929203733910195950e+00 9.937242429064694349e+00
8.158401771477954867e+00 9.821748961650953902e+00
1.027098060560740933e+01 7.301492833706011432e+00
9.695680168594851267e+00 7.525887612114314784e+00
1.039035503588625708e+01 8.296192193625657296e+00
8.816086858109191127e+00 9.077687119664044957e+00
1.082520043469581239e+01 8.670953813678334399e+00
6.646149386396006165e+00 9.584866385410100165e+00
7.161967678163618345e+00 9.372542783096067254e+00
7.301253401075163296e+00 8.802509586595776980e+00
9.673878300984830148e+00 8.101754819616694192e+00
1.080494394883003473e+01 8.597321993942991014e+00
1.080269271445668444e+01 8.137137369124774366e+00
9.197592092851341050e+00 8.243427065944366916e+00
6.558579804546797121e+00 8.438745309838585840e+00
7.002083204084071255e+00 6.997192354352049115e+00
7.982805394094554252e+00 7.137721325606610989e+00
6.531099758222171481e+00 8.277945810800494186e+00
1.039960856554553814e+01 7.655180195094613893e+00
9.308213331228209597e+00 1.005300932617614151e+01
8.332298329684551419e+00 6.599417991240807524e+00
8.633118124350495748e+00 1.024363724744386772e+01
6.449294085965532553e+00 8.428494290613889106e+00
7.965668346801809463e+00 7.616363516236698494e+00
9.810695190902618990e+00 8.381010613979631430e+00
8.744096004567861513e+00 8.529898453268915048e+00
7.230762433326562544e+00 8.398103742099429780e+00
8.164055608459353408e+00 1.090683315411070886e+01
1.068619926452787894e+01 9.223554630014431766e+00
1.760867890157625837e+01 2.796242862837686083e+00
1.108347436211425041e+01 1.338559650557978742e+01
8.430962190434261316e+00 6.502756924211146483e+00
7.619041755285751449e+00 8.207836053452409075e+00
7.722810304522022662e+00 7.758058120895316101e+00
1.007925619925941341e+01 7.056968618997371046e+00
7.363345365331948500e+00 1.049255968002892914e+01
8.560236617255569058e+00 8.780287227081872814e+00
7.969128417233849682e+00 9.112179558296938708e+00
6.793601831518121692e+00 9.757438503496320692e+00
6.913745986818740974e+00 9.934575621587150351e+00
6.819547513572949526e+00 9.573754359159975635e+00
7.412805576450256950e+00 6.849258504836935657e+00
8.073437552419632013e+00 1.001206371154997576e+01
7.963364084646567420e+00 1.046756427410413259e+01
7.258233092853418000e+00 9.023074986472066072e+00
6.488515674156961843e+00 9.065550142845353321e+00
9.917816447386782031e+00 9.013428234549694551e+00
7.995572190373167132e+00 8.517471935146971873e+00
1.866033855118712381e+01 2.410747153738438175e+00
-7.302106550320109912e-01 -7.566441930460786836e+00
1.264209944176752565e+01 -9.088074520471549178e+00
1.357789810605297909e+01 -9.986299892469737927e+00
1.284146881071959534e+01 -5.233140176464638138e+00
-2.035009940852901877e+00 1.718464160139551922e+01
-8.741596253175618614e+00 9.517113395592815550e+00
1.223565275560081744e+01 -9.597237992146435914e+00
1.644205018282895736e+01 7.870287318988125058e+00
1.361111024583282081e+01 -1.072487887203430112e+01
1.613793610946511237e+01 -1.255534767503747062e+01
1.324040582796839338e+01 -1.043641118434437587e+01
1.282991829791778571e+01 -1.001527935704327099e+01
-6.703599419681800065e+00 1.478136705127954587e+00
-2.414146935099060531e+00 8.268008380415506897e-01
4.845343197467111729e+00 -1.429277873095069040e+01
-5.848776538648952972e+00 -4.994323732188819420e+00
1.995249778240834360e+01 4.393135428462129344e-01
-7.757894661330725583e+00 -1.315675243178478837e+01
-8.700575048439262105e+00 -5.217137479216384932e-01
-1.341117101253022525e+01 4.064207280735472771e+00
-1.134678354084807061e+01 1.101350466059519562e+01
-1.903200167555184619e-01 1.379486752709308917e+01
-9.951721703094870364e+00 3.379703270414801342e+00
1.283340258893172781e+01 -5.234963743998009456e+00
-8.212360727022991469e+00 3.938950995854855197e+00
4.844891807880278733e+00 -1.428554932462503757e+01
-4.482211459517039920e+00 -5.162448476938735098e+00
1.416041418669202656e+01 -2.240177654663968454e+00
-7.699467948199284484e-01 -1.232085217367032415e-01
1.406196911718277143e+01 -1.128392591623988572e+01
7.055456727931377792e+00 3.298993488927012829e-01
-7.507693549062659955e+00 -1.401890455548969960e+01
1.334757644948464517e+01 -8.798122938720766228e+00
1.224405183492373617e+01 -9.592360359545116566e+00
1.827403541126641073e+01 -1.636613174052120590e+00
-2.896873454462333797e+00 1.719789088438356472e+01
-2.889281104130447808e+00 1.716689340520333573e+01
6.276501148279137965e+00 -1.120986686396184817e+00
-6.428095517888539945e+00 -2.705109301014255951e+00
2.067453935626972950e+01 5.542268844733014177e+00
-4.881910427070964786e+00 1.003518434038855922e+01
1.717118281884309638e+01 8.872635973349781935e+00
-1.829956064631625878e+01 4.055158404701342256e+00
-1.239675163948560765e+01 8.616870399378255385e+00
2.273138723231242331e+00 1.685614911480937650e+01
6.291167262887491951e+00 -1.248810088784337163e-01
1.266614361761697971e+01 -9.019567332122642611e+00
1.018618367999737373e+01 3.676175059942401901e+00
1.225562958589730655e+01 -1.111754641840058078e+01
5.894491408108755159e+00 -1.095560758195578543e+01
-2.027634107938899977e+00 -9.110627770541209758e-01
1.435901371076424482e+01 -1.113584445576900706e+01
2.546136613982767471e+00 -1.120012687194520495e+01
1.204690828646356593e+01 -1.007613788496262686e+01
-8.796923838181497146e+00 9.607913530722617779e+00
1.784976256539291839e+01 -7.483329667556280818e+00
1.462842085059312147e+01 -1.037936764902278242e+01
-1.239639679102288028e+01 8.617061190787882907e+00
-1.835832230265329912e+01 4.052046384675741741e+00
-7.391468883205964069e+00 -1.021631520807793070e+00
4.919814162232386323e+00 2.055644717614489636e+00
2.336773988943195768e+00 -9.871774750178788915e-01
4.006492082707078239e+00 -1.524199980999392601e+01
-5.356285976650367431e+00 1.527383510548846957e+01
1.076722322643026963e+01 -1.727281170761815643e+00
2.689595672033774143e+00 -1.203720644480940116e+01
3.112676100270030055e+00 -1.182316556443377564e+01
-3.773404842314585395e+00 -4.725552654022601162e-01
-4.923619173019281092e+00 2.108109052548925652e-02
4.841492165489979627e+00 -1.433438297408066653e+01
8.725490067107132930e+00 6.579019045557642720e+00
-5.669573628993018310e+00 8.876698710493464262e+00
-5.544320459976306736e+00 6.403214983877421496e+00
-2.485850219058884036e+00 -4.732278229688893667e+00
-1.011047076900959496e+01 2.926828517521080197e+00
-9.969702652435172396e+00 3.380481955615802558e+00
-5.972529509384139068e+00 -7.395514309678131504e+00
-1.327289378679669873e+01 2.422459118944093159e+00
8.023726819743922434e+00 9.692337812327410873e+00
-3.033980600064724698e+00 -9.212059291485541479e+00
-3.214786489428909100e+00 4.408946621203305938e+00
-8.741245879264672780e+00 9.517584716677740531e+00
8.011138249661726995e-02 -1.241554557569890083e+00
2.744115746774078879e+00 -9.162819723409249661e+00
-1.672849877649433159e+00 1.291066117115407508e+01
-4.784403814773517283e+00 1.449647895570345568e+01
5.026306817576000618e+00 -7.534740759254332509e-02
-5.353602293736195783e+00 1.529444985699063686e+01
-1.127834926856950837e+01 1.229585790736598483e+01
-1.388491613814141878e+01 2.036267341168763956e+00
-1.844985299885687624e+01 -2.326923588190524139e+00
-1.374907475490886810e+01 4.863523181127908046e+00
-1.311284221974903197e+01 7.451202472476892602e+00
-1.321588353672401972e+01 2.020179247250741383e+00
-1.570669262866616656e+01 7.328399165798516357e+00
-6.420321822532614853e+00 -2.611009990399357772e+00
4.843810240695662017e+00 -1.432653607772090787e+01
1.893130215051062715e+00 1.911249896672084958e+01
5.864363314005426986e+00 -5.779934387845187871e+00
-6.393996182674648310e+00 -1.410699033457014195e+01
5.660405383386531319e+00 -7.269798005356374659e+00
1.855768754630317829e+01 2.678924460623042236e+00
-9.161556886479202078e+00 -5.446856078455605044e+00
-7.508204808005021214e+00 -1.401813500271625479e+01
1.968944376053158862e+00 6.337318413506090486e+00
-5.354399630170367352e+00 1.528998313642447648e+01
-1.890927567239564233e-01 1.393330190134730984e+01
-5.669426454452533015e+00 8.877905487370998827e+00
-2.731807878021748515e+00 -6.599746860043135932e+00
-2.632563604600648421e+00 -3.029430953234019785e+00
-3.373382467266258455e+00 -8.496728925392391218e+00
-1.305689158270169159e+01 4.648836104342430886e+00
6.754798417646783903e+00 7.326340880828519531e+00
-8.383249370025696479e+00 -1.219249537240787440e+00
5.301410995363589507e+00 -7.255468277656186293e-01
-7.563297705836606877e-01 -1.140525044578986902e-01
1.106447288806112361e+01 3.833878318402666352e+00
-1.871593104102321448e+01 -3.945770894198209255e+00
1.828249864149713133e+01 1.903787252902373606e+00
1.261743579470345189e+01 -1.138315840770335363e+01
1.892454899127429702e+00 1.909042140828442768e+01
8.046438132306126256e-01 5.347465436702134589e+00
-2.827835545330320777e+00 1.726177717111198362e+01
4.838872243351973523e+00 -1.432288334951978825e+01
1.354505640782042875e+01 -8.792061634829396510e+00
2.273309757312858004e+00 1.684949491490646878e+01
1.892837759209676785e+00 1.910866710084215825e+01
5.302619634810561422e+00 -1.440929263734000987e+00
-9.344473227559117134e+00 -5.491971067622652747e+00
-4.538330219175520597e+00 -1.984896146314554022e+00
4.928280100346363213e+00 2.101831468696292449e-01
1.313844620661753559e+01 -9.678708198291921860e+00
-3.225010028059334566e+00 -4.278728342217401170e+00
1.738219158594917602e+01 2.666648894085487775e+00
4.843078340856983743e+00 -1.432758934325645406e+01
-2.413185933360368463e+00 8.264055790709822213e-01
-9.682788144953473619e+00 -1.854370962052326988e+00
4.846578774772208220e+00 -1.431388869442562495e+01
-5.269664573069206881e+00 5.517694591196024234e+00
-5.987460550093071987e+00 9.232484183168304881e+00
-3.514760765788873087e+00 1.053716954943341388e+00
-9.132905330242985897e+00 -4.885296967005133162e+00
1.424511760323897214e+01 -9.035550792302601053e+00
5.983071111919351814e+00 -6.246578423818525572e+00
-1.273719694632827082e+00 1.937520548449726476e+01
-8.060410298678611696e+00 5.572516195038646813e+00
1.283986140942947074e+01 -5.235847052676914082e+00
-1.375776290168492899e+01 -5.762111223109166680e+00
-5.314891092919721061e+00 -9.977331014147221566e+00
-3.033642820421260655e+00 -9.216230502947935221e+00
-4.609137080762989669e+00 5.784589417666759381e+00
-1.995240071099932955e+00 -9.477860701888529693e-01
-6.392391521660493403e+00 -4.884333974420452584e+00
4.576940616090536817e-01 1.043915395179121752e+01
-1.891503961051200500e-01 1.393685871452261260e+01
1.813981909336025211e+01 1.865274127581510788e+00
5.392651490316922924e+00 2.254469699722696785e-01
-2.485690518866303655e+00 -4.731475942767688458e+00
1.644607346933224434e+01 7.964217924734556142e+00
1.316404972965717235e+01 -9.080838839572116683e+00
-1.413023642580492734e+01 -8.193060919095485062e+00
-1.825595330747625811e+00 -4.491425825278021478e+00
-4.473019509689711626e+00 8.312789965472378029e+00
-4.186727112492684810e+00 -1.678366304906411699e+00
-5.692241820125199858e+00 -4.526872670172061852e+00
-1.045390303296269963e+01 1.108603930235312163e+01
-1.740133333647311265e+00 -8.234366407993976011e+00
-1.045341933266625212e+01 1.108292340337359150e+01
-7.028011125824324967e-01 -1.182711997178419183e-01
-3.541940252281726931e+00 -1.863106889410569789e+00
-5.099811271176253769e+00 1.407636269340482027e+00
-1.127806759550213656e+01 1.229659194828823665e+01
-1.877389397018854922e+01 3.494701485381111361e+00
1.089736676428805850e+01 -7.198267522917491945e-01
9.685805352585237671e+00 7.746850728387676632e+00
1.308996978994106719e+01 -8.836389592724989583e+00
2.011006206521121165e+00 -1.121072245264532441e+01
1.307773019781555845e+01 -1.095047015942024693e+01
1.073233673746975469e+01 -1.884647015065233022e+00
6.518702049040225432e+00 9.707865636518347996e-01
-3.077566135897606969e+00 -3.654404857950535046e+00
1.770725392874438597e+01 3.044987919526839004e+00
-9.977090022455834983e+00 3.381003552672820156e+00
-1.395892418982211503e+01 -1.799968276085661678e+00
-4.270034629840869123e+00 -1.001953769150992102e+01
7.678451529677413845e+00 -5.504883497742318887e+00
7.696761941267947549e+00 -5.461967095765984048e+00
-3.515767697094045019e+00 1.116658271028411864e+00
7.475245586625263172e+00 7.201316738398185535e+00
-6.423549030516075398e+00 8.572299481189080694e+00
-8.768132701030904030e+00 5.374414060108538838e-01
1.806771730254959607e+01 3.060304027601826071e+00
-9.977510077298735069e+00 3.380181557052173158e+00
9.926571210565485970e+00 2.150867694914269990e+00
-1.187921576003064850e+01 -2.788666654497617081e+00
-1.544057040849589058e+01 8.052349909907862369e+00
6.291396171100290147e+00 -1.521937006529162917e-01
1.472205125930606862e+01 -9.763761603474865325e+00
9.991717220132386501e+00 1.041704577358107953e+00
-1.169647712103175863e+01 5.710056524443075654e-01
-6.425232662925981941e+00 -5.669460990695380787e+00
-1.281242668494183334e+01 4.729485123883890196e+00
-1.103572420448955604e+01 -7.544620396307519350e+00
-1.314945903811706884e+01 -5.856171411235528090e+00
1.827692637562878630e+01 -1.636394310172908595e+00
-5.668451830742426978e+00 8.877435987971612263e+00
-1.360150277857566969e+01 -9.278440128647210017e+00
-1.657843406539783260e+01 -8.928361329673498048e+00
-9.878401394627657206e-01 -9.725559302885073976e+00
-9.158529020466835036e+00 -4.651564051249202691e+00
-8.377137423903555202e+00 -2.507735864595952435e+00
-1.095610590197151879e+01 -2.111637208043896319e+00
-2.485954879825714503e+00 -4.735566717179567675e+00
1.543523485374375070e+01 1.209072681816225625e+01
1.155733762987547708e+00 1.046375075335817328e+01
-5.412758889139372087e+00 -1.135645488670839676e+01
-5.154846786825497240e+00 1.777138146587632050e+01
-1.138126023503976825e+01 -2.687761111638371947e+00
-8.772993976394983795e-01 -1.333129778339136484e+00
3.363273991330882340e-01 9.052895186993426435e+00
6.918842428692994595e+00 -3.340321653525901269e+00
5.907605695821686709e+00 -4.458722112832290918e+00
-1.536291453691122832e+01 5.518426758203267113e+00
8.640106046603859724e+00 9.651503465171396456e+00
-1.685901764194562347e+01 -7.023904452451750657e+00
-9.987131359400633457e+00 -6.810203019358130661e+00
-1.273601274817725004e+00 1.938640527822345661e+01
-8.740747275334056710e+00 9.513041015168189674e+00
-5.667536020745530756e+00 8.876410714608166330e+00
-5.668836647988143795e+00 8.875093067661337543e+00
1.284409315867734946e+01 -5.232789837370838804e+00
8.569573839062826631e-03 8.872701974172173323e+00
5.982786076706413603e+00 -6.248167908835802642e+00
1.645197192364054928e+01 7.965152268576781047e+00
-8.883750700658085364e+00 7.645115628719029388e+00
-1.396190249325953125e+01 -1.799714469363987046e+00
-6.060931136661987573e+00 1.991035458598162666e+00
5.590103559988382820e+00 -5.943238382774031159e+00
6.519604278315221713e+00 9.707480118297552307e-01
-2.024016377749846995e+00 -7.936336634288896796e+00
1.464223910360571645e+00 9.929704672054542769e+00
3.589036378309935493e-01 -1.348269980517873834e-01
-1.878334206876814605e+01 -3.980529656160576302e+00
-6.702236397877726404e+00 -1.485440618121411305e+01
1.140837690058193798e+00 9.922347501224930255e+00
1.656300344561529414e+01 2.048129758621661245e-01
3.233270222293441076e+00 -1.198437468557075825e+01
-1.494345594858086024e+01 1.797090705327427873e+00
-1.934751883848548459e+00 -3.246795357221784251e+00
1.893550739553512718e+00 1.912023090456936814e+01
-4.988997624012092125e+00 1.482064894521784026e+01
-1.689242577547736346e+01 -7.839681483330441125e+00
-6.765069222276791194e+00 -9.914617941842198690e+00
-1.817030544848476481e+01 -7.154854803937027441e+00
-3.196257584004149166e+00 1.702828566514065045e+01
-5.390506688017872250e+00 1.465884793158434896e+01
-2.916792515868350755e+00 1.718085744671902049e+01
9.167669898677168305e+00 9.541227077356333908e+00
-1.103660377780836122e+01 -6.882005512941836045e+00
2.273535300281753546e+00 1.686020718525952589e+01
-1.669534967873326892e+01 -4.639640035185209399e+00
-5.314980293802606504e+00 -9.969922809991713208e+00
-9.180083598271847833e+00 -5.121861787599957694e+00
-9.105542833343591269e+00 -4.214609407237832173e+00
1.442041425548783806e+01 -1.079762332568284577e+01
3.364299642624526410e-01 9.053357355850225829e+00
-1.196111689306527026e+01 -2.919595765745198079e+00
1.736656119429862599e+01 2.283606405753344060e+00
3.363224432948972997e-01 9.050342482630805208e+00
1.382075618418974017e+01 -1.420677111490819833e+01
-1.223113294799534501e+01 -1.503802681632102178e+01
-3.034471010947394021e+00 -9.216481255690826657e+00
-5.356055160184657993e+00 1.529420692612886690e+01
-8.889119295645192764e+00 7.641079455938267984e+00
6.083198973559804656e+00 -5.838809641248901450e+00
-5.831761413625970114e+00 -1.238286313490654678e+01
-7.225164126728059522e+00 7.354413628106082790e+00
1.224590975399902426e+01 -1.055252145514380580e+01
-1.454171690035345854e+01 -4.186171008020957096e+00
-4.344803593228025562e+00 1.075047645511193917e+00
1.409053740943574873e+01 -1.048575125504706484e+01
9.481129065556572755e+00 8.559491289413019288e+00
1.295505588865180258e+01 1.418268766239812706e+01
8.429698102636182355e+00 7.721136795529949914e+00
-8.737946023464651546e+00 9.516520824421791147e+00
5.821202926075692119e+00 -1.406626723320201755e+01
-9.684187417098151229e+00 -7.396886704480459818e-01
3.668169222620543568e+00 -1.181312711947678906e+01
1.298817553124711921e+01 -9.775258625860921313e+00
1.892921226905442733e+00 1.910802583006674027e+01
-5.314855195716399194e+00 -9.972819087998376020e+00
-9.988659751116479413e+00 -6.810699471817188488e+00
-4.342632110994996686e-01 -1.732337809834189502e+00
1.416060004798862160e+01 -2.242545159584691472e+00
-1.689099927554390845e+01 -7.839105041511509775e+00
1.311898768791669667e+01 -3.985564546856081858e+00
-1.913139837779975849e+01 -6.127893538607762203e+00
2.250510992213984096e+00 4.656860647689783583e+00
-9.450694683365369997e+00 9.099206942907365203e+00
-1.084737338771558335e+01 -1.236281652518259655e+01
-1.087617521567386447e+01 -1.244524027631802454e+01
-5.100033858870003378e+00 -2.188218860358750906e+00
8.703893783329837319e+00 7.864467631419626237e+00
1.023772554030381343e+01 1.605672584221035981e+00
-5.380783817325415080e-02 -1.751138266790332354e+00
-5.354417990525155879e+00 1.529184234780720608e+01
-1.688252460922755560e+01 -7.838850576928275693e+00
-1.861195831147356117e+01 -6.878555280946116568e+00
-1.689151760674084102e+01 -7.840078647501591114e+00
-1.717924328374807175e+01 -4.238653084937824111e+00
-4.182584564245741099e+00 1.899911619663084972e+00
1.210964013007838957e+01 -9.880553310820634039e+00
-1.840326744158880246e+01 4.000100739623571933e+00
-7.502587121200578579e+00 -9.265649349674260904e+00
1.380412737758459407e+01 -8.781291083301790978e-01
1.289172053820492003e+01 -8.885942528286673081e+00
-1.313114932250124944e+01 -6.396348466457155268e+00
2.149355943127221114e+00 3.492633243977412150e+00
-2.485704863512831153e+00 -4.735613901512757629e+00
-1.827169811808982303e+01 -3.388199137701797259e-02
-1.024758259000311433e+01 -3.647409073828094539e-01
3.058018520162903098e+00 -1.181637723526999828e+01
-1.266539760628056221e+01 -6.085064899052682108e+00
-4.888172721702023438e+00 -3.110845547938804856e+00
1.352247838714875883e+01 -9.215067060423464795e+00
-8.569238310330302699e-01 2.057998198816386548e+01
-1.410953689468270866e+01 -7.802885976254827050e+00
-5.831603206246072979e+00 -1.238280163696157210e+01
-9.961629801329033640e+00 3.379934844232672653e+00
-1.141701816943275460e+01 -2.449797549813869324e+00
-1.392402740239881886e+01 -3.508690584301826565e+00
-5.249973487623145196e+00 -1.157217582038950177e+01
-1.721950339612918413e+01 -8.163013828717044618e+00
1.488869297628287036e+01 8.020257343668003358e+00
1.717299800470606641e+01 8.872791658578822904e+00
1.128939822056153508e+00 9.903374744034564969e+00
-1.142167293195565847e+01 1.228607900797291563e+01
-8.288514402618574195e+00 5.582092739456868458e+00
-1.223627346208772515e+01 -1.505565514627401846e+01
9.668696025982985720e-01 5.393004029065618710e+00
2.051117328482372937e+00 4.093714696661309382e+00
-4.788186159330700242e+00 3.808562343607068690e-01
-5.477745410530793890e+00 -1.408877511658249304e+01
-1.139663014892808235e+01 -3.629016518255866242e+00
8.154034146145967554e+00 1.022444651077878497e+01
7.454807961712774933e-01 -5.470397859313688826e+00
-1.895090073707068057e-01 1.393452702101465057e+01
7.719895757378750112e+00 1.707877727498017251e+01
-2.485449248694370006e+00 -4.732365278519747420e+00
9.019277508770617402e+00 8.873225010792538114e+00
-4.127428847921369659e+00 1.505221677600337316e+01
-2.827162501631860447e+00 -1.187602316314892992e+00
-1.718673549787253174e+00 -7.867692674962337485e+00
-4.489176971538120675e+00 -5.321241998627489700e+00
-2.485861671261391681e+00 -4.735259024324310673e+00
-9.753709022864700984e+00 -1.564439607956405531e+01
-1.312359324921442294e+01 -6.396812549892832322e+00
-1.600311366832613658e+01 -2.588495995770665026e+00
-6.750379435991201937e+00 2.406762204652478143e+00
1.443509384750228008e+01 -1.035930465760645092e+01
-9.983487201887989215e+00 3.380175712242523112e+00
5.983074711039791715e+00 -6.248601644692026724e+00
4.845907679784227540e+00 -1.432559393814678828e+01
-1.446393319124444332e+01 -9.391518632555954094e-01
1.108361527464698071e+01 1.338378768659648799e+01
8.495259108918856938e+00 1.580022626867108926e+01
-1.399374089851372238e+00 1.432472118300637121e+01
-1.274738715110611098e+00 1.939196933044893356e+01
-1.380602709183052745e+01 4.802471182990874610e+00
-1.138331617560488773e+01 -2.771875503800814045e+00
2.786717867143091887e+00 -1.181477982932370097e+01
-3.242778378428710973e+00 -1.070566018934071728e+01
-1.672866184711283788e+00 1.291005049986403819e+01
1.317359000869772956e+01 -1.146626017955946786e+01
6.937311510928513059e+00 -2.334636419885341763e+00
-6.781279411527948220e+00 7.066797378210463165e-01
-9.063538389014684782e+00 -3.500275456643166638e+00
-3.421486471675691643e+00 -1.074009657723488864e+01
-4.172741183751188743e+00 -3.923448546610857512e+00
7.265558884113496596e+00 8.141551365461348055e+00
1.431558231468889053e+00 -1.564704243981155818e+00
-2.485842466341798840e+00 -4.735364766595052899e+00
1.214257476619313891e+01 -9.705319494237210520e+00
-8.019239477224374468e+00 1.264813292465254513e+01
1.975779737482652454e-01 9.919531968149223999e+00
-1.346893244403623058e+01 5.705003217367994317e+00
1.442458074577346672e+01 -9.205283325335642530e+00
-9.936375094610520264e+00 3.379600875130590154e+00
-9.424373132286698151e+00 -8.114706995016085500e-02
-1.041285671428035364e+01 -2.268883846987940434e+00
-7.021942510815497585e+00 -1.546074059118555866e+01
1.463437467997150776e+01 -9.515236170029311324e+00
-1.587643356488762203e+00 -3.308412310226002129e-01
-2.485551095918216991e+00 -4.734527614856892441e+00
9.747325549215377194e+00 -1.196281343331330227e+01
1.995076774617745841e+01 4.394741208270598887e-01
-3.812453323868013388e+00 -4.008308589653835519e+00
1.322731589968980437e+01 -3.864298861858118883e+00
1.892841424640547388e+00 1.909962825582605461e+01
1.287932667971413103e+01 -1.100475985536268908e+01
1.351268228902302759e+01 -1.086881095684919529e+01
-1.687296013797138983e+01 -7.838087951382547658e+00
-1.409897704063734558e+01 -8.092838006241589000e+00
-1.259308635304118873e+01 -1.168154225895350784e+01
-5.661492755687398848e+00 -7.333186593457094560e+00
-1.559201491323408639e+01 7.747971882213387396e+00
-6.193788290832213939e+00 -9.882576091788260797e+00
-1.801774896446411844e+01 -6.792057708124756843e+00
1.252268328894201588e+01 -1.068629825640220687e+01
-4.968498109011783903e+00 -9.036170423332762880e+00
-7.019523790740893610e+00 -1.546154534725752505e+01
-5.869131698721623991e+00 -1.510816757475586947e+01
-1.138293489686238580e+01 -1.937301267825364270e+00
4.842900930539522975e+00 -1.430805168394042504e+01
-1.128314411297328235e+01 -1.726164826307610145e+00
1.892779477737233096e+00 1.909044546207873339e+01
1.260730601686490537e+01 -9.265393697886690205e+00
-4.126422663666449608e+00 1.139663299295103904e+00
3.371301934853392912e-01 9.048022481011539497e+00
-5.544345732998293030e+00 -7.557254242419886303e+00
1.382609059149902286e+01 -1.034968546691758107e+01
-1.823061318388018037e+01 1.841784150776910156e+00
1.049292485149316256e+01 -1.470312774245628518e+01
-5.175925777852204313e+00 -1.321302822664975452e+01
6.441374389199303607e+00 8.867553407059643789e+00
1.644751987935953608e+01 7.968322990204128153e+00
-1.395748888047901737e+01 -1.799977774056187529e+00
9.418019023746172280e+00 9.554694920928971769e+00
1.463318328775671695e+01 -1.083609844779166842e+01
1.738563810570814994e+01 2.360384405708228606e+00
1.865760856214751939e+01 2.281822921833445594e+00
-1.267802083606306063e+01 2.024354650657707477e+00
-2.149123778381472949e+00 -5.039452735426692698e+00
1.283667499624955433e+01 -5.234566323508932584e+00
-3.420568043447345552e+00 -1.073746488290046841e+01
1.329314047092430329e+01 -1.160764604818878176e+01
3.878695865149761168e+00 6.974531013609983177e+00
1.828556278731908336e+01 -1.636252647296294827e+00
-4.679267160840479001e+00 1.385137632404368935e+00
1.440950723320061932e+01 -9.348784576413315506e+00
-1.395247917113328739e+01 -1.800032580310156449e+00
-9.643806262270327778e+00 1.684466121229146740e-01
-1.913412481978530266e+01 1.979784748060715582e+00
-1.895155589277782993e-01 1.391924746854926198e+01
-4.477756774477859025e-02 -1.129128013876152664e-01
-7.059967494330193105e+00 -1.619268608568799339e-01
1.437946238560152956e+01 -1.105617473840858445e+01
-5.120624166406654965e+00 1.774865849557152941e+01
1.676061348296110864e+01 8.333139283133464303e+00
-1.315453638345572074e+01 1.402600759760036198e+01
-9.202541464941369043e+00 -7.857582399495860459e-01
-8.848551159061484483e+00 -4.985988179693813471e+00
-4.688044030202274115e+00 8.992195636070086096e+00
1.283169488816129977e+01 -5.234794896784848994e+00
5.915822659337087508e+00 -3.049828869014462818e+00
-3.933079293832155265e+00 -8.576335702465409661e-01
-1.561959540780075706e-01 2.053173766141809864e+01
-5.688336690379749427e+00 -7.656020041157297840e+00
-1.222183164256599497e+01 -1.501215639448346373e+01
-1.220142653296542257e+01 -1.501206604751747697e+01
-2.485755945925736565e+00 -4.734586199316456856e+00
-1.122369098465101134e+00 9.092879919202513372e-01
-7.017344660141255019e+00 -1.546354391788200466e+01
-1.626592118556529343e+01 6.600517627067687521e+00
-1.222571457958339636e+01 -1.503104874227428134e+01
-1.659689915776037594e+01 -6.718341996719055409e+00
-1.854606528419124345e+01 6.743815954708007432e+00
1.892651966393591900e+00 1.909435492711734383e+01
-8.740193183469877170e+00 9.518265545961154928e+00
-1.835225724134768654e+01 -1.687099421335686023e+00
-7.645348472173380650e+00 -8.234332361478822193e+00
-7.575327481786549022e+00 -8.164020886374956376e+00
-1.899833361641519858e+01 -4.838444515563513626e+00
-3.034112168257272479e+00 -9.217812105949640511e+00
-6.409242489950796262e+00 -3.072762787443893640e+00
2.341733854152537653e+00 -9.970284311718588199e+00
5.110232643197537783e+00 -1.003612436285608589e-02
3.121890657785994616e+00 -1.182840199869804465e+01
2.061361907144067374e+01 5.356282462734294647e+00
-6.421372637280695628e+00 -2.578417840167078534e+00
-5.355209564667307021e+00 1.528929272989521415e+01
1.892476696844070494e+00 1.908913318294715111e+01
1.433666401384981803e+00 -1.117608770775713189e+01
1.248683762303468114e+01 -9.138141558143745513e+00
1.334630357244538956e+01 -1.033898451923617579e+01
1.214218324691953477e+01 -9.736824875844302341e+00
-7.404256060987059129e+00 -1.104250008528708360e+00
4.944165347862260695e+00 -1.355492613858983830e+01
4.847351971013078575e+00 -1.434147140713076141e+01
-8.487582983110742774e+00 7.713338134168422400e+00
-9.164642115476308248e+00 -5.746113768824145041e+00
1.067643452312598740e+01 7.811903800550207499e+00
-1.581327102106203597e+01 5.016771598158245027e+00
1.001792859868606556e+01 2.029506846851767410e+00
-1.820735601654600089e+01 -3.336424152465944371e+00
4.048119082226012466e+00 -5.632727516345121366e+00
-4.264424911769123305e+00 4.597786744593610475e-01
3.589652730224599964e+00 -5.522975104718368833e+00
-1.313217579841883520e+01 -6.379791821297661869e+00
4.013839818524403746e+00 -1.525679480638982888e+01
-5.846540214020446768e+00 -2.511580082490750154e+00
4.919836439669745154e+00 2.054030474391683736e+00
-7.465093090070045179e+00 -1.628185965831226101e+00
4.376456381807244944e-01 -5.449464318889602588e+00
-1.518244270049195777e+01 -7.101179093603778192e+00
-1.007219700366110260e+01 -9.017373018054989586e+00
-1.578238074335767749e+01 5.131460881996699364e+00
2.084439265787166207e+00 -9.842536865716464689e+00
-1.234433781395929852e+00 -2.512080658449774351e+00
-6.400071180318946951e+00 -2.001243603082764277e+00
-1.894684456095179215e-01 1.392628032008671823e+01
7.336354372226416842e+00 -1.289380147087272888e-01
-1.929832429084380507e+01 3.144182077495561334e+00
1.892833876926045766e+00 1.910409115744773700e+01
-1.375350419989187678e+01 4.808881714550962805e+00
7.077683344341870963e+00 -1.359290555105610920e+00
4.847032143747549426e+00 -1.433680932840122502e+01
-2.413966238248355101e+00 8.264866774616073108e-01
9.037517035847356439e+00 9.398493097143910902e+00
-1.917131747142953557e+01 3.153146303039027654e+00
-1.222540642890499463e+01 -1.502970292608063296e+01
-5.829985615698089596e+00 1.597580443843608045e+01
-1.460747572147843565e+00 1.432545218761766570e+01
4.374998695468570453e+00 -5.237189934404681502e+00
4.012926812475166471e+00 -1.514341881812221402e+01
-4.570439238152285810e+00 3.833188209221790821e+00
-1.438770007619276647e+01 -1.151260266549922751e+00
-5.090557471154546043e+00 -9.286641416101929281e+00
-1.273792228652021130e+01 -6.872816662691990430e+00
-1.046571089729006765e+01 -1.391311629073962486e+01
-6.788370867840940015e+00 5.866266974870235629e-01
-5.668473815396817272e+00 8.878111092112549230e+00
-1.223540763460475134e+01 -1.500876831369574660e+01
-1.343519015030853936e+01 -1.254304813940807328e+01
-1.166568334045123656e+01 -1.130368283579880995e+01
-1.166708030771297011e+01 -1.130398230273213933e+01
-1.259306655494110316e+01 -1.168049563577758931e+01
1.753724898475403293e+01 2.030348019513084079e+00
-1.083660096196463130e+01 -9.250517472697760368e+00
-4.473753803710778243e+00 -3.850319029389641656e+00
-9.987631251936370802e+00 3.380552060755125598e+00
-1.963586637264396373e+01 -3.853113903013163366e+00
-1.316630680252203156e+01 -1.482633013119075294e+01
-1.273825987186821074e+01 -6.796008044536378634e+00
1.644754844542909566e+01 7.954738879684584596e+00
-3.787741791839804861e+00 1.719163870244345560e+01
-1.138370780975693997e+01 -1.688597268668738938e+00
-1.105088476814075094e+01 -8.522624466918617969e+00
-2.901685659819146057e+00 1.699912597644350853e+01
-2.826663730318398127e+00 1.718138147730148546e+01
-1.098763084882909880e+01 6.843663286730806483e+00
-1.098770241893611832e+01 6.841571143580513770e+00
-1.312762295146383629e+01 7.221049591872007234e+00
-4.577308727442768621e+00 4.902889331679038065e+00
-1.010926506453646567e+01 6.259016861553616806e+00
-5.363481450945192464e+00 4.452272990065317515e+00
-1.325841812104252604e+01 1.933367701448201581e+00
-1.341450322324008049e+01 -1.252922925932846709e+01
-5.870060816608910770e+00 -1.510466902538368927e+01
-5.476645837328969257e+00 -1.409035414849352996e+01
-7.755025814784578309e+00 -1.086693112486296187e+01
-7.445475146418720769e+00 -1.648917133824909564e+00
1.488658903890090635e+01 8.027247010188034437e+00
-1.179664664869869206e+01 -6.068787010763247558e+00
-1.410013371569305107e+01 -8.085506580851584246e+00
1.302639731048385308e+01 -1.076808706624180090e+01
1.644766225795859782e+01 7.969607275750685282e+00
-1.284827352059498828e+01 -1.022812176583447830e+01
5.983020829258570039e+00 -6.248106419679531065e+00
-4.254883745271604845e+00 1.119192935722616467e+00
-1.095306546641168310e+01 -7.784578766623593715e+00
-5.824249373108177252e+00 8.064677361702647929e+00
-1.339602130940817482e+01 -2.139152577111719467e+00
1.413553065599187164e+01 -2.242333961754892968e+00
-6.897109887032790709e-01 -6.697364180904068209e-02
4.845445245195730166e+00 -1.433509915457150186e+01
1.851718005308726234e+01 2.832154360042288932e+00
1.222676404371591552e+01 -1.023721935625193069e+01
1.828295309285973858e+01 -1.636420818779596553e+00
-6.377036410706948821e+00 -4.150218520533865529e+00
-2.689617181431654735e+00 -6.653005298157196101e+00
2.631234570482711810e+00 -1.014799196276195126e+01
-5.668772422932523369e+00 8.878557388310465370e+00
-1.456984522412440519e+01 -5.929317149041605006e+00
-1.916579533816110725e+01 3.151773450445334301e+00
-5.862990484270325098e+00 -6.599122437919361595e+00
-7.645643772330801724e+00 -8.233290432948363602e+00
-5.869595767011789533e+00 -1.511070487265979878e+01
-9.431880487295449811e+00 1.031166588980355669e+01
-7.681962126696511017e-01 -1.127041469533130724e-01
3.077782780828049791e+00 -1.182350488995030879e+01
1.349743291529007294e+01 -1.019292627761333669e+01
7.854446728577105574e+00 6.557816073276939939e+00
-1.823062735846517413e+01 2.982215789062175215e+00
-1.730980666376715504e+01 4.159927369536172925e+00
1.796733043769609139e+01 3.020476918924873022e+00
-1.221428903715183623e+01 -1.502738831612941084e+01
-1.221370961767789964e+01 -1.504955505599334487e+01
-1.223171268546451884e+01 -1.504140071899700359e+01
-1.223603694361597860e+01 -1.504996331388777620e+01
-5.477661198995898317e+00 -1.408059770573044567e+01
4.130085773721919651e+00 -1.403506437779127403e+01
-1.441748543283152939e+00 2.055467396038472572e+01
-1.930725877135740731e+01 -6.113407483458598968e+00
-3.086840613971332803e-01 -3.527109166307863308e+00
3.124011164780350125e+00 -1.182729032631354293e+01
-6.106992529142530657e+00 5.513790827902798064e+00
1.778809520577650360e+01 2.567333258390619655e+00
-1.891976495151729276e-01 1.393806360583413095e+01
-4.211390610382409250e+00 1.033052221003600835e-01
-1.217030085478917911e+01 -7.151053453208481514e+00
1.303533558370510903e+01 -9.792992357943555604e+00
-6.308400803639563570e+00 -7.934269539834833296e+00
-1.479153803684059199e+01 3.736933543721610906e+00
-4.572745052389355358e+00 1.292152596569941192e+00
1.077618042542934340e+01 -1.855266092881586726e-01
-8.817973731466985043e+00 3.216262716981625580e+00
1.414116634969673569e+01 -1.136138439889149332e+01
-2.854599578311236563e+00 1.719141615026321901e+01
1.197226454228321657e+01 -5.217079064251592513e+00
-1.928564388430395127e+01 -2.409013689584349027e+00
2.002081890447080070e+01 4.345889882872991383e-01
1.839089265138304441e+01 1.976393331217820348e+00
-5.356535662952722099e+00 1.527404057044881291e+01
1.415237521278079313e+01 -2.239513111035865034e+00
-1.224777272727738797e+01 2.037260199301063945e+00
4.842846229048382689e+00 -1.431372003918598956e+01
-7.530959638459169270e-01 -1.397159365745789805e-01
-1.375382298688810145e+01 4.781861360346716161e+00
1.418860568137294109e+01 -9.753929594745354592e+00
-7.020049983420667772e+00 -9.351981773112052920e+00
1.839550506034467503e+01 1.978917059653394928e+00
-2.485810180125329172e+00 -4.734188331393035298e+00
-1.128208563527963371e+01 1.104843885194965303e+01
1.482196196837187507e+01 -9.943284453683945756e+00
1.475833324983269357e+01 -1.034267929598251534e+01
1.626603728596244025e+01 -4.648371791458759894e+00
1.656432195644752170e+01 2.047316607640026487e-01
1.023075593101824232e+01 1.016431649167250306e+01
1.117132702349754814e+00 6.385055814273973951e+00
4.856227428381151151e-02 1.651711204198160132e+01
6.986974591766121456e+00 -1.139839438608991617e+00
-1.128301309177307665e+01 1.104968339789320275e+01
-3.033594349167600956e+00 -9.213944364277423915e+00
-1.361822878787489266e+01 -9.204421055577858723e+00
-1.367024607272876402e+01 -8.860489213904120476e+00
-1.152870584319193625e+01 -8.726208107078702980e+00
2.149744369287640122e+00 5.791890311201559172e+00
1.893445249857110824e+00 1.911828315820911328e+01
-2.974768056490753931e+00 -9.371717049625388540e+00
1.739215912378169904e+01 2.755905311424996729e+00
-5.885807413883195061e+00 -1.287249519511799534e+01
-1.891493537573617489e-01 1.393699385656123013e+01
8.260338307143493708e+00 8.292229920548246369e+00
-1.273940512758094501e+00 1.939764856970658258e+01
-9.094851119733098344e+00 -3.086293982931166191e+00
-4.987925826304849153e+00 6.904244750835481170e+00
-1.327113823932141301e+01 9.730930155054835495e-01
8.244462207910965290e+00 1.087503238801662420e+01
-6.323777846439154970e+00 -8.692789280379571437e+00
-8.022311811422316197e+00 4.492125378318061912e+00
-8.307064818555314645e+00 -1.769976767513748328e+00
-9.982819697690755945e+00 3.380116446703069766e+00
5.380398302919600972e+00 -3.429820623890569298e+00
-1.395263280160487263e+01 4.422016384829953850e+00
-1.189299698474348155e+01 7.619367639401541936e+00
-1.128389457146396602e+01 6.803517921558787762e+00
-5.364836047877591163e+00 4.453565792673122914e+00
-8.171065753667871689e+00 9.599349497998268532e+00
-1.179497826424854523e+01 7.738453997385880356e+00
-1.010113995645899010e+01 6.256401321651764214e+00
-1.222892170626374586e+01 -1.505604748869515497e+01
-1.343088037823294556e+01 -1.253761551369300165e+01
-9.780580620034811545e+00 -1.577033486318438449e+01
-1.819084362141213873e+01 -3.336445995763949846e+00
-5.684127780871047086e+00 -9.800419422774682587e+00
-1.221239921077179957e+01 -1.504940576207043890e+01
-1.222578882921804322e+01 -1.503864652175976424e+01
-1.343590099142494410e+01 -1.254283858092775361e+01
-1.103544792961010046e+01 -9.170679698639146338e+00
1.783515950967543562e+00 1.060245697591817660e+01
1.810604702291376000e+01 2.758128272590741670e+00
1.892870177209123650e+00 1.910459177366887573e+01
6.045156826213591295e+00 -3.838249488723290082e+00
5.983176390548127443e+00 -6.246594191169630328e+00
-5.669305853115451654e+00 8.879853993755087771e+00
5.983083309362251079e+00 -6.245811271377901264e+00
-1.354524248871480552e+01 4.826277750185880677e+00
-1.715947355858988033e+01 -6.557770793920823849e+00
6.371305724217780408e+00 -1.768781019922148445e+01
4.485431577428688144e+00 7.970629167822789185e+00
1.862222122423435522e+01 2.692798226368639636e+00
-1.559641748707262288e+01 -9.627128830756182865e+00
3.319340075933439493e+00 -2.372956067338381825e+00
5.709923209327704363e+00 -7.435022984594891193e-01
-1.033140734706795527e+01 -6.874109084201928788e+00
5.905419376301155765e+00 -3.009800004629884729e+00
1.222267848915064192e+01 -1.097524856756288081e+01
9.378206614279079034e-02 1.656935188039190265e+01
-8.475613854893445875e+00 -4.089188594533467835e+00
5.915441955279105102e+00 -3.151314777452573601e+00
-7.914004626036581502e-01 2.176105045268279525e-01
-1.646538318050435379e+01 3.176127755351886073e+00
1.054096235969803175e+01 -1.470769105045346414e+01
1.775767326080473296e+01 1.872840120395438790e+00
1.256149887449117131e+01 -1.135858049837439054e+01
-1.894159505737570970e-01 1.392834223313209385e+01
1.753802508186578635e+01 2.009704904151279781e+00
4.846466991862376616e+00 -1.432562027314516406e+01
-5.846378526439083956e+00 -2.511669183512103665e+00
1.337035356249328188e+01 -2.175979737514106560e+00
1.913702334851322107e+01 -4.162249568012432732e+00
1.412934498841972797e+01 -1.024715909926009161e+01
1.815397384834812655e+01 6.596660315125206786e+00
4.845245645965093217e+00 -1.432399322953711440e+01
-5.356107216824869788e+00 1.529201244079221134e+01
-4.189750969467386454e+00 3.764493871472336384e+00
-6.012141060033359352e+00 5.511235994799013937e+00
-9.980317672570141241e+00 3.380575651766371870e+00
-3.029694666063980635e-01 -3.515134723866343958e+00
-6.850655287321169018e-01 -7.241418212801278287e+00
-1.699572748950594558e+01 4.154410448894754748e-01
-1.518212916548027991e+01 1.859559243278336993e+00
1.893220798996344545e+00 1.911764086415562502e+01
5.983198309824181216e+00 -6.247722242128069148e+00
8.580896850838938050e+00 1.364802574956574532e-01
1.004983113705881159e+01 1.380378943743723941e+00
-1.138241164396662519e+01 -2.426624441301482360e+00
1.386758020634191269e+01 -8.885814681818640537e+00
4.618620701591617639e+00 1.051324284196057413e+01
-6.346983365968620561e+00 1.086036901263876864e+01
-9.970742215531165797e+00 3.380494885446251097e+00
1.827275017978181637e+01 -1.636390776906206934e+00
1.449784097100455149e+01 2.146488158829860993e+00
8.095566430546426773e+00 9.168589971292277596e+00
4.847045181342777731e+00 -1.433502411010080557e+01
-1.314291155202339922e+01 -5.692732249627171726e+00
-4.987822424402676980e+00 6.903907512028696125e+00
-8.438570588514865634e+00 1.021490586061763750e+01
4.600730301391131150e+00 1.054035928389223997e+01
4.618564894384223685e+00 1.051292053420812422e+01
-1.275783777802190766e+00 1.939602194513600253e+01
2.047088844503887017e+01 5.189181877593564529e+00
-6.620045311797876586e+00 5.608260782134986577e+00
-1.457967362484381191e+01 -5.929633751321978785e+00
-6.540084358810603682e+00 -6.655294824620448857e+00
-5.185458658857138303e+00 -8.036220521581284970e+00
6.956564220820800060e+00 -3.839135126041676865e-02
-1.158962071520361725e+01 -8.041269648061781794e+00
-1.530215865359904903e+01 5.540591673934150307e+00
6.073315839247674930e+00 -3.093132530842742867e+00
-1.921460085869256262e-01 -3.520881367949214358e+00
-1.894239935079049530e-01 1.392626941504131466e+01
-9.012962262001469327e+00 9.883546397337298117e+00
1.291670311304616092e+01 -5.544656991902403576e+00
3.064331951382846864e+00 -1.182854922794847141e+01
1.644646601472522462e+01 7.968987553485928466e+00
-7.631366567615041063e-01 -1.136999734400168521e-01
5.983037526216142155e+00 -6.246104203017047496e+00
-2.624827798587622274e-01 1.317761063821172307e+01
-5.668816842990532123e+00 8.876024296450653495e+00
-9.809552805932277408e+00 -6.447276915118208329e+00
1.241043424306517373e+01 -1.118437625769115584e+01
1.737029467946003081e+01 2.417295419769608600e+00
-4.576281619275147428e+00 4.169915274091794188e+00
9.652458224830988698e+00 9.352261569014364895e+00
1.823556082007037560e+01 2.343060977763340880e+00
-1.128007001250300689e+01 1.105094969280701633e+01
-1.311596222947310864e+01 -7.298497568593255380e+00
-3.209222168172551015e+00 5.659668040153523094e+00
8.071507222148703420e+00 3.564677308532782529e+00
-7.023465480928552829e+00 -1.544855608338110642e+01
1.479163226985276047e+01 7.993594040872856077e+00
1.064196866092590810e+01 9.478327298313244498e+00
-7.020945483226123329e+00 -1.544957962477601576e+01
-1.122593388903699996e+01 -1.583609243504800901e+01
-1.145603887149577638e+01 1.104913423656908122e+01
-1.222855907066228198e+01 -1.503815031350449516e+01
-8.801739597508445812e+00 -9.825211839404232705e+00
-7.754291640355194026e+00 -1.067474517756959962e+01
-6.766876181219891428e+00 -1.501838197529720986e+01
-1.128215602216323177e+01 -1.264395080559173756e+01
1.334531693328936619e+01 -9.349050140218531979e+00
-5.354644614762501753e+00 1.528216233317228046e+01
1.091591945276771547e+01 -1.915774327392368859e+00
1.363661791778069876e+01 -9.507578809202550829e+00
7.855127123470746042e+00 8.357069605306751470e+00
-1.657908441030785696e+01 -8.928388740374259669e+00
-1.053107615135118991e+01 -1.975701885317916739e-02
1.640494124511829410e+00 -8.933827203406144335e+00
1.094314697567035388e+01 -2.924485851768984901e+00
1.416441273792091060e+01 -2.239415318908415387e+00
2.471689824590014517e+00 1.454627793902013266e+01
1.337431818197512445e+00 2.003690886129914972e+01
-9.106500856515197029e+00 1.331693908437235674e+00
1.765920396405497428e+01 1.930546371232258807e+00
-1.701091165513511028e+00 1.286303741920649912e+01
1.212049566773427856e+01 -1.085633778001163385e+01
1.417813294764172483e+01 -9.029481505096310201e+00
1.035923711055365182e+01 9.037868254460695638e+00
-1.055720726880629456e+01 -1.376897992041155305e+01
1.561240716017811714e+01 1.067177445800604296e+01
1.852196515144702715e+01 2.829818370803984795e+00
1.827100723660709392e+01 -1.636346755270280395e+00
-8.908443239432111582e+00 -9.878898180221463932e+00
-9.961419080064549902e+00 -7.152936046832612860e+00
-1.395114810065780020e+01 -1.800029392502279890e+00
1.780460758450719183e+01 1.860114701990611463e+00
-8.738379057309236586e+00 9.516892977150986255e+00
-5.667824644497708064e+00 8.880550224549034866e+00
-5.100537002825030086e+00 1.019664495280326832e+01
-5.884435155511625659e+00 -1.368296235186879350e+01
1.004453940581249682e+01 1.388767876363550258e+00
1.798403062038958211e+01 1.839076558919799487e+00
-5.373822679715377360e-02 -1.751410064215611628e+00
-1.894487045577311068e-01 1.392953926819255628e+01
-1.222172631711477386e+01 -1.504930372465165078e+01
-1.138972787798890884e+01 -2.501464379782238900e+00
-9.984479241419546014e+00 3.381206313987155099e+00
1.267597114648362933e+01 -1.045984159500371469e+01
1.403034038987521903e+01 -9.751146492614036987e+00
-1.098018955727522261e+01 -8.524916487852737035e+00
-2.938990905062210945e+00 -5.377697406782179890e+00
-1.343125730551799357e+01 -1.253237042784560984e+01
-1.492235338185761151e+01 -1.301120740129614539e+01
-1.243367103397541662e+01 -1.591146487387565323e+01
-9.978182922525883569e+00 3.380151638734102182e+00
-4.127143282219552844e+00 1.504813445885209688e+01
-8.859522834698579929e-01 1.420599189399595730e+01
-5.354964687199272433e+00 1.529239220783970588e+01
1.075056176629884419e+01 8.956545434614426426e+00
1.822752780302249676e+01 3.054599852242555258e+00
-1.403007086908642798e+01 -6.594245999134691338e-01
-7.024289627577978479e+00 -1.544713492655266229e+01
-1.655607608636623240e+01 -6.794141840884179828e+00
-1.406936697548310633e+01 -1.274267836317031666e+01
-1.302467374493573082e+01 -1.260747706609948615e+01
1.291653261521286211e+01 -1.042072921101445182e+01
1.331268784952288975e+01 -8.801943548868923273e+00
1.428396117272981591e+01 -9.291717287876087639e+00
-4.150624380923292556e+00 3.710508543079677590e+00
-1.892708452536138175e-01 1.393037153316473820e+01
1.095968720522330742e+01 -6.123666443139885729e-03
6.474127659095960219e+00 8.241056494981739533e+00
-1.273847761832340497e+00 1.939034071987322960e+01
1.284383837969894593e+01 -5.234892006401376641e+00
1.109355424386070332e+01 -1.055230615176896869e+00
2.844499861544627528e+00 -9.877296657882899567e+00
2.407759775649988221e+00 -1.517454407625181112e+01
1.800945765529460019e+01 3.067238424662691365e+00
-1.277371186493254429e+00 -4.962927599072917140e+00
1.287090694114126777e+01 -9.970266249116843227e+00
-1.837035232138624963e+00 1.717113214951822187e+01
1.796518351475809183e+01 2.955815777779227105e+00
1.891932638838691672e+00 1.905913521048446313e+01
1.106445752199839205e+01 3.324169781784907851e+00
3.883192096037036301e+00 4.685382991868076274e+00
6.602122125441295175e+00 7.649733570208426592e+00
1.750638839345647213e+01 2.918331927345606758e+00
-5.244372837587110148e+00 -1.008302638044327715e+01
1.305147261204814058e+01 -1.017595183169313700e+01
1.297425605450488995e+01 -1.155680281703885015e+01
-1.296019663945756939e+01 -1.080138545105939762e+00
9.369998873706441245e+00 8.850167062547736663e+00
-1.345429244985018435e+01 -7.882588609960680337e+00
-5.667600134416072244e+00 8.878745480373103405e+00
1.384842956166626493e+01 -1.145400870985542419e+01
1.809509546574512839e+01 1.843506621538541168e+00
8.335958238067737724e+00 8.172467855739654397e+00
1.870664484620830947e+01 2.523602359207409940e+00
-1.026477350017374057e+01 -8.060942100867501736e+00
-1.672918920101820861e+00 1.291477147298311223e+01
4.109722140391623979e-01 1.344960896905751824e+01
1.284591766768759946e+01 -5.234798992648659777e+00
6.696012618390088100e+00 -6.069432973776377471e-01
1.788872411913576954e+01 3.046582429854945318e+00
9.059635244251449393e+00 -1.060774859818585902e+01
-1.688217908540212164e+01 -7.837287384446456784e+00
-1.640191792231962964e+01 -5.784912705408679079e-02
7.297533954661815869e+00 6.762513208327463055e+00
1.343548878478920727e+01 -5.275228588504319305e+00
-1.603451558968620816e+01 -2.557239989127412461e+00
-7.646128482584308550e+00 -8.234015433262650063e+00
-1.135918840207545522e+01 -2.520153382811656684e+00
-1.343053811223663985e+01 -1.253822094597531489e+01
-8.245298106734608723e+00 5.598159486228467152e+00
3.561049310346316776e+00 7.240630916929768013e+00
6.799542866913190764e+00 8.911884625814309402e+00
1.160269134523033152e+01 -1.397457300650492051e+01
-2.731565139977262469e+00 -6.597127066380582328e+00
1.599181172562201958e+01 -1.490177382350819713e+01
7.342512109738189352e+00 3.522685540805784665e+00
1.753079623324305558e+01 2.025585006673470190e+00
-2.588483807213044496e+00 -4.320595901114985260e+00
5.983060053814058143e+00 -6.247568693947146201e+00
-8.726562684508229140e+00 4.684145256542577407e+00
-1.189144892088249428e+01 7.619429277799575573e+00
5.983087202941109517e+00 -6.246873837190515033e+00
4.741382467592929473e+00 -5.432674348669205067e+00
5.998990692350731457e+00 -1.132997043510392210e+01
-1.518205550318307573e+01 -7.101963953541372554e+00
6.118700444930912141e+00 -2.812928168934913042e+00
6.621939677537096447e-01 1.365893693906800443e+01
1.376530743189172412e+01 -1.049306945742137032e+01
1.381676732374127070e+01 -1.094581609975335645e+01
5.437407532470785121e+00 6.717424354468003456e-01
1.863287350822630017e+01 2.365810172363767006e+00
-9.106400478620974681e+00 -4.873005811082485650e+00
1.740222322025746138e+01 2.337947676731010560e+00
4.919900299967127744e+00 2.055506376565647386e+00
-1.469393233224297290e+01 -7.868815942217958437e+00
4.838299041316264315e+00 -1.431592255679533920e+01
-1.737224792518943906e+00 -7.619621767223753395e+00
-1.469997031219179284e+01 -8.964044055715563175e+00
-1.947033031169278061e+01 -3.617752581043340410e+00
1.693856705999964019e-01 1.469605827302223666e+01
-4.577303061933506889e+00 4.897339233142782966e+00
1.382888958357585629e+01 -9.281825949391084407e+00
1.133188574819482497e+01 -1.418825505088521410e+01
1.759123377366945462e+01 2.001739639811637606e+00
1.800540504415145193e+01 1.844245385105395485e+00
-7.746376159391523686e+00 -9.547194650118155934e+00
9.330751251250672951e+00 8.122953528311912308e+00
7.943790372113711307e+00 6.755527003608155390e+00
-1.359575466878172456e+01 -2.135238836000342033e+00
-1.794909597124195955e+01 1.255710021993028169e+00
7.816783230524889881e+00 -9.245456951384742439e+00
-7.020579435541225877e+00 -1.545342028340156482e+01
2.082670498558251704e-01 1.946490791593697700e-01
-1.221588757251882917e+01 -1.505651180619137719e+01
-1.492186357977382904e+01 -1.300639985515489805e+01
1.415768642656247778e+01 -2.238262264454674799e+00
-2.485637754623956308e+00 -4.735642350250353516e+00
-6.984812018871993100e-01 -8.656541262808198356e-02
-6.301075366422503876e+00 -7.603267263296555889e+00
-3.649162920307152280e+00 -1.497389657578872546e+00
5.130811795024627031e+00 1.348213518719559723e+01
-1.611956850002744446e+01 3.682710138465517868e+00
4.876576552943217013e-01 -4.642876123166875146e+00
7.943286587166062951e-01 1.132129830593687769e+00
-1.068692011240174189e+01 -1.340732450785353969e+01
-1.823376181974843391e+01 4.387142803386305800e-01
4.862821626926607660e-02 1.651645476371263754e+01
7.226666148364986775e+00 4.181906379208557012e-01
5.287015594923792250e+00 -3.633873033053784507e+00
1.202418633968465578e+01 -1.048142506556337850e+01
-1.395194446250623876e+01 -1.799835694947196529e+00
4.636096897994721466e+00 -5.689802684625525409e+00
-4.576885766055982963e+00 4.934530040919562488e+00
1.372824766170435673e+01 -1.013587900531818065e+01
-2.180761411356634039e+00 -2.637735303244659324e+00
-1.325027171085232247e+01 -5.486597922668111416e+00
1.781798471812383156e+01 3.060910836826812087e+00
1.272972501256631972e+01 -1.008566878598862537e+01
8.653391104954437196e+00 9.325374286286773895e+00
1.362815165052849231e+01 -1.150950790386842648e+01
1.415558951598690562e+01 -2.240915605883782469e+00
-6.241995674757099266e+00 -1.003927690478212220e+01
1.777335769473441829e+01 3.007167280618987526e+00
-9.505350995260188895e+00 2.811603611193576047e+00
4.844235030061412317e+00 -1.434094881549945200e+01
4.838709763083510751e+00 -1.433368261049071357e+01
1.078826248983666325e+01 -3.609147297856615255e-01
4.843753870998570576e+00 -1.430106461872488488e+01
-1.619792967368276493e+01 5.442591947205648040e-02
-1.222649859323558985e+01 -1.502206186177350489e+01
-1.128223295060638343e+01 -1.264349763216443101e+01
-1.375672019746195218e+01 -5.760538539940593061e+00
-1.408847130798933911e+01 -8.091376194860510296e+00
-7.219441181044254030e+00 -1.571160756974652273e+01
-5.120493799534548529e+00 1.776796669404066265e+01
-1.125032835332112313e+01 -1.233215068067251785e+01
-5.730163375477271614e+00 -1.540858259749700032e+01
-1.490097216176251571e+01 8.237118917598023060e-01
-1.572698700075921963e+01 -1.001629365206675892e+01
-1.458019638114802063e+01 -5.920973115637091944e+00
7.166982965357466817e+00 3.521836338834554159e+00
-1.638140328753538810e+01 6.641164569630212400e-01
5.041332197785115987e+00 -1.007498054281332855e+01
1.382358274019936317e+01 -1.421280375299349785e+01
1.808007825610949126e+01 1.849153415770272924e+00
1.382262276014725266e+01 -1.421323450982872849e+01
-9.422899573206514390e+00 -2.404643239975146063e-02
-1.257371975446326928e+01 -6.931373450066947051e+00
-1.690826609584360085e+01 -7.800089225177869068e+00
-7.912202794129373551e+00 -9.156289322522919605e+00
4.847940502470932778e+00 -1.433012962415803848e+01
-1.048303654854833056e+01 -1.389466416058899156e+01
-9.637530074163942473e+00 -1.214827741684110052e+01
-1.223293108803965623e+01 -1.502962284250249425e+01
-1.222443721407845274e+01 -1.495968617758851060e+01
-1.223003815545266626e+01 -1.504622648548479091e+01
-1.222883491819053603e+01 -1.504735151876298005e+01
-1.222042642255694922e+01 -1.502202491615114077e+01
-1.343851257884656292e+01 -1.253637308656245608e+01
-1.342666036000396090e+01 -1.253690232049399178e+01
-1.844974375766088670e+01 -2.326634506327134755e+00
-1.620349338046158394e+01 4.754046171277733102e+00
2.273467123971484316e+00 1.685576096970106263e+01
9.741164445016444517e+00 6.769485426579364251e+00
1.893245979541031243e+00 1.911550148107955138e+01
-1.570186155318105747e+01 7.327960674594585555e+00
-1.569600736847371536e+01 4.539765049891448356e+00
-9.469178870289384875e+00 7.969588073113843540e-01
1.738899045339248062e+01 2.408592555198027174e+00
-1.603173260117860011e+01 -1.914826711701941964e+00
2.816204169682016367e+00 6.273188372671729240e+00
9.991450979296253365e+00 1.036747202396884227e+01
-1.821990421742317423e+01 1.226656083086719917e+00
5.983163280032153253e+00 -6.246287177797418266e+00
4.894076648750715353e-01 -6.083573754025694669e+00
9.348091412211868345e+00 7.669672945734589575e+00
1.893660698265205111e+00 1.912333981074201006e+01
1.893420385040825993e+00 1.912203141615102098e+01
-5.746220385648981299e+00 9.724774458188029769e+00
-5.117793712394695937e+00 1.775377160375144925e+01
-5.939912527790485619e+00 1.459241231868852751e+01
2.273540960683869017e+00 1.686306788832754577e+01
2.038463031805963865e+01 -4.600608120100972975e+00
-5.283225053704811991e+00 1.058852243478648880e+01
-5.668743490897478310e+00 8.872841691641864870e+00
1.866014512443419449e+01 2.451126502342699798e+00
-3.096423096287714838e-01 1.293732431846360775e+01
-6.212434772289760154e+00 -4.843751488333371213e+00
1.892839803656559461e+00 1.909842242223917452e+01
-5.427985481744040719e+00 8.866073770539275145e+00
-1.055147885707669353e+01 -1.377453856936991627e+01
8.909830498626192252e+00 -7.206619498739492258e+00
3.366070835193917810e-01 9.047311845217176796e+00
-1.055498653673956788e+01 -1.376516326088061959e+01
3.365077359643066091e-01 9.048869146079288939e+00
7.654300065278103027e+00 1.071599479769860253e+01
-6.296917913966334268e+00 8.965500336167933071e+00
7.483511046259707200e+00 9.197701555820083641e+00
-7.987018048675480486e+00 1.275241491871627275e+01
1.106126488243608641e+01 2.433987685835685699e+00
3.366037464685996405e-01 9.046017444651312189e+00
1.073222268045653216e+01 -1.735538397874232475e+00
-9.513995371628226394e+00 -8.477023126568492550e-01
-8.697263371344789107e+00 5.452340744791017713e+00
-1.027175421159406632e+01 9.794081184882356128e-01
5.639421613317721516e+00 -1.476929102056842602e+01
-1.655041230742439851e+01 -8.921265010700162534e+00
-3.215706185167277908e+00 5.186814097122077527e+00
8.983355446702820046e+00 7.110605545062361976e+00
-9.649498578867916621e+00 -1.403972034623805820e+00
1.202262745224695983e+01 -1.031656240034164718e+01
-5.365269451918173615e+00 4.451806342707547159e+00
1.449993600878549493e+01 1.503009246614796623e+00
1.738594664300642378e+01 2.716767654075397775e+00
-4.807323729980603311e+00 -3.094184712383399649e+00
8.469000697473722639e+00 -8.401680043282173216e+00
4.846871858472959538e+00 -1.433680868570081479e+01
4.839061612668555945e+00 -1.433870211789665738e+01
1.340307886272511873e+01 -1.098064020379838546e+01
1.659440299858921941e+00 -9.821369932069415887e-01
1.663050358814389229e+00 -9.821381122207875070e-01
1.284306600773204998e+01 -5.232904492676516917e+00
-7.763010660780481631e-01 5.889723170072633796e-01
-1.820595255567699766e+01 -3.336443697399904984e+00
4.066892144606007342e+00 1.247831209208769465e+01
-3.033741762884608839e+00 -9.212764572741788172e+00
1.487987453282740979e+01 8.028426400217414383e+00
1.274262339312762293e+01 -9.421344598447889851e+00
2.149657480926077113e+00 -9.884512205810930041e+00
1.450108908029691257e+01 2.146219863171153985e+00
-7.519490330506163112e+00 1.095151240842357820e+00
8.693167551263355719e+00 -8.662135137253937245e+00
2.750618631541782211e+00 -1.016518684454920063e+01
1.160316650692877261e+01 -1.397656882885900131e+01
4.919693140765305728e+00 2.055379975934769288e+00
4.161786390771863076e+00 2.056899710627456912e+00
-1.816979413872137883e+01 -7.155277471725487892e+00
1.849794494600649841e+01 2.875537076102610001e+00
-3.954959524326815412e+00 9.328686817757434468e+00
-3.641359350690956731e+00 1.538570254028216899e+00
-1.273775198400167064e+00 1.938260523508283129e+01
-1.396153588392327194e+01 -1.799757906104940686e+00
4.845346777185650211e+00 -1.431389979957060810e+01
1.784359536264283008e+01 -7.481147720701017967e+00
1.198261749416760402e+01 -4.715990297515197938e+00
8.471310797351311095e+00 -8.415210130544162226e+00
1.785313918915631604e+01 -7.480203827082383405e+00
8.715815648454263709e+00 -1.026376097936102916e+01
1.785264591911076337e+01 -7.478322477032110172e+00
1.784968990521496224e+01 -7.477730758669087763e+00
1.783684792810994679e+01 -7.476710351120016362e+00
1.784337396382197127e+01 -7.478681891749232591e+00
-5.354102145389204814e+00 1.528774415643766282e+01
1.369492625889949622e+01 -1.157174608544984196e+01
-7.021632226649824560e+00 -1.546188564357039930e+01
-1.222621571487269065e+01 -1.501727876978660525e+01
-1.307113635426917497e+01 -5.866534457689710713e+00
-4.446102584442136241e+00 4.880233944265521373e+00
8.469258854185570229e+00 -8.401780978758754515e+00
-5.683019719091815247e+00 -1.511943404479379360e+01
1.229443097005549568e+01 6.006763421093157529e-01
8.471088669460256071e+00 -8.419480316679765153e+00
1.840827641530806602e+01 -1.187122067719655583e+01
1.751165591545043299e+01 2.055503063999252866e+00
1.450159948612447991e+01 2.671589323232133495e+00
1.812932799439574083e+01 2.743426080606204298e+00
-1.828678254090046096e+01 -7.641392507530112788e+00
7.975877768837539072e+00 -8.250824710452464572e+00
5.434194365367186919e+00 -4.022346312879380825e+00
9.028258073985806931e+00 7.355042842440014716e+00
-1.296327391318945743e+01 -1.080675421827010707e+00
-5.285179696545212025e+00 1.046564286056447379e+01
-1.569183580915665033e+01 7.326685151597803092e+00
1.829303036671727156e+01 1.940096232767998474e+00
1.341290789232808534e+00 -9.825934506505630495e+00
1.004436523915925505e+01 1.246107141116712835e+00
-8.218180308614329022e+00 -6.814951014319064804e+00
-1.024493872741444278e+01 -1.237661408176931310e+01
-1.518424139828529285e+01 2.026410556112511863e+00
-8.977683176614906557e+00 -9.556150296660222310e+00
-7.598935253950740432e+00 -1.392073728679943478e+01
1.784904595710390751e+01 -7.482225550386641721e+00
1.784097397954493047e+01 -7.481014935829976231e+00
8.474422900939041270e+00 -8.416986995725014964e+00
5.295128422787756861e+00 1.891610918231320659e-02
1.484288117669913554e+01 -1.037893349148024669e+01
7.004328483271346606e+00 -6.069225496280318488e+00
8.467702117865099964e+00 -8.416583228547144913e+00
-4.359969226606230208e+00 -2.150630398046850189e+00
-1.961347763171711556e+00 -1.258779490186723038e+01
4.866922872442102310e+00 -1.032844481937043568e+01
-1.657769935798696803e+00 2.757723574421019119e+00
-7.845082873438868454e+00 9.817905998199786266e-01
-1.416921814056123807e+01 -3.967981587952270850e+00
-1.409985686430139751e+01 -8.091248525579711526e+00
7.010432080014175504e+00 -6.616257836654975133e-01
1.488150058891512373e+01 8.025947235878630792e+00
1.784678002771853755e+01 -7.482383611878444363e+00
9.745568169368032940e+00 -1.353199905747284149e+01
1.266852369313276228e+01 3.750294849061429403e+00
7.361877386322792205e+00 -5.656524400198721381e+00
5.998643938165213463e+00 -1.132969683413726791e+01
6.383869348829066759e+00 -1.166436465518948218e+01
1.678637442868053720e+00 -9.821666436949356704e-01
6.383881742022505357e+00 -1.166419476364031738e+01
5.999136369246510725e+00 -1.132546322880759604e+01
8.776552872420843698e+00 -7.524394271231217957e+00
8.466407254270157168e+00 -8.405070673938588754e+00
-4.847228614904357080e+00 3.567273791819183248e-01
-1.339443597402838693e+00 2.262329918922082239e+00
-1.622434894895028901e+00 3.738592511595494550e+00
-1.088712504785527280e+00 3.480563039113696799e+00
-4.470496724901106056e+00 4.946733974234472697e+00
8.926115713545792474e-01 -9.831939432448358884e-01
-9.870284522308391928e+00 -4.558719327979233960e+00
8.474196209701604587e+00 -8.417822210320641929e+00
8.468694373306032475e+00 -8.400081490884568680e+00
8.471044395688876349e+00 -8.413002449611802547e+00
8.473210090707150144e+00 -8.417346246938951282e+00
5.999069577186666002e+00 -1.132678249743670307e+01
-1.331144601633211355e+00 1.858578295243025735e+01
4.867396100764996625e+00 -1.032833309669272737e+01
-2.645184842071401921e+00 5.264443182161126167e+00
1.488678273806269914e+01 8.023954282246918979e+00
7.116326805960830448e+00 1.034546376798015821e+01
1.770192386540396345e+00 -9.453377276853123234e-01
8.475318837576107711e+00 -8.417567635494924261e+00
-2.710948154147014399e+00 5.229332713499379004e+00
1.004924935274668485e+01 -6.550065338592996333e+00
1.874147691766497204e+01 -7.243971805192249924e+00
1.874187190120114366e+01 -7.239334732760663194e+00
-1.379888734159205654e+00 -8.637748455941679282e+00
8.472522282223271972e+00 -8.414303371024994149e+00
-4.196472095889011378e+00 6.977024115438726248e+00
8.465514764978943063e+00 -8.414387467959000944e+00
-2.279673416960754651e+00 7.177398561008432765e+00
-4.054878238662482204e+00 8.616942781462400003e-01
9.773833980778709574e+00 8.764426386759637921e+00
6.046931162837590357e+00 -1.404086285039706716e+01
5.983199925400306540e+00 -6.247081279837700230e+00
-1.906664951475493419e+00 2.398078516312500241e+00
5.095163838911315857e+00 -2.939968555742028311e+00
6.557700370240476140e+00 3.515715266445344156e+00
-7.719660177365544884e-01 3.617707715745223318e+00
-4.961435388516338030e+00 1.029656136340064165e+01
5.255584978367085824e+00 1.348162039700313386e+01
6.706970071581073611e+00 3.517461751825951222e+00
1.416036659631377148e+01 -2.241356050499466068e+00
1.436165172043649996e+01 -1.024655135411737383e+01
1.435841968576717953e+01 -1.117377606346207486e+01
9.101725263863118087e+00 6.483978776266228650e+00
8.368035524204204378e+00 9.836481377038543528e+00
8.470346010133356529e+00 -8.418410868941741398e+00
1.004875095808682062e+01 -6.550281438716744731e+00
-6.433903576726340834e-01 3.545004617261035218e+00
-1.330833809594944794e+00 1.858567388094466111e+01
-1.389036430418409473e+01 -3.514766529506205384e+00
1.144594908975615688e+01 1.388659668823794435e+00
-1.273879747604545365e+00 1.938840317847553152e+01
6.017031764433546925e+00 -6.584745953410449992e+00
4.919927569685493829e+00 2.055637941559770532e+00
-1.274387904473907707e+00 1.945132574971743722e+01
4.919470601808575871e+00 2.055449370742949977e+00
7.537621797359993714e+00 9.851136769286062744e+00
-7.953925072147780106e+00 -7.883604046080215921e-01
1.091602400713707333e+01 -1.901768775000237222e+00
-7.503632615455755328e+00 -9.266336094606225871e+00
5.910987659308942099e+00 -2.106495620895565857e+00
-1.659191119798589575e+00 1.284991659628327376e+01
-5.356052562058767563e+00 1.529245570928887865e+01
1.416547987064842928e+01 -2.240343393969058905e+00
1.892528031945941436e+00 1.909485617483601061e+01
1.832544544015438959e+01 -1.183655130445403358e+01
1.386188539180555779e+01 -1.078278300085527519e+01
1.294745848104459540e+01 -4.564040937360540617e+00
4.534183045829041525e+00 2.074103310779829457e+00
-1.901417745550447513e+00 2.503845596265705797e+00
-1.627373517618232768e+01 6.603097544695503807e+00
-5.277425191239961677e+00 -1.011786973268749357e+01
4.919716012677180395e+00 2.055445196099931593e+00
1.284385513865171013e+01 -5.235254092000946713e+00
-2.143682911687464276e+00 9.332318637756310764e+00
4.919904127981157060e+00 2.054425238550124266e+00
-1.176757227638862879e+01 -7.727352820954086710e+00
1.449720325046949476e+01 2.142677674685659284e+00
-2.144122436425415668e+00 1.733712726099175327e+01
-1.022096230257077032e+01 3.844844472503721633e+00
8.811667389739918477e+00 -8.666243064750375424e+00
-1.894880824110829198e-01 1.393027991296925094e+01
-5.356574258434021907e+00 1.529747159885352659e+01
6.259234211328420727e+00 1.082596246817027819e+00
1.820378559656112927e+01 2.427288809180967899e+00
-5.054298951762509901e-02 1.607112683334106862e+01
-2.485750539978901497e+00 -4.735727969946506910e+00
-8.576057918130976176e+00 6.075346565926505349e+00
-1.154047251078824132e+01 -8.789455250455663560e+00
5.660299988282472050e+00 -7.269748127541220128e+00
-1.409716445857325162e+01 -8.090569254142367939e+00
1.838485683689138384e+01 -1.548451419260407080e+00
1.378978234163633232e+01 -9.718815988981138076e+00
-1.572906339800323927e+01 -1.002176377595308132e+01
-1.491781015880292927e+01 -1.301258351160150717e+01
1.450049742285273702e+01 2.154613424389106857e+00
1.487965052773203034e+01 -2.407293413170900731e+00
-1.603599600885551268e+01 -2.540198319852069897e+00
1.893091981346903152e+00 1.910719583961404311e+01
1.369304103327132038e+00 1.990323285464396008e+01
-4.684966472438387264e+00 1.567562208572666371e+01
-1.305814982721381412e+00 1.942368202023139645e+01
-9.156926787902358811e+00 -3.542917814761364248e+00
1.644677560243510683e+01 7.968035309800226784e+00
5.538128467282224854e+00 -6.268808705265078274e+00
3.783516300047477188e+00 5.779866788612301853e+00
1.393683121927673696e+01 -8.893086481458723824e+00
-1.309328214463508111e+01 -1.529206185656063255e+01
-1.222989182688894516e+01 -1.503856072772442332e+01
-1.221908033555184225e+01 -1.501781195095563959e+01
-1.559685734269134549e+01 -9.625857210154638466e+00
7.952592380226191970e+00 9.374474290901497753e+00
-1.718795230946485120e+01 -4.239418594956961606e+00
-6.322603799787431811e+00 -7.168764862239346058e+00
-1.079627720368939947e+01 1.065443579190168411e+00
-8.641020139509185682e+00 8.594748686075375232e+00
-6.418628526176847870e+00 -2.768108413805863588e+00
1.295166173424714984e+01 -9.590437109794512693e+00
-1.055648468063103351e+01 -1.377417959057928165e+01
1.748175559298655912e+01 2.778494608308092140e+00
-1.604972034715762419e+01 -2.544901306516509809e+00
-1.567157683569103455e+01 7.487097310388025839e+00
1.068746261237184036e+01 1.910137148116051176e+00
1.106749643400597627e+01 1.617050263655049225e+00
6.974225401891277487e-01 1.425807248901356949e+01
-5.463782706689630508e+00 -1.144987330759874844e+01
-1.310430996222015843e+01 -5.955276348224657568e+00
1.123893819940926342e+01 6.047023315725352788e-01
1.141778754715210376e+01 -1.376872861702687079e-01
6.085083566658167076e-01 1.329731975103957353e+01
-1.087634271726771473e+01 -1.244636480763793074e+01
-7.097314659290954175e+00 1.264791613667757053e+00
1.751808627677566932e+01 2.052346740637801759e+00
-2.895419093836297364e+00 1.719700342312999553e+01
1.273016924589555998e+01 -1.029358132921735702e+01
-1.454073702165953996e+00 -1.593674001568330212e+01
1.106348671006765905e+01 3.337603918989664464e+00
-1.007210587447220185e+01 -9.018180454673876412e+00
-1.045766695800214485e+01 1.108677151865290256e+01
-2.392861871432855114e+00 5.061448849514754933e+00
1.349815232626273342e+01 -9.836471982087356736e+00
-1.603359386836203626e+01 -2.556422366024766024e+00
1.106492279091508912e+01 3.322947266712876768e+00
-6.318210429594873112e+00 -7.279164632875893659e+00
-5.153124044369141288e+00 1.779981080604934363e+01
-1.103520146326592055e+01 -8.312214420233217993e+00
-1.827245626396530298e+01 8.348284112083229624e-01
2.416227273760616079e-01 8.963268519702447534e+00
-1.411073361103037804e+01 -1.926174221276995224e+00
-1.222328290705981146e+01 -1.501776763831427886e+01
-5.150297657601790924e+00 4.199914353107985221e+00
-1.311159102596125869e+01 7.455620339925036255e+00
-1.098141989959924025e+01 6.843098647724791483e+00
-5.356426540751904497e+00 1.529537156889289129e+01
-1.098476775599572264e+01 6.836199236675208013e+00
-1.098082570856580276e+01 6.835926555338729393e+00
-1.098592884399151970e+01 6.835793295733584962e+00
1.828577330156536362e+01 -1.636438669246851552e+00
-1.379126628740255001e+01 4.866797112730538721e+00
-6.192221101732676480e+00 1.517756588554543740e+01
-3.119561689544456673e+00 1.697700728496656453e+01
-1.893503208143022531e-01 1.392643614400082974e+01
-8.110315285162926102e+00 4.421129194037123789e+00
-3.820146155300305324e+00 3.905922709554302319e+00
1.284349070517885671e+01 -5.235927251668044846e+00
-1.234576121592439257e+01 -1.592001329406497234e+01
5.916326868556302188e+00 -3.099949901722733436e+00
-1.717921252025248791e+01 -4.240876777347239113e+00
-1.130614075831208609e+01 -1.568523773486013084e+01
5.911781145061254961e+00 -3.915717526031881501e+00
1.891881677455373945e+00 1.908121266262931570e+01
-4.625679436605467210e+00 1.389938502857100033e+01
-1.567229748175470894e+00 -1.286660153778178273e-01
-2.820339842775157368e+00 1.719988036727225733e+01
-5.869534986065930049e+00 -1.510957607005177650e+01
1.358476040981941146e+01 -9.782593504150050023e+00
-6.193588443795109200e+00 1.569419396441378112e+01
2.088568023764696591e+01 5.885334505123436699e+00
5.148528256301953654e+00 -9.840430285223126461e+00
-2.485827642300999063e+00 -4.734591947078288676e+00
8.092018853815783785e+00 8.966355048187455878e+00
-1.143620398064601495e+01 9.869787474829870844e-01
-6.289642738366168828e+00 -1.870318428070088501e+01
-1.128087760232756587e+01 1.105036175365404105e+01
-6.252239069512762981e+00 9.143051362979166541e+00
3.118829429289715183e+00 -1.183055940729004796e+01
-3.671002772765337152e+00 -1.493406988755425102e+00
1.330499373460760637e+01 -1.077331260358860909e+01
-1.570392099366084260e+01 7.325581584513023437e+00
-1.376386183198051683e+01 3.917332833335070319e+00
-5.356078996682907878e+00 1.529461947940115429e+01
-1.879640127276600126e+00 -1.217228166649146281e+01
-1.913730441851756225e+01 1.663747357988299314e+00
1.397509665310193405e+01 -1.029152410900986858e+01
-5.354851331887958921e+00 1.529057168495103802e+01
5.989091243890734440e+00 -3.037807384042046088e+00
4.877501338927437563e-02 1.651526701145954945e+01
4.144254573903793926e+00 1.242986583249950527e+01
6.377316006395283843e+00 4.653447624359769996e-01
5.257753959310188741e+00 1.348074936969879190e+01
-4.711545093978759979e+00 -9.967416218458970079e+00
1.855595663472275447e+01 2.179537225165832925e+00
-1.603206174265433503e+01 -3.469760653333703093e+00
-1.469978925095360012e+01 -8.964613033202981640e+00
-1.103665525032184114e+01 -8.348978515701396930e+00
3.368663895395357377e-01 9.047564274952323515e+00
2.837103386310456443e+00 5.884191590149566942e+00
-7.183649665842068543e+00 7.385548698699875736e+00
-1.374865042691222250e+01 5.228256664179170343e+00
-7.501401489452715232e+00 -9.266676427534163096e+00
-1.395727187983053064e+01 -1.799595811140222379e+00
-1.389274597427171543e+01 -1.169970656043066271e+01
2.611985812978377952e-01 1.113704169327379256e+00
1.478493347738185548e+01 -9.999841573556636831e+00
-9.990508488333665227e+00 -6.810604841759744232e+00
-5.356356341440248414e+00 1.529528133632102538e+01
1.836294525372672837e+01 2.985638516769315576e+00
2.273023490111809153e+00 1.685903222048238703e+01
3.122525297652730014e+00 -1.181988165452273876e+01
-8.742041019586707762e+00 9.516428220960159834e+00
-1.155854520978454936e+01 -4.071370286856382137e+00
4.229221238262670823e+00 6.655149543954768987e+00
-1.718542052279877907e+01 -4.239504258419027671e+00
5.727564862582710248e+00 -3.972590480181926509e+00
3.255384248049841278e-01 1.232156556480890952e+00
-5.669098712484603730e+00 8.876864978144149987e+00
-8.593718175794810676e+00 8.829630644787027194e+00
-1.079851493648890326e+01 1.304296748131340067e+01
1.016769899732078386e+01 7.335009514110946149e+00
9.078537830786308049e+00 9.151357981655497298e+00
1.314159191921072889e+01 -1.156695683125022356e+01
1.278132263192421725e+01 -1.150519849456830102e+01
1.314684926356540196e+01 -1.069778212590198763e+01
7.548582993890583737e+00 6.777001183953556662e+00
3.194167070403806985e+00 -1.197074258905359656e+01
7.196289460428385354e+00 3.603323411129783604e+00
-1.241191946452434003e+01 7.030081635938542739e+00
-1.241165375281990002e+01 7.029815824106844246e+00
-1.570800356211374194e+01 7.328848601036081156e+00
-8.820969203007141823e-01 2.080858848483808643e+01
-1.717455774530673551e+01 -4.235714988678398463e+00
1.817470432099768374e+01 6.455192833622587223e+00
-1.680381512265266153e+01 6.046352060478224821e+00
6.832807565870188782e+00 -6.380922531869560821e+00
-1.342024687401169381e+01 -1.253257556046705901e+01
-1.356203578459111547e+01 1.130458281617168215e+00
-1.837179143544681992e+01 6.864238586540433174e-01
6.537201848885804800e+00 7.725920447120390833e+00
-9.753350989014657912e+00 -1.563881814022806260e+01
-1.075587071697620800e+01 1.315295715359329343e+01
-1.689449952466197402e+01 -7.836685048323517755e+00
-1.880257917824299696e+01 3.089029107972877330e+00
1.385588108824529208e+01 -1.145202741233415189e+01
-1.639857205367790272e+01 -2.562781627643280491e-02
-1.395885517920511631e+01 -1.799741571590814715e+00
-6.421254493676860520e+00 -2.575770130006716840e+00
-1.820541335424457685e+01 -3.336803400523843166e+00
-6.396226225386941522e+00 1.581358866240999994e+01
8.833851870916815674e-01 8.154229823005854527e+00
5.572038440671843951e+00 2.830120869887888357e+00
-5.338935100376319909e+00 -7.830049178479490557e+00
1.238605001677094464e+01 -9.348139004167245858e+00
8.518312023719158077e+00 9.062605968040809756e+00
-1.689191219864396132e+01 -7.838216232783350002e+00
-8.956270884920465747e+00 -7.981223198956820752e+00
-1.026471639860214680e+01 -8.061996084598922252e+00
1.842003923481659200e+01 2.019556866781722526e+00
1.592671203634208155e+01 -1.478739287826660131e+01
-1.640188369497392173e+01 -7.743498441337285376e-01
-2.686706646775489649e-01 -5.462541849193513599e+00
1.420247648974342169e+01 -9.820229528015046228e+00
3.122929022937287691e+00 -8.930361334857892075e+00
1.826668488109147148e+01 1.934325115302480969e+00
1.857976263042028719e+01 2.185976580788178136e+00
1.202050102189672920e+01 -1.046769247240456657e+01
-5.355876671325608740e+00 1.529093606868311284e+01
-1.526527117266534361e+01 1.835811433266915760e+00
-1.861709486419473691e+01 6.695855675281961794e+00
-1.912129818125106695e+01 7.593167609285588204e-01
-7.643863821163805916e+00 -8.234597274273587786e+00
1.742474218644306916e+01 2.829549467543264640e+00
1.824846417941244425e+01 2.519689652669541591e+00
1.736834563481421512e+01 2.478357510701909572e+00
-5.513153968882428480e+00 -2.843023947357778969e+00
-6.689396183706977972e+00 -1.788357205011326334e+00
-1.036336613124307782e+01 -3.204223517160262880e+00
-5.922896211101781994e+00 1.637807759631505533e+01
-5.356012376541062991e+00 1.527791026816569797e+01
-1.977107299076700020e+00 -1.254480736765671622e+01
1.830284823454440613e+01 3.017049641523451342e+00
-1.399501958931847367e+00 1.432306906921782463e+01
-5.485830714097287952e+00 1.605373899727375075e+01
9.772298711542893201e+00 1.051953333550751246e+01
1.258533829651250535e+01 -1.094548747848750914e+01
1.284341256620873040e+01 -5.233814991854334409e+00
-5.886240156741014973e-01 -7.942930907400475249e+00
-8.949835964813198652e-01 2.055044263777948998e+01
-1.396110702565517236e+01 -1.799505877922424890e+00
-1.857861715656607871e+01 -5.436746551905629055e+00
-2.485881611479531905e+00 -4.730460459621724567e+00
-1.820559980303999126e+01 -3.336843253095545858e+00
-1.383070747304936710e+01 -1.316023710966508720e+00
-2.440510502041915331e+00 -8.147356394139467994e+00
-1.295812841769648394e+01 -1.080699146958022494e+00
-1.391787319126219225e-01 1.416507135771806070e+01
-6.015463432340403926e+00 7.113218769512620554e+00
1.254075705889177961e+01 1.156347956037854274e+01
1.254048621844128952e+01 1.156421851452131300e+01
-2.305418598968874466e+00 -9.285781921026316610e+00
-1.103777859623395408e+01 -9.439582078985351288e+00
-2.701626489845652568e+00 1.702140959342446891e+01
-1.431939845760541807e+01 -1.963232270124524392e+00
-1.246743116374943305e+01 8.774191666826689939e+00
-7.024701683612668113e+00 -1.545003681669543205e+01
-2.841752377905684135e+00 -2.557200031853349209e+00
-7.501727670692289962e+00 -9.267275549774469212e+00
6.164861060611718457e+00 -1.505426132050988741e-01
-3.033584083261078757e+00 -9.217588125260936849e+00
-1.083559412953243672e+01 -9.254839113272200990e+00
-4.428893880127169780e+00 -3.864755785994365755e+00
3.369573009558883836e-01 9.053538083701484496e+00
-1.899737208362107133e+00 -7.452905552342275364e+00
-1.045715206488011262e+01 1.107942166873883494e+01
7.112345273921819810e+00 -1.484256664037340023e+00
-2.170044613910917075e+00 -8.150120903814059403e+00
1.613931355495728681e+01 -1.255420919942254621e+01
-1.518401859946142274e+01 2.026490352064965972e+00
2.339172441716099726e+00 4.809984294176063102e+00
-3.020353562494543898e+00 -9.349611552643557033e+00
-3.033646926552343359e+00 -9.217250732489395304e+00
1.352864966387318368e+01 -9.266349265840085891e+00
-1.687915384297739152e+01 -7.841174017695136556e+00
-1.946882015832570900e+01 -3.619752664099821438e+00
-1.606506163703913614e+01 -2.522063899306253631e+00
-1.928408922818451288e+01 -2.408380251212910661e+00
-4.319035127002426755e+00 8.233441866284119115e+00
-1.375365193224000748e+01 4.805393464180717444e+00
-9.637767697519439736e+00 -1.214732226849842966e+01
-9.159308235652108721e+00 -4.733576544041087075e+00
-3.033802130862775837e+00 -9.217020085383012429e+00
-1.820483766338606202e+01 -3.336547350033565618e+00
-1.102737545939686292e+01 -7.913864409854005189e+00
-4.354988246358768578e+00 -5.156396548760088017e+00
-5.039424314169352215e+00 9.126849146605820806e+00
-1.892419034534275069e-01 1.393754867461608171e+01
-1.909508391927628068e+01 -5.172217462361378360e+00
-6.954139719565419320e+00 1.529738378436054091e+01
-1.820939335556272454e+01 -3.336647372287420588e+00
-9.243268670264784603e+00 -4.597828673248902653e-01
-1.913236100903072412e+01 2.480629364452839880e-01
-1.801988696295180148e+01 -3.244262526654684287e+00
-1.598640758732976952e+00 2.508477727073653574e-01
-8.406038154817078834e+00 9.529176208502605050e+00
-9.970096458543645568e+00 3.380756893408255248e+00
-8.171358521813173681e+00 4.096514334155634707e+00
-1.189363556055300286e+01 7.619411062906638499e+00
-1.128411090865848010e+01 1.104768928465309230e+01
-5.582278148883495383e+00 1.451474821883038580e+01
-1.375368057754037743e+01 4.808562561053831175e+00
-2.485891409203496050e+00 -4.733352479803650148e+00
-3.012114644935806496e+00 -9.351782771284446127e+00
-1.189306402822630915e+01 7.619216047309850026e+00
6.291222145693308399e+00 -8.003730365093944532e-02
-1.814031752793636798e+01 -5.706582611075039502e+00
2.403806163538504403e+00 -8.915291246268553849e+00
4.844919189430270556e+00 -1.427048337008091750e+01
-1.311190751648091357e+01 7.455598357178996771e+00
1.380500860695474330e+01 -8.779196539792923915e-01
-3.222158082365323306e+00 5.194458904416512368e+00
8.471318369891680078e+00 9.306661231257390199e+00
-1.640439337117150487e+01 2.760378499818693654e-01
-1.835678819317165988e+01 4.051086883409112716e+00
-8.773119069105307366e-01 -1.335841620096016813e+00
-5.252854990260175327e+00 -1.009883807269518208e+01
-1.850216424035912866e+01 1.562955601546728523e+00
-1.820354820975603616e+01 -3.336213347324484602e+00
-1.570942555983424427e+01 7.326927986170054474e+00
-1.352496195445280058e+01 1.158441691265731821e+00
-1.985879389619978497e+01 -4.876818270772959707e+00
3.004041464520764926e+00 -1.515011547669370273e+01
-5.100169156120538005e+00 1.019878222637380816e+01
-1.645752163052634032e+01 4.328296221914156305e+00
-1.139293295338545242e+01 8.867845135285750136e-01
-7.021569679443399714e+00 -1.546369396911292604e+01
-1.579189642838187879e+01 6.108485599558148849e+00
-9.976292943058657769e+00 3.380182449592458838e+00
3.119432304220949526e+00 -1.181572629580436207e+01
1.468142527426270760e+01 -2.357438908012968959e+00
1.415616802067624569e+01 -2.240270311902466283e+00
1.470600073309364042e+01 -1.087342140774174304e+01
-1.579071639975332531e+01 4.038172232621597857e+00
-2.485655360558854721e+00 -4.735550423422116850e+00
-1.410072195531295058e+01 -8.092477790105913726e+00
-1.395706718780579969e+01 -1.799939194368833872e+00
-1.806640715040634859e+01 -2.922256616496679005e+00
-9.069274908225581910e-01 -8.069110713030360316e+00
-9.973364377399597913e+00 3.380294270784606869e+00
-5.158482113071541697e+00 -8.518687924498594910e+00
-5.064405368873622137e+00 3.903386873059663031e+00
-1.581648886995793202e+00 -8.138892684435509395e+00
1.200971513763211540e+00 1.453060150775565340e+01
-6.180220983908502053e-01 -4.998291291837753669e-01
-5.668749411176082553e+00 8.879241724657036983e+00
-1.579194428887999280e+01 5.055347397682504962e+00
-6.772543621327785424e+00 1.915253429120772122e+00
-4.377428628456459414e+00 8.486358014690388529e+00
-6.356634310968133583e+00 1.454865088600295309e+01
-5.611572905695423330e+00 6.444881813915391611e+00
-5.668703435671558211e+00 8.880571426596553408e+00
-1.893860939254978604e+01 -5.482132816713188639e+00
4.476656136989665136e-01 9.463581720968937461e+00
6.407479846562130099e+00 -5.526806029920502406e-01
6.558688833877600821e+00 9.939259318537220222e-01
3.365569710103683554e-01 9.052131560884955519e+00
3.368976583684219483e-01 9.050911146549799113e+00
-1.166457985425195520e+00 -8.755694980171677244e+00
-9.973381971250400824e+00 3.380481227692355262e+00
-1.837998078705831873e+01 2.573665669177672477e+00
-1.127840652884888861e+01 1.104814786263833604e+01
-5.396431686337547440e+00 8.209588226924793730e+00
1.154111559134141629e+01 2.780376309411180635e+00
1.100431300825841241e+01 -1.931361723130631036e+00
-1.633163475624066052e+01 6.666205730056087297e+00
-8.770089053187810180e+00 9.599658936252971841e+00
1.610837272134889364e+00 -9.139232904929382784e+00
-6.659417356275454836e+00 1.447586538586657312e+00
1.467651673445393889e+01 -9.614691785423380210e+00
6.031967434844185405e+00 -6.576348513983399258e+00
-1.627813610379211440e+01 6.603051178714539837e+00
3.861285894107345240e-01 8.702207479049223204e-01
2.078457657248115320e-01 1.957464278221786036e-01
-8.869873198534953929e+00 8.423323585560657634e+00
-6.769457877503533005e+00 1.402955369533260832e+00
-3.909712125436144436e-01 1.071055485115446793e+00
